fp2/laserspektroskopie/daten/oszi/ALL0029/F0029CH2.CSV

Record Length,2.500000e+03,,   0.007910000000,  -0.01960,
Sample Interval,1.000000e-06,,   0.007911000000,  -0.00640,
Trigger Point,-7.910000000000e+03,,   0.007912000000,  -0.00200,
,,,   0.007913000000,  -0.00440,
,,,   0.007914000000,  -0.00320,
,,,   0.007915000000,  -0.00240,
Source,CH2,,   0.007916000000,  -0.00880,
Vertical Units,V,,   0.007917000000,  -0.01200,
Vertical Scale,1.000000e-02,,   0.007918000000,  -0.00040,
Vertical Offset,-8.800000e-03,,   0.007919000000,   0.00040,
Horizontal Units,s,,   0.007920000000,  -0.00080,
Horizontal Scale,2.500000e-04,,   0.007921000000,  -0.01000,
Pt Fmt,Y,,   0.007922000000,  -0.00720,
Yzero,0.000000e+00,,   0.007923000000,  -0.00520,
Probe Atten,1.000000e+00,,   0.007924000000,  -0.00840,
Firmware Version,FV:v6.08,,   0.007925000000,  -0.00840,
,,,0.007926000000,  -0.00960,
,,,0.007927000000,  -0.00680,
,,,0.007928000000,  -0.01480,
,,,0.007929000000,  -0.01760,
,,,0.007930000000,  -0.01560,
,,,0.007931000000,  -0.01520,
,,,0.007932000000,  -0.00640,
,,,0.007933000000,  -0.00960,
,,,0.007934000000,  -0.00800,
,,,0.007935000000,  -0.00480,
,,,0.007936000000,  -0.01480,
,,,0.007937000000,  -0.00040,
,,,0.007938000000,   0.00520,
,,,0.007939000000,  -0.00600,
,,,0.007940000000,  -0.00720,
,,,0.007941000000,  -0.01320,
,,,0.007942000000,  -0.01360,
,,,0.007943000000,  -0.00720,
,,,0.007944000000,  -0.00440,
,,,0.007945000000,  -0.00160,
,,,0.007946000000,  -0.00280,
,,,0.007947000000,   0.00040,
,,,0.007948000000,  -0.00200,
,,,0.007949000000,  -0.00480,
,,,0.007950000000,  -0.00280,
,,,0.007951000000,  -0.01640,
,,,0.007952000000,  -0.00960,
,,,0.007953000000,  -0.00200,
,,,0.007954000000,  -0.00440,
,,,0.007955000000,  -0.00560,
,,,0.007956000000,   0.00000,
,,,0.007957000000,  -0.00120,
,,,0.007958000000,  -0.00400,
,,,0.007959000000,  -0.00600,
,,,0.007960000000,  -0.01440,
,,,0.007961000000,  -0.00920,
,,,0.007962000000,   0.00040,
,,,0.007963000000,  -0.00440,
,,,0.007964000000,  -0.01000,
,,,0.007965000000,  -0.00680,
,,,0.007966000000,  -0.01280,
,,,0.007967000000,  -0.01240,
,,,0.007968000000,  -0.01480,
,,,0.007969000000,  -0.01480,
,,,0.007970000000,  -0.00760,
,,,0.007971000000,  -0.01320,
,,,0.007972000000,  -0.01360,
,,,0.007973000000,  -0.01480,
,,,0.007974000000,  -0.02000,
,,,0.007975000000,  -0.00840,
,,,0.007976000000,  -0.00720,
,,,0.007977000000,  -0.00880,
,,,0.007978000000,  -0.00160,
,,,0.007979000000,  -0.00320,
,,,0.007980000000,  -0.01080,
,,,0.007981000000,  -0.01640,
,,,0.007982000000,  -0.01440,
,,,0.007983000000,  -0.01520,
,,,0.007984000000,  -0.01680,
,,,0.007985000000,  -0.01560,
,,,0.007986000000,  -0.01360,
,,,0.007987000000,  -0.01600,
,,,0.007988000000,  -0.00840,
,,,0.007989000000,  -0.00880,
,,,0.007990000000,  -0.00960,
,,,0.007991000000,  -0.01240,
,,,0.007992000000,  -0.00880,
,,,0.007993000000,  -0.00160,
,,,0.007994000000,  -0.00880,
,,,0.007995000000,  -0.00920,
,,,0.007996000000,  -0.00480,
,,,0.007997000000,  -0.00240,
,,,0.007998000000,  -0.00320,
,,,0.007999000000,   0.00280,
,,,0.008000000000,   0.00080,
,,,0.008001000000,   0.00600,
,,,0.008002000000,  -0.00600,
,,,0.008003000000,  -0.00480,
,,,0.008004000000,  -0.01120,
,,,0.008005000000,  -0.00600,
,,,0.008006000000,   0.00200,
,,,0.008007000000,  -0.00480,
,,,0.008008000000,  -0.00480,
,,,0.008009000000,  -0.00240,
,,,0.008010000000,  -0.00520,
,,,0.008011000000,  -0.00360,
,,,0.008012000000,   0.00200,
,,,0.008013000000,  -0.00440,
,,,0.008014000000,  -0.00640,
,,,0.008015000000,  -0.01400,
,,,0.008016000000,  -0.00320,
,,,0.008017000000,  -0.01400,
,,,0.008018000000,  -0.01040,
,,,0.008019000000,  -0.01120,
,,,0.008020000000,  -0.01080,
,,,0.008021000000,  -0.01040,
,,,0.008022000000,  -0.01000,
,,,0.008023000000,  -0.00440,
,,,0.008024000000,  -0.00480,
,,,0.008025000000,  -0.01600,
,,,0.008026000000,  -0.00720,
,,,0.008027000000,  -0.00360,
,,,0.008028000000,  -0.01280,
,,,0.008029000000,  -0.01080,
,,,0.008030000000,  -0.01720,
,,,0.008031000000,  -0.00600,
,,,0.008032000000,  -0.01200,
,,,0.008033000000,  -0.01160,
,,,0.008034000000,  -0.01480,
,,,0.008035000000,   0.00000,
,,,0.008036000000,  -0.00360,
,,,0.008037000000,  -0.00800,
,,,0.008038000000,  -0.00920,
,,,0.008039000000,  -0.00360,
,,,0.008040000000,  -0.01200,
,,,0.008041000000,  -0.00360,
,,,0.008042000000,  -0.00400,
,,,0.008043000000,  -0.00240,
,,,0.008044000000,  -0.01200,
,,,0.008045000000,   0.00080,
,,,0.008046000000,  -0.00160,
,,,0.008047000000,  -0.02120,
,,,0.008048000000,  -0.01200,
,,,0.008049000000,  -0.01640,
,,,0.008050000000,  -0.01320,
,,,0.008051000000,  -0.01440,
,,,0.008052000000,  -0.00920,
,,,0.008053000000,  -0.01040,
,,,0.008054000000,  -0.01320,
,,,0.008055000000,  -0.01120,
,,,0.008056000000,  -0.00960,
,,,0.008057000000,  -0.01760,
,,,0.008058000000,  -0.01480,
,,,0.008059000000,  -0.01080,
,,,0.008060000000,  -0.01480,
,,,0.008061000000,  -0.00920,
,,,0.008062000000,  -0.01120,
,,,0.008063000000,  -0.01240,
,,,0.008064000000,  -0.01280,
,,,0.008065000000,  -0.00840,
,,,0.008066000000,  -0.01080,
,,,0.008067000000,  -0.01160,
,,,0.008068000000,  -0.00640,
,,,0.008069000000,  -0.00960,
,,,0.008070000000,  -0.00680,
,,,0.008071000000,  -0.00040,
,,,0.008072000000,  -0.00520,
,,,0.008073000000,  -0.00520,
,,,0.008074000000,  -0.01360,
,,,0.008075000000,  -0.01320,
,,,0.008076000000,  -0.01240,
,,,0.008077000000,  -0.01400,
,,,0.008078000000,  -0.01800,
,,,0.008079000000,  -0.00200,
,,,0.008080000000,  -0.00560,
,,,0.008081000000,  -0.00120,
,,,0.008082000000,  -0.00840,
,,,0.008083000000,  -0.00920,
,,,0.008084000000,  -0.01320,
,,,0.008085000000,  -0.00840,
,,,0.008086000000,  -0.00760,
,,,0.008087000000,  -0.00960,
,,,0.008088000000,  -0.01520,
,,,0.008089000000,  -0.01080,
,,,0.008090000000,  -0.01360,
,,,0.008091000000,  -0.00320,
,,,0.008092000000,  -0.00640,
,,,0.008093000000,  -0.00840,
,,,0.008094000000,  -0.00240,
,,,0.008095000000,   0.00200,
,,,0.008096000000,  -0.00600,
,,,0.008097000000,  -0.00040,
,,,0.008098000000,  -0.00080,
,,,0.008099000000,  -0.00720,
,,,0.008100000000,   0.00040,
,,,0.008101000000,  -0.00040,
,,,0.008102000000,  -0.01000,
,,,0.008103000000,  -0.01840,
,,,0.008104000000,  -0.01440,
,,,0.008105000000,  -0.01080,
,,,0.008106000000,  -0.01440,
,,,0.008107000000,  -0.02080,
,,,0.008108000000,  -0.01480,
,,,0.008109000000,  -0.01480,
,,,0.008110000000,  -0.01720,
,,,0.008111000000,  -0.00960,
,,,0.008112000000,  -0.01880,
,,,0.008113000000,  -0.01720,
,,,0.008114000000,  -0.01560,
,,,0.008115000000,  -0.00920,
,,,0.008116000000,  -0.00960,
,,,0.008117000000,  -0.00560,
,,,0.008118000000,  -0.00720,
,,,0.008119000000,  -0.01360,
,,,0.008120000000,  -0.00760,
,,,0.008121000000,  -0.00320,
,,,0.008122000000,  -0.00800,
,,,0.008123000000,  -0.01360,
,,,0.008124000000,  -0.01320,
,,,0.008125000000,  -0.01120,
,,,0.008126000000,  -0.01360,
,,,0.008127000000,  -0.00320,
,,,0.008128000000,  -0.00200,
,,,0.008129000000,  -0.00600,
,,,0.008130000000,  -0.01520,
,,,0.008131000000,  -0.00560,
,,,0.008132000000,  -0.00680,
,,,0.008133000000,  -0.00400,
,,,0.008134000000,  -0.00160,
,,,0.008135000000,  -0.01080,
,,,0.008136000000,  -0.00880,
,,,0.008137000000,  -0.01080,
,,,0.008138000000,  -0.01560,
,,,0.008139000000,  -0.01320,
,,,0.008140000000,  -0.01080,
,,,0.008141000000,  -0.01680,
,,,0.008142000000,  -0.02280,
,,,0.008143000000,  -0.01520,
,,,0.008144000000,  -0.00800,
,,,0.008145000000,  -0.01520,
,,,0.008146000000,  -0.01160,
,,,0.008147000000,  -0.01200,
,,,0.008148000000,  -0.00680,
,,,0.008149000000,  -0.00560,
,,,0.008150000000,  -0.01080,
,,,0.008151000000,  -0.01280,
,,,0.008152000000,  -0.01440,
,,,0.008153000000,  -0.00600,
,,,0.008154000000,  -0.01800,
,,,0.008155000000,  -0.01560,
,,,0.008156000000,  -0.01400,
,,,0.008157000000,  -0.01320,
,,,0.008158000000,  -0.02120,
,,,0.008159000000,  -0.01840,
,,,0.008160000000,  -0.01720,
,,,0.008161000000,  -0.01440,
,,,0.008162000000,  -0.01680,
,,,0.008163000000,  -0.00160,
,,,0.008164000000,  -0.00480,
,,,0.008165000000,  -0.00600,
,,,0.008166000000,  -0.00640,
,,,0.008167000000,  -0.01240,
,,,0.008168000000,  -0.01120,
,,,0.008169000000,  -0.01480,
,,,0.008170000000,  -0.01280,
,,,0.008171000000,  -0.01920,
,,,0.008172000000,  -0.01480,
,,,0.008173000000,  -0.00960,
,,,0.008174000000,  -0.01120,
,,,0.008175000000,  -0.01040,
,,,0.008176000000,  -0.01360,
,,,0.008177000000,  -0.00960,
,,,0.008178000000,  -0.00640,
,,,0.008179000000,  -0.00640,
,,,0.008180000000,  -0.00560,
,,,0.008181000000,  -0.00440,
,,,0.008182000000,  -0.01320,
,,,0.008183000000,  -0.01200,
,,,0.008184000000,  -0.00640,
,,,0.008185000000,  -0.01160,
,,,0.008186000000,  -0.00440,
,,,0.008187000000,  -0.00960,
,,,0.008188000000,  -0.01480,
,,,0.008189000000,  -0.01640,
,,,0.008190000000,  -0.01040,
,,,0.008191000000,  -0.01320,
,,,0.008192000000,  -0.01360,
,,,0.008193000000,  -0.01200,
,,,0.008194000000,  -0.00840,
,,,0.008195000000,   0.00080,
,,,0.008196000000,  -0.00800,
,,,0.008197000000,  -0.01120,
,,,0.008198000000,  -0.00920,
,,,0.008199000000,  -0.01200,
,,,0.008200000000,  -0.00880,
,,,0.008201000000,  -0.01000,
,,,0.008202000000,  -0.01680,
,,,0.008203000000,  -0.01440,
,,,0.008204000000,  -0.01000,
,,,0.008205000000,  -0.01160,
,,,0.008206000000,  -0.00840,
,,,0.008207000000,  -0.01440,
,,,0.008208000000,  -0.00880,
,,,0.008209000000,   0.00040,
,,,0.008210000000,  -0.01240,
,,,0.008211000000,  -0.00920,
,,,0.008212000000,  -0.01720,
,,,0.008213000000,  -0.00960,
,,,0.008214000000,  -0.00080,
,,,0.008215000000,  -0.00480,
,,,0.008216000000,  -0.00720,
,,,0.008217000000,  -0.00680,
,,,0.008218000000,  -0.00880,
,,,0.008219000000,  -0.00520,
,,,0.008220000000,  -0.01160,
,,,0.008221000000,  -0.01120,
,,,0.008222000000,  -0.01160,
,,,0.008223000000,  -0.01520,
,,,0.008224000000,  -0.00920,
,,,0.008225000000,  -0.01040,
,,,0.008226000000,  -0.00320,
,,,0.008227000000,  -0.00840,
,,,0.008228000000,  -0.00520,
,,,0.008229000000,  -0.01520,
,,,0.008230000000,  -0.01760,
,,,0.008231000000,  -0.01080,
,,,0.008232000000,  -0.01080,
,,,0.008233000000,  -0.00840,
,,,0.008234000000,  -0.00800,
,,,0.008235000000,  -0.00880,
,,,0.008236000000,  -0.00920,
,,,0.008237000000,  -0.01640,
,,,0.008238000000,  -0.01640,
,,,0.008239000000,  -0.01080,
,,,0.008240000000,  -0.01240,
,,,0.008241000000,  -0.01160,
,,,0.008242000000,  -0.00320,
,,,0.008243000000,  -0.01600,
,,,0.008244000000,  -0.00960,
,,,0.008245000000,   0.00120,
,,,0.008246000000,  -0.00080,
,,,0.008247000000,   0.00160,
,,,0.008248000000,  -0.00440,
,,,0.008249000000,   0.00280,
,,,0.008250000000,   0.00040,
,,,0.008251000000,  -0.00960,
,,,0.008252000000,  -0.00040,
,,,0.008253000000,  -0.00320,
,,,0.008254000000,  -0.00120,
,,,0.008255000000,  -0.01120,
,,,0.008256000000,  -0.01040,
,,,0.008257000000,  -0.01160,
,,,0.008258000000,  -0.01440,
,,,0.008259000000,  -0.00800,
,,,0.008260000000,  -0.01480,
,,,0.008261000000,  -0.00680,
,,,0.008262000000,  -0.00840,
,,,0.008263000000,  -0.01440,
,,,0.008264000000,  -0.01640,
,,,0.008265000000,  -0.01760,
,,,0.008266000000,  -0.00440,
,,,0.008267000000,  -0.00440,
,,,0.008268000000,  -0.00760,
,,,0.008269000000,  -0.00880,
,,,0.008270000000,  -0.01360,
,,,0.008271000000,  -0.01360,
,,,0.008272000000,  -0.01400,
,,,0.008273000000,  -0.00600,
,,,0.008274000000,  -0.00760,
,,,0.008275000000,  -0.00920,
,,,0.008276000000,  -0.00360,
,,,0.008277000000,  -0.00560,
,,,0.008278000000,  -0.00680,
,,,0.008279000000,   0.00600,
,,,0.008280000000,  -0.00880,
,,,0.008281000000,  -0.01160,
,,,0.008282000000,  -0.00960,
,,,0.008283000000,  -0.01520,
,,,0.008284000000,  -0.00880,
,,,0.008285000000,  -0.00920,
,,,0.008286000000,  -0.01480,
,,,0.008287000000,  -0.00920,
,,,0.008288000000,  -0.01160,
,,,0.008289000000,  -0.01400,
,,,0.008290000000,  -0.01200,
,,,0.008291000000,  -0.00640,
,,,0.008292000000,  -0.00720,
,,,0.008293000000,  -0.00680,
,,,0.008294000000,  -0.01440,
,,,0.008295000000,  -0.01680,
,,,0.008296000000,  -0.00560,
,,,0.008297000000,  -0.00400,
,,,0.008298000000,  -0.00920,
,,,0.008299000000,  -0.00320,
,,,0.008300000000,  -0.00160,
,,,0.008301000000,  -0.00680,
,,,0.008302000000,  -0.01920,
,,,0.008303000000,  -0.00800,
,,,0.008304000000,  -0.01160,
,,,0.008305000000,  -0.00880,
,,,0.008306000000,  -0.00600,
,,,0.008307000000,  -0.01600,
,,,0.008308000000,  -0.00280,
,,,0.008309000000,  -0.00760,
,,,0.008310000000,  -0.00880,
,,,0.008311000000,  -0.00600,
,,,0.008312000000,  -0.01560,
,,,0.008313000000,  -0.01360,
,,,0.008314000000,  -0.02400,
,,,0.008315000000,  -0.02000,
,,,0.008316000000,  -0.01560,
,,,0.008317000000,  -0.01280,
,,,0.008318000000,  -0.00960,
,,,0.008319000000,  -0.01440,
,,,0.008320000000,  -0.00640,
,,,0.008321000000,  -0.01160,
,,,0.008322000000,  -0.00120,
,,,0.008323000000,  -0.00280,
,,,0.008324000000,  -0.00600,
,,,0.008325000000,  -0.01440,
,,,0.008326000000,  -0.00520,
,,,0.008327000000,  -0.01520,
,,,0.008328000000,  -0.00840,
,,,0.008329000000,  -0.01080,
,,,0.008330000000,  -0.01680,
,,,0.008331000000,   0.00080,
,,,0.008332000000,   0.00120,
,,,0.008333000000,  -0.00800,
,,,0.008334000000,   0.00160,
,,,0.008335000000,  -0.00120,
,,,0.008336000000,   0.00320,
,,,0.008337000000,   0.00240,
,,,0.008338000000,  -0.00800,
,,,0.008339000000,  -0.01240,
,,,0.008340000000,  -0.01160,
,,,0.008341000000,  -0.01240,
,,,0.008342000000,  -0.00600,
,,,0.008343000000,  -0.00960,
,,,0.008344000000,  -0.00080,
,,,0.008345000000,  -0.00440,
,,,0.008346000000,  -0.00120,
,,,0.008347000000,  -0.00360,
,,,0.008348000000,   0.00200,
,,,0.008349000000,  -0.01000,
,,,0.008350000000,  -0.00320,
,,,0.008351000000,   0.00440,
,,,0.008352000000,   0.00760,
,,,0.008353000000,   0.00080,
,,,0.008354000000,  -0.00440,
,,,0.008355000000,  -0.00480,
,,,0.008356000000,  -0.00440,
,,,0.008357000000,  -0.00400,
,,,0.008358000000,  -0.01080,
,,,0.008359000000,  -0.00200,
,,,0.008360000000,  -0.00800,
,,,0.008361000000,  -0.00160,
,,,0.008362000000,  -0.00960,
,,,0.008363000000,  -0.01000,
,,,0.008364000000,  -0.01440,
,,,0.008365000000,  -0.00680,
,,,0.008366000000,  -0.00400,
,,,0.008367000000,  -0.00680,
,,,0.008368000000,  -0.00800,
,,,0.008369000000,  -0.01280,
,,,0.008370000000,  -0.01880,
,,,0.008371000000,  -0.01680,
,,,0.008372000000,  -0.00960,
,,,0.008373000000,  -0.00840,
,,,0.008374000000,  -0.01120,
,,,0.008375000000,  -0.01320,
,,,0.008376000000,  -0.00760,
,,,0.008377000000,   0.00640,
,,,0.008378000000,  -0.00760,
,,,0.008379000000,  -0.01000,
,,,0.008380000000,  -0.00280,
,,,0.008381000000,  -0.01600,
,,,0.008382000000,  -0.00480,
,,,0.008383000000,  -0.00760,
,,,0.008384000000,  -0.00960,
,,,0.008385000000,  -0.01520,
,,,0.008386000000,  -0.00840,
,,,0.008387000000,  -0.01320,
,,,0.008388000000,  -0.01480,
,,,0.008389000000,  -0.00520,
,,,0.008390000000,  -0.01240,
,,,0.008391000000,  -0.00320,
,,,0.008392000000,  -0.00800,
,,,0.008393000000,  -0.00560,
,,,0.008394000000,  -0.00960,
,,,0.008395000000,   0.00040,
,,,0.008396000000,  -0.01600,
,,,0.008397000000,  -0.01360,
,,,0.008398000000,  -0.01280,
,,,0.008399000000,  -0.00240,
,,,0.008400000000,  -0.00240,
,,,0.008401000000,  -0.00800,
,,,0.008402000000,  -0.01480,
,,,0.008403000000,  -0.01520,
,,,0.008404000000,  -0.00600,
,,,0.008405000000,  -0.01080,
,,,0.008406000000,  -0.01280,
,,,0.008407000000,  -0.01080,
,,,0.008408000000,  -0.01400,
,,,0.008409000000,  -0.01440,
,,,0.008410000000,  -0.00880,
,,,0.008411000000,  -0.01400,
,,,0.008412000000,  -0.01040,
,,,0.008413000000,  -0.01080,
,,,0.008414000000,  -0.01400,
,,,0.008415000000,  -0.00640,
,,,0.008416000000,  -0.00720,
,,,0.008417000000,  -0.00640,
,,,0.008418000000,  -0.00720,
,,,0.008419000000,  -0.00880,
,,,0.008420000000,   0.00000,
,,,0.008421000000,  -0.00160,
,,,0.008422000000,  -0.01160,
,,,0.008423000000,  -0.01520,
,,,0.008424000000,  -0.01120,
,,,0.008425000000,  -0.01920,
,,,0.008426000000,  -0.00720,
,,,0.008427000000,  -0.00960,
,,,0.008428000000,  -0.01200,
,,,0.008429000000,  -0.01320,
,,,0.008430000000,  -0.00960,
,,,0.008431000000,  -0.01640,
,,,0.008432000000,  -0.01160,
,,,0.008433000000,  -0.00200,
,,,0.008434000000,  -0.00960,
,,,0.008435000000,  -0.01120,
,,,0.008436000000,  -0.01040,
,,,0.008437000000,  -0.01440,
,,,0.008438000000,  -0.00720,
,,,0.008439000000,  -0.01000,
,,,0.008440000000,  -0.00960,
,,,0.008441000000,  -0.01480,
,,,0.008442000000,  -0.00560,
,,,0.008443000000,  -0.00400,
,,,0.008444000000,  -0.00680,
,,,0.008445000000,   0.00320,
,,,0.008446000000,   0.00240,
,,,0.008447000000,   0.00320,
,,,0.008448000000,   0.00400,
,,,0.008449000000,  -0.00400,
,,,0.008450000000,  -0.00400,
,,,0.008451000000,  -0.01080,
,,,0.008452000000,  -0.01800,
,,,0.008453000000,  -0.00920,
,,,0.008454000000,  -0.00800,
,,,0.008455000000,  -0.00960,
,,,0.008456000000,  -0.00360,
,,,0.008457000000,  -0.00840,
,,,0.008458000000,  -0.00240,
,,,0.008459000000,  -0.00600,
,,,0.008460000000,  -0.01640,
,,,0.008461000000,  -0.00280,
,,,0.008462000000,  -0.00800,
,,,0.008463000000,  -0.00760,
,,,0.008464000000,  -0.00440,
,,,0.008465000000,  -0.00040,
,,,0.008466000000,  -0.01240,
,,,0.008467000000,  -0.00520,
,,,0.008468000000,  -0.01400,
,,,0.008469000000,  -0.00840,
,,,0.008470000000,  -0.00320,
,,,0.008471000000,  -0.00440,
,,,0.008472000000,  -0.01640,
,,,0.008473000000,  -0.01440,
,,,0.008474000000,  -0.00560,
,,,0.008475000000,  -0.00840,
,,,0.008476000000,   0.00240,
,,,0.008477000000,  -0.00040,
,,,0.008478000000,  -0.00560,
,,,0.008479000000,  -0.00400,
,,,0.008480000000,  -0.00360,
,,,0.008481000000,  -0.00600,
,,,0.008482000000,  -0.01200,
,,,0.008483000000,  -0.00640,
,,,0.008484000000,  -0.00680,
,,,0.008485000000,  -0.00640,
,,,0.008486000000,  -0.00680,
,,,0.008487000000,  -0.01160,
,,,0.008488000000,  -0.00200,
,,,0.008489000000,  -0.00160,
,,,0.008490000000,  -0.00440,
,,,0.008491000000,  -0.01320,
,,,0.008492000000,  -0.01360,
,,,0.008493000000,  -0.01080,
,,,0.008494000000,  -0.00600,
,,,0.008495000000,  -0.00760,
,,,0.008496000000,  -0.00720,
,,,0.008497000000,  -0.01920,
,,,0.008498000000,  -0.01240,
,,,0.008499000000,  -0.01160,
,,,0.008500000000,  -0.00920,
,,,0.008501000000,  -0.00240,
,,,0.008502000000,  -0.00720,
,,,0.008503000000,  -0.00960,
,,,0.008504000000,  -0.00400,
,,,0.008505000000,  -0.00320,
,,,0.008506000000,  -0.00480,
,,,0.008507000000,  -0.00920,
,,,0.008508000000,  -0.00440,
,,,0.008509000000,  -0.00840,
,,,0.008510000000,  -0.01000,
,,,0.008511000000,  -0.00960,
,,,0.008512000000,  -0.00760,
,,,0.008513000000,  -0.00720,
,,,0.008514000000,  -0.00960,
,,,0.008515000000,  -0.00600,
,,,0.008516000000,  -0.00360,
,,,0.008517000000,  -0.00760,
,,,0.008518000000,  -0.00320,
,,,0.008519000000,   0.00280,
,,,0.008520000000,  -0.00160,
,,,0.008521000000,  -0.00200,
,,,0.008522000000,  -0.01440,
,,,0.008523000000,  -0.01200,
,,,0.008524000000,  -0.01360,
,,,0.008525000000,  -0.01400,
,,,0.008526000000,  -0.01040,
,,,0.008527000000,  -0.01160,
,,,0.008528000000,  -0.00360,
,,,0.008529000000,  -0.01120,
,,,0.008530000000,  -0.00320,
,,,0.008531000000,  -0.00120,
,,,0.008532000000,  -0.00760,
,,,0.008533000000,  -0.00680,
,,,0.008534000000,  -0.01360,
,,,0.008535000000,  -0.00600,
,,,0.008536000000,  -0.01280,
,,,0.008537000000,  -0.00760,
,,,0.008538000000,  -0.00440,
,,,0.008539000000,  -0.00360,
,,,0.008540000000,  -0.00760,
,,,0.008541000000,  -0.00960,
,,,0.008542000000,  -0.01520,
,,,0.008543000000,  -0.00680,
,,,0.008544000000,  -0.00480,
,,,0.008545000000,  -0.00040,
,,,0.008546000000,   0.00520,
,,,0.008547000000,  -0.00160,
,,,0.008548000000,  -0.00800,
,,,0.008549000000,  -0.01240,
,,,0.008550000000,  -0.00680,
,,,0.008551000000,  -0.00800,
,,,0.008552000000,  -0.00720,
,,,0.008553000000,  -0.00720,
,,,0.008554000000,  -0.00080,
,,,0.008555000000,   0.00480,
,,,0.008556000000,   0.00280,
,,,0.008557000000,  -0.00960,
,,,0.008558000000,  -0.01080,
,,,0.008559000000,  -0.00760,
,,,0.008560000000,  -0.00840,
,,,0.008561000000,  -0.00400,
,,,0.008562000000,  -0.00320,
,,,0.008563000000,  -0.00840,
,,,0.008564000000,  -0.01040,
