trunk/fp2/laserspektroskopie/daten/oszi/ALL0009/F0009CH1.CSV

Record Length,2.500000e+03,,   0.010671600000,   0.00944,
Sample Interval,4.000000e-08,,   0.010671640000,   0.00984,
Trigger Point,-2.667900000000e+05,,   0.010671680000,   0.00960,
,,,   0.010671720000,   0.00992,
,,,   0.010671760000,   0.01016,
,,,   0.010671800000,   0.00992,
Source,CH1,,   0.010671840000,   0.00976,
Vertical Units,V,,   0.010671880000,   0.00952,
Vertical Scale,2.000000e-03,,   0.010671920000,   0.00960,
Vertical Offset,-1.480000e-02,,   0.010671960000,   0.00984,
Horizontal Units,s,,   0.010672000000,   0.00976,
Horizontal Scale,1.000000e-05,,   0.010672040000,   0.00960,
Pt Fmt,Y,,   0.010672080000,   0.00952,
Yzero,0.000000e+00,,   0.010672120000,   0.00992,
Probe Atten,1.000000e+00,,   0.010672160000,   0.00976,
Firmware Version,FV:v6.08,,   0.010672200000,   0.00976,
,,,0.010672240000,   0.01008,
,,,0.010672280000,   0.00968,
,,,0.010672320000,   0.01008,
,,,0.010672360000,   0.00976,
,,,0.010672400000,   0.00984,
,,,0.010672440000,   0.00944,
,,,0.010672480000,   0.00992,
,,,0.010672520000,   0.01008,
,,,0.010672560000,   0.01016,
,,,0.010672600000,   0.00976,
,,,0.010672640000,   0.00960,
,,,0.010672680000,   0.00968,
,,,0.010672720000,   0.01008,
,,,0.010672760000,   0.00984,
,,,0.010672800000,   0.00960,
,,,0.010672840000,   0.00976,
,,,0.010672880000,   0.01032,
,,,0.010672920000,   0.01016,
,,,0.010672960000,   0.01008,
,,,0.010673000000,   0.01032,
,,,0.010673040000,   0.01008,
,,,0.010673080000,   0.01040,
,,,0.010673120000,   0.01032,
,,,0.010673160000,   0.01040,
,,,0.010673200000,   0.01032,
,,,0.010673240000,   0.01016,
,,,0.010673280000,   0.01032,
,,,0.010673320000,   0.01040,
,,,0.010673360000,   0.01032,
,,,0.010673400000,   0.01032,
,,,0.010673440000,   0.01056,
,,,0.010673480000,   0.01056,
,,,0.010673520000,   0.01056,
,,,0.010673560000,   0.01072,
,,,0.010673600000,   0.01024,
,,,0.010673640000,   0.01072,
,,,0.010673680000,   0.01040,
,,,0.010673720000,   0.01032,
,,,0.010673760000,   0.01064,
,,,0.010673800000,   0.01016,
,,,0.010673840000,   0.01056,
,,,0.010673880000,   0.01048,
,,,0.010673920000,   0.01104,
,,,0.010673960000,   0.01048,
,,,0.010674000000,   0.01032,
,,,0.010674040000,   0.01088,
,,,0.010674080000,   0.01048,
,,,0.010674120000,   0.01088,
,,,0.010674160000,   0.01056,
,,,0.010674200000,   0.01048,
,,,0.010674240000,   0.01072,
,,,0.010674280000,   0.01064,
,,,0.010674320000,   0.01088,
,,,0.010674360000,   0.01088,
,,,0.010674400000,   0.01024,
,,,0.010674440000,   0.01080,
,,,0.010674480000,   0.01096,
,,,0.010674520000,   0.01056,
,,,0.010674560000,   0.01064,
,,,0.010674600000,   0.01064,
,,,0.010674640000,   0.01064,
,,,0.010674680000,   0.01072,
,,,0.010674720000,   0.01120,
,,,0.010674760000,   0.01088,
,,,0.010674800000,   0.01144,
,,,0.010674840000,   0.01112,
,,,0.010674880000,   0.01120,
,,,0.010674920000,   0.01128,
,,,0.010674960000,   0.01072,
,,,0.010675000000,   0.01120,
,,,0.010675040000,   0.01056,
,,,0.010675080000,   0.01088,
,,,0.010675120000,   0.01072,
,,,0.010675160000,   0.01144,
,,,0.010675200000,   0.01112,
,,,0.010675240000,   0.01104,
,,,0.010675280000,   0.01088,
,,,0.010675320000,   0.01112,
,,,0.010675360000,   0.01096,
,,,0.010675400000,   0.01112,
,,,0.010675440000,   0.01096,
,,,0.010675480000,   0.01088,
,,,0.010675520000,   0.01160,
,,,0.010675560000,   0.01104,
,,,0.010675600000,   0.01120,
,,,0.010675640000,   0.01112,
,,,0.010675680000,   0.01144,
,,,0.010675720000,   0.01120,
,,,0.010675760000,   0.01088,
,,,0.010675800000,   0.01064,
,,,0.010675840000,   0.01104,
,,,0.010675880000,   0.01144,
,,,0.010675920000,   0.01088,
,,,0.010675960000,   0.01120,
,,,0.010676000000,   0.01112,
,,,0.010676040000,   0.01136,
,,,0.010676080000,   0.01120,
,,,0.010676120000,   0.01136,
,,,0.010676160000,   0.01104,
,,,0.010676200000,   0.01160,
,,,0.010676240000,   0.01144,
,,,0.010676280000,   0.01128,
,,,0.010676320000,   0.01176,
,,,0.010676360000,   0.01144,
,,,0.010676400000,   0.01144,
,,,0.010676440000,   0.01136,
,,,0.010676480000,   0.01160,
,,,0.010676520000,   0.01184,
,,,0.010676560000,   0.01192,
,,,0.010676600000,   0.01176,
,,,0.010676640000,   0.01184,
,,,0.010676680000,   0.01200,
,,,0.010676720000,   0.01176,
,,,0.010676760000,   0.01176,
,,,0.010676800000,   0.01176,
,,,0.010676840000,   0.01184,
,,,0.010676880000,   0.01168,
,,,0.010676920000,   0.01192,
,,,0.010676960000,   0.01160,
,,,0.010677000000,   0.01240,
,,,0.010677040000,   0.01232,
,,,0.010677080000,   0.01184,
,,,0.010677120000,   0.01208,
,,,0.010677160000,   0.01160,
,,,0.010677200000,   0.01208,
,,,0.010677240000,   0.01200,
,,,0.010677280000,   0.01248,
,,,0.010677320000,   0.01272,
,,,0.010677360000,   0.01272,
,,,0.010677400000,   0.01248,
,,,0.010677440000,   0.01312,
,,,0.010677480000,   0.01296,
,,,0.010677520000,   0.01328,
,,,0.010677560000,   0.01248,
,,,0.010677600000,   0.01368,
,,,0.010677640000,   0.01288,
,,,0.010677680000,   0.01312,
,,,0.010677720000,   0.01328,
,,,0.010677760000,   0.01312,
,,,0.010677800000,   0.01336,
,,,0.010677840000,   0.01272,
,,,0.010677880000,   0.01328,
,,,0.010677920000,   0.01328,
,,,0.010677960000,   0.01368,
,,,0.010678000000,   0.01320,
,,,0.010678040000,   0.01320,
,,,0.010678080000,   0.01328,
,,,0.010678120000,   0.01360,
,,,0.010678160000,   0.01352,
,,,0.010678200000,   0.01376,
,,,0.010678240000,   0.01336,
,,,0.010678280000,   0.01344,
,,,0.010678320000,   0.01336,
,,,0.010678360000,   0.01336,
,,,0.010678400000,   0.01336,
,,,0.010678440000,   0.01312,
,,,0.010678480000,   0.01360,
,,,0.010678520000,   0.01392,
,,,0.010678560000,   0.01336,
,,,0.010678600000,   0.01352,
,,,0.010678640000,   0.01336,
,,,0.010678680000,   0.01360,
,,,0.010678720000,   0.01368,
,,,0.010678760000,   0.01400,
,,,0.010678800000,   0.01352,
,,,0.010678840000,   0.01384,
,,,0.010678880000,   0.01312,
,,,0.010678920000,   0.01384,
,,,0.010678960000,   0.01328,
,,,0.010679000000,   0.01368,
,,,0.010679040000,   0.01328,
,,,0.010679080000,   0.01368,
,,,0.010679120000,   0.01376,
,,,0.010679160000,   0.01336,
,,,0.010679200000,   0.01360,
,,,0.010679240000,   0.01344,
,,,0.010679280000,   0.01336,
,,,0.010679320000,   0.01328,
,,,0.010679360000,   0.01392,
,,,0.010679400000,   0.01344,
,,,0.010679440000,   0.01336,
,,,0.010679480000,   0.01360,
,,,0.010679520000,   0.01376,
,,,0.010679560000,   0.01376,
,,,0.010679600000,   0.01368,
,,,0.010679640000,   0.01360,
,,,0.010679680000,   0.01360,
,,,0.010679720000,   0.01368,
,,,0.010679760000,   0.01384,
,,,0.010679800000,   0.01376,
,,,0.010679840000,   0.01360,
,,,0.010679880000,   0.01360,
,,,0.010679920000,   0.01384,
,,,0.010679960000,   0.01384,
,,,0.010680000000,   0.01392,
,,,0.010680040000,   0.01400,
,,,0.010680080000,   0.01416,
,,,0.010680120000,   0.01376,
,,,0.010680160000,   0.01400,
,,,0.010680200000,   0.01352,
,,,0.010680240000,   0.01416,
,,,0.010680280000,   0.01368,
,,,0.010680320000,   0.01384,
,,,0.010680360000,   0.01400,
,,,0.010680400000,   0.01424,
,,,0.010680440000,   0.01384,
,,,0.010680480000,   0.01400,
,,,0.010680520000,   0.01384,
,,,0.010680560000,   0.01400,
,,,0.010680600000,   0.01480,
,,,0.010680640000,   0.01440,
,,,0.010680680000,   0.01424,
,,,0.010680720000,   0.01384,
,,,0.010680760000,   0.01400,
,,,0.010680800000,   0.01448,
,,,0.010680840000,   0.01488,
,,,0.010680880000,   0.01456,
,,,0.010680920000,   0.01480,
,,,0.010680960000,   0.01472,
,,,0.010681000000,   0.01472,
,,,0.010681040000,   0.01440,
,,,0.010681080000,   0.01448,
,,,0.010681120000,   0.01456,
,,,0.010681160000,   0.01456,
,,,0.010681200000,   0.01488,
,,,0.010681240000,   0.01456,
,,,0.010681280000,   0.01480,
,,,0.010681320000,   0.01504,
,,,0.010681360000,   0.01520,
,,,0.010681400000,   0.01480,
,,,0.010681440000,   0.01480,
,,,0.010681480000,   0.01480,
,,,0.010681520000,   0.01504,
,,,0.010681560000,   0.01512,
,,,0.010681600000,   0.01512,
,,,0.010681640000,   0.01520,
,,,0.010681680000,   0.01552,
,,,0.010681720000,   0.01576,
,,,0.010681760000,   0.01504,
,,,0.010681800000,   0.01536,
,,,0.010681840000,   0.01544,
,,,0.010681880000,   0.01560,
,,,0.010681920000,   0.01560,
,,,0.010681960000,   0.01576,
,,,0.010682000000,   0.01560,
,,,0.010682040000,   0.01592,
,,,0.010682080000,   0.01552,
,,,0.010682120000,   0.01552,
,,,0.010682160000,   0.01584,
,,,0.010682200000,   0.01600,
,,,0.010682240000,   0.01584,
,,,0.010682280000,   0.01608,
,,,0.010682320000,   0.01608,
,,,0.010682360000,   0.01592,
,,,0.010682400000,   0.01608,
,,,0.010682440000,   0.01648,
,,,0.010682480000,   0.01592,
,,,0.010682520000,   0.01592,
,,,0.010682560000,   0.01600,
,,,0.010682600000,   0.01584,
,,,0.010682640000,   0.01616,
,,,0.010682680000,   0.01616,
,,,0.010682720000,   0.01672,
,,,0.010682760000,   0.01640,
,,,0.010682800000,   0.01632,
,,,0.010682840000,   0.01608,
,,,0.010682880000,   0.01656,
,,,0.010682920000,   0.01664,
,,,0.010682960000,   0.01672,
,,,0.010683000000,   0.01664,
,,,0.010683040000,   0.01632,
,,,0.010683080000,   0.01672,
,,,0.010683120000,   0.01648,
,,,0.010683160000,   0.01688,
,,,0.010683200000,   0.01664,
,,,0.010683240000,   0.01696,
,,,0.010683280000,   0.01688,
,,,0.010683320000,   0.01672,
,,,0.010683360000,   0.01672,
,,,0.010683400000,   0.01696,
,,,0.010683440000,   0.01712,
,,,0.010683480000,   0.01656,
,,,0.010683520000,   0.01672,
,,,0.010683560000,   0.01728,
,,,0.010683600000,   0.01728,
,,,0.010683640000,   0.01672,
,,,0.010683680000,   0.01664,
,,,0.010683720000,   0.01640,
,,,0.010683760000,   0.01656,
,,,0.010683800000,   0.01680,
,,,0.010683840000,   0.01728,
,,,0.010683880000,   0.01680,
,,,0.010683920000,   0.01672,
,,,0.010683960000,   0.01696,
,,,0.010684000000,   0.01720,
,,,0.010684040000,   0.01752,
,,,0.010684080000,   0.01688,
,,,0.010684120000,   0.01696,
,,,0.010684160000,   0.01640,
,,,0.010684200000,   0.01696,
,,,0.010684240000,   0.01720,
,,,0.010684280000,   0.01656,
,,,0.010684320000,   0.01696,
,,,0.010684360000,   0.01736,
,,,0.010684400000,   0.01648,
,,,0.010684440000,   0.01688,
,,,0.010684480000,   0.01704,
,,,0.010684520000,   0.01720,
,,,0.010684560000,   0.01736,
,,,0.010684600000,   0.01784,
,,,0.010684640000,   0.01712,
,,,0.010684680000,   0.01720,
,,,0.010684720000,   0.01704,
,,,0.010684760000,   0.01736,
,,,0.010684800000,   0.01760,
,,,0.010684840000,   0.01800,
,,,0.010684880000,   0.01752,
,,,0.010684920000,   0.01736,
,,,0.010684960000,   0.01744,
,,,0.010685000000,   0.01720,
,,,0.010685040000,   0.01752,
,,,0.010685080000,   0.01760,
,,,0.010685120000,   0.01744,
,,,0.010685160000,   0.01760,
,,,0.010685200000,   0.01776,
,,,0.010685240000,   0.01760,
,,,0.010685280000,   0.01768,
,,,0.010685320000,   0.01792,
,,,0.010685360000,   0.01720,
,,,0.010685400000,   0.01784,
,,,0.010685440000,   0.01800,
,,,0.010685480000,   0.01784,
,,,0.010685520000,   0.01840,
,,,0.010685560000,   0.01792,
,,,0.010685600000,   0.01792,
,,,0.010685640000,   0.01816,
,,,0.010685680000,   0.01856,
,,,0.010685720000,   0.01808,
,,,0.010685760000,   0.01808,
,,,0.010685800000,   0.01824,
,,,0.010685840000,   0.01776,
,,,0.010685880000,   0.01824,
,,,0.010685920000,   0.01824,
,,,0.010685960000,   0.01856,
,,,0.010686000000,   0.01792,
,,,0.010686040000,   0.01840,
,,,0.010686080000,   0.01808,
,,,0.010686120000,   0.01856,
,,,0.010686160000,   0.01864,
,,,0.010686200000,   0.01896,
,,,0.010686240000,   0.01928,
,,,0.010686280000,   0.01888,
,,,0.010686320000,   0.01832,
,,,0.010686360000,   0.01904,
,,,0.010686400000,   0.01960,
,,,0.010686440000,   0.01864,
,,,0.010686480000,   0.01936,
,,,0.010686520000,   0.01912,
,,,0.010686560000,   0.01896,
,,,0.010686600000,   0.01888,
,,,0.010686640000,   0.01888,
,,,0.010686680000,   0.01960,
,,,0.010686720000,   0.01952,
,,,0.010686760000,   0.01960,
,,,0.010686800000,   0.01968,
,,,0.010686840000,   0.01944,
,,,0.010686880000,   0.01960,
,,,0.010686920000,   0.01976,
,,,0.010686960000,   0.01944,
,,,0.010687000000,   0.01992,
,,,0.010687040000,   0.01960,
,,,0.010687080000,   0.02016,
,,,0.010687120000,   0.02024,
,,,0.010687160000,   0.01992,
,,,0.010687200000,   0.02032,
,,,0.010687240000,   0.02024,
,,,0.010687280000,   0.02000,
,,,0.010687320000,   0.02008,
,,,0.010687360000,   0.02000,
,,,0.010687400000,   0.01968,
,,,0.010687440000,   0.02024,
,,,0.010687480000,   0.02024,
,,,0.010687520000,   0.02032,
,,,0.010687560000,   0.02032,
,,,0.010687600000,   0.02016,
,,,0.010687640000,   0.02032,
,,,0.010687680000,   0.02048,
,,,0.010687720000,   0.02016,
,,,0.010687760000,   0.02048,
,,,0.010687800000,   0.02000,
,,,0.010687840000,   0.02048,
,,,0.010687880000,   0.02024,
,,,0.010687920000,   0.02056,
,,,0.010687960000,   0.02080,
,,,0.010688000000,   0.02088,
,,,0.010688040000,   0.02096,
,,,0.010688080000,   0.02088,
,,,0.010688120000,   0.02104,
,,,0.010688160000,   0.02072,
,,,0.010688200000,   0.02048,
,,,0.010688240000,   0.02040,
,,,0.010688280000,   0.02072,
,,,0.010688320000,   0.02040,
,,,0.010688360000,   0.02096,
,,,0.010688400000,   0.02104,
,,,0.010688440000,   0.02080,
,,,0.010688480000,   0.02048,
,,,0.010688520000,   0.02112,
,,,0.010688560000,   0.02120,
,,,0.010688600000,   0.02096,
,,,0.010688640000,   0.02064,
,,,0.010688680000,   0.02048,
,,,0.010688720000,   0.02088,
,,,0.010688760000,   0.02088,
,,,0.010688800000,   0.02104,
,,,0.010688840000,   0.02080,
,,,0.010688880000,   0.02096,
,,,0.010688920000,   0.02112,
,,,0.010688960000,   0.02032,
,,,0.010689000000,   0.02096,
,,,0.010689040000,   0.02080,
,,,0.010689080000,   0.02064,
,,,0.010689120000,   0.02064,
,,,0.010689160000,   0.02064,
,,,0.010689200000,   0.02112,
,,,0.010689240000,   0.02056,
,,,0.010689280000,   0.02088,
,,,0.010689320000,   0.02120,
,,,0.010689360000,   0.02096,
,,,0.010689400000,   0.02104,
,,,0.010689440000,   0.02088,
,,,0.010689480000,   0.02104,
,,,0.010689520000,   0.02080,
,,,0.010689560000,   0.02088,
,,,0.010689600000,   0.02128,
,,,0.010689640000,   0.02088,
,,,0.010689680000,   0.02096,
,,,0.010689720000,   0.02064,
,,,0.010689760000,   0.02128,
,,,0.010689800000,   0.02088,
,,,0.010689840000,   0.02120,
,,,0.010689880000,   0.02136,
,,,0.010689920000,   0.02112,
,,,0.010689960000,   0.02096,
,,,0.010690000000,   0.02112,
,,,0.010690040000,   0.02096,
,,,0.010690080000,   0.02168,
,,,0.010690120000,   0.02112,
,,,0.010690160000,   0.02080,
,,,0.010690200000,   0.02104,
,,,0.010690240000,   0.02128,
,,,0.010690280000,   0.02112,
,,,0.010690320000,   0.02144,
,,,0.010690360000,   0.02144,
,,,0.010690400000,   0.02056,
,,,0.010690440000,   0.02120,
,,,0.010690480000,   0.02104,
,,,0.010690520000,   0.02088,
,,,0.010690560000,   0.02152,
,,,0.010690600000,   0.02128,
,,,0.010690640000,   0.02120,
,,,0.010690680000,   0.02112,
,,,0.010690720000,   0.02128,
,,,0.010690760000,   0.02144,
,,,0.010690800000,   0.02144,
,,,0.010690840000,   0.02128,
,,,0.010690880000,   0.02160,
,,,0.010690920000,   0.02168,
,,,0.010690960000,   0.02160,
,,,0.010691000000,   0.02160,
,,,0.010691040000,   0.02168,
,,,0.010691080000,   0.02144,
,,,0.010691120000,   0.02120,
,,,0.010691160000,   0.02160,
,,,0.010691200000,   0.02152,
,,,0.010691240000,   0.02128,
,,,0.010691280000,   0.02200,
,,,0.010691320000,   0.02168,
,,,0.010691360000,   0.02152,
,,,0.010691400000,   0.02176,
,,,0.010691440000,   0.02192,
,,,0.010691480000,   0.02224,
,,,0.010691520000,   0.02216,
,,,0.010691560000,   0.02200,
,,,0.010691600000,   0.02168,
,,,0.010691640000,   0.02152,
,,,0.010691680000,   0.02200,
,,,0.010691720000,   0.02176,
,,,0.010691760000,   0.02168,
,,,0.010691800000,   0.02160,
,,,0.010691840000,   0.02168,
,,,0.010691880000,   0.02184,
,,,0.010691920000,   0.02160,
,,,0.010691960000,   0.02224,
,,,0.010692000000,   0.02176,
,,,0.010692040000,   0.02200,
,,,0.010692080000,   0.02200,
,,,0.010692120000,   0.02192,
,,,0.010692160000,   0.02200,
,,,0.010692200000,   0.02184,
,,,0.010692240000,   0.02208,
,,,0.010692280000,   0.02192,
,,,0.010692320000,   0.02184,
,,,0.010692360000,   0.02216,
,,,0.010692400000,   0.02168,
,,,0.010692440000,   0.02152,
,,,0.010692480000,   0.02224,
,,,0.010692520000,   0.02200,
,,,0.010692560000,   0.02216,
,,,0.010692600000,   0.02160,
,,,0.010692640000,   0.02160,
,,,0.010692680000,   0.02200,
,,,0.010692720000,   0.02232,
,,,0.010692760000,   0.02192,
,,,0.010692800000,   0.02216,
,,,0.010692840000,   0.02248,
,,,0.010692880000,   0.02232,
,,,0.010692920000,   0.02160,
,,,0.010692960000,   0.02224,
,,,0.010693000000,   0.02216,
,,,0.010693040000,   0.02176,
,,,0.010693080000,   0.02168,
,,,0.010693120000,   0.02168,
,,,0.010693160000,   0.02168,
,,,0.010693200000,   0.02184,
,,,0.010693240000,   0.02144,
,,,0.010693280000,   0.02200,
,,,0.010693320000,   0.02208,
,,,0.010693360000,   0.02192,
,,,0.010693400000,   0.02208,
,,,0.010693440000,   0.02224,
,,,0.010693480000,   0.02176,
,,,0.010693520000,   0.02176,
,,,0.010693560000,   0.02168,
,,,0.010693600000,   0.02176,
,,,0.010693640000,   0.02208,
,,,0.010693680000,   0.02176,
,,,0.010693720000,   0.02176,
,,,0.010693760000,   0.02176,
,,,0.010693800000,   0.02192,
,,,0.010693840000,   0.02168,
,,,0.010693880000,   0.02176,
,,,0.010693920000,   0.02144,
,,,0.010693960000,   0.02168,
,,,0.010694000000,   0.02136,
,,,0.010694040000,   0.02176,
,,,0.010694080000,   0.02144,
,,,0.010694120000,   0.02152,
,,,0.010694160000,   0.02176,
,,,0.010694200000,   0.02160,
,,,0.010694240000,   0.02160,
,,,0.010694280000,   0.02160,
,,,0.010694320000,   0.02144,
,,,0.010694360000,   0.02152,
,,,0.010694400000,   0.02160,
,,,0.010694440000,   0.02128,
,,,0.010694480000,   0.02152,
,,,0.010694520000,   0.02136,
,,,0.010694560000,   0.02096,
,,,0.010694600000,   0.02152,
,,,0.010694640000,   0.02120,
,,,0.010694680000,   0.02168,
,,,0.010694720000,   0.02144,
,,,0.010694760000,   0.02112,
,,,0.010694800000,   0.02136,
,,,0.010694840000,   0.02104,
,,,0.010694880000,   0.02072,
,,,0.010694920000,   0.02104,
,,,0.010694960000,   0.02136,
,,,0.010695000000,   0.02080,
,,,0.010695040000,   0.02080,
,,,0.010695080000,   0.02088,
,,,0.010695120000,   0.02104,
,,,0.010695160000,   0.02120,
,,,0.010695200000,   0.02040,
,,,0.010695240000,   0.02088,
,,,0.010695280000,   0.02128,
,,,0.010695320000,   0.02064,
,,,0.010695360000,   0.02040,
,,,0.010695400000,   0.02064,
,,,0.010695440000,   0.02104,
,,,0.010695480000,   0.02088,
,,,0.010695520000,   0.02048,
,,,0.010695560000,   0.02072,
,,,0.010695600000,   0.02048,
,,,0.010695640000,   0.02072,
,,,0.010695680000,   0.02080,
,,,0.010695720000,   0.02072,
,,,0.010695760000,   0.02072,
,,,0.010695800000,   0.02096,
,,,0.010695840000,   0.02048,
,,,0.010695880000,   0.02040,
,,,0.010695920000,   0.02040,
,,,0.010695960000,   0.02032,
,,,0.010696000000,   0.02024,
,,,0.010696040000,   0.02072,
,,,0.010696080000,   0.02064,
,,,0.010696120000,   0.02048,
,,,0.010696160000,   0.02032,
,,,0.010696200000,   0.02072,
,,,0.010696240000,   0.02016,
,,,0.010696280000,   0.02032,
,,,0.010696320000,   0.02024,
,,,0.010696360000,   0.02048,
,,,0.010696400000,   0.02048,
,,,0.010696440000,   0.02024,
,,,0.010696480000,   0.02088,
,,,0.010696520000,   0.02032,
,,,0.010696560000,   0.02032,
,,,0.010696600000,   0.02008,
,,,0.010696640000,   0.02032,
,,,0.010696680000,   0.02056,
,,,0.010696720000,   0.02072,
,,,0.010696760000,   0.02048,
,,,0.010696800000,   0.02056,
,,,0.010696840000,   0.02064,
,,,0.010696880000,   0.01976,
,,,0.010696920000,   0.02032,
,,,0.010696960000,   0.02080,
,,,0.010697000000,   0.02024,
,,,0.010697040000,   0.02024,
,,,0.010697080000,   0.02024,
,,,0.010697120000,   0.02024,
,,,0.010697160000,   0.02024,
,,,0.010697200000,   0.02000,
,,,0.010697240000,   0.02016,
,,,0.010697280000,   0.01976,
,,,0.010697320000,   0.02024,
,,,0.010697360000,   0.02064,
,,,0.010697400000,   0.02008,
,,,0.010697440000,   0.01968,
,,,0.010697480000,   0.02000,
,,,0.010697520000,   0.02032,
,,,0.010697560000,   0.02032,
,,,0.010697600000,   0.02008,
,,,0.010697640000,   0.01984,
,,,0.010697680000,   0.02000,
,,,0.010697720000,   0.01944,
,,,0.010697760000,   0.01992,
