trunk/fp2/laserspektroskopie/daten/oszi/ALL0041/F0041CH1.CSV

Record Length,2.500000e+03,,   0.007560000000,   0.00080,
Sample Interval,4.000000e-06,,   0.007564000000,   0.00080,
Trigger Point,-1.890000000000e+03,,   0.007568000000,   0.00040,
,,,   0.007572000000,   0.00080,
,,,   0.007576000000,   0.00080,
,,,   0.007580000000,   0.00080,
Source,CH1,,   0.007584000000,   0.00080,
Vertical Units,V,,   0.007588000000,   0.00080,
Vertical Scale,1.000000e-02,,   0.007592000000,   0.00080,
Vertical Offset,-4.400000e-03,,   0.007596000000,   0.00080,
Horizontal Units,s,,   0.007600000000,   0.00080,
Horizontal Scale,1.000000e-03,,   0.007604000000,   0.00080,
Pt Fmt,Y,,   0.007608000000,   0.00080,
Yzero,0.000000e+00,,   0.007612000000,   0.00080,
Probe Atten,1.000000e+00,,   0.007616000000,   0.00000,
Firmware Version,FV:v6.08,,   0.007620000000,   0.00000,
,,,0.007624000000,   0.00080,
,,,0.007628000000,   0.00000,
,,,0.007632000000,   0.00040,
,,,0.007636000000,   0.00040,
,,,0.007640000000,   0.00120,
,,,0.007644000000,   0.00040,
,,,0.007648000000,   0.00080,
,,,0.007652000000,   0.00000,
,,,0.007656000000,   0.00040,
,,,0.007660000000,   0.00040,
,,,0.007664000000,   0.00040,
,,,0.007668000000,   0.00000,
,,,0.007672000000,   0.00040,
,,,0.007676000000,   0.00120,
,,,0.007680000000,   0.00080,
,,,0.007684000000,   0.00040,
,,,0.007688000000,   0.00120,
,,,0.007692000000,   0.00120,
,,,0.007696000000,   0.00120,
,,,0.007700000000,   0.00040,
,,,0.007704000000,   0.00160,
,,,0.007708000000,   0.00080,
,,,0.007712000000,   0.00000,
,,,0.007716000000,   0.00000,
,,,0.007720000000,   0.00120,
,,,0.007724000000,   0.00080,
,,,0.007728000000,   0.00080,
,,,0.007732000000,   0.00000,
,,,0.007736000000,   0.00120,
,,,0.007740000000,   0.00200,
,,,0.007744000000,   0.00080,
,,,0.007748000000,   0.00080,
,,,0.007752000000,   0.00120,
,,,0.007756000000,   0.00040,
,,,0.007760000000,   0.00080,
,,,0.007764000000,   0.00080,
,,,0.007768000000,   0.00080,
,,,0.007772000000,   0.00080,
,,,0.007776000000,   0.00080,
,,,0.007780000000,   0.00040,
,,,0.007784000000,   0.00120,
,,,0.007788000000,   0.00080,
,,,0.007792000000,   0.00080,
,,,0.007796000000,   0.00160,
,,,0.007800000000,   0.00120,
,,,0.007804000000,   0.00120,
,,,0.007808000000,   0.00080,
,,,0.007812000000,   0.00040,
,,,0.007816000000,   0.00120,
,,,0.007820000000,   0.00080,
,,,0.007824000000,   0.00000,
,,,0.007828000000,   0.00080,
,,,0.007832000000,   0.00080,
,,,0.007836000000,   0.00040,
,,,0.007840000000,   0.00120,
,,,0.007844000000,   0.00040,
,,,0.007848000000,   0.00160,
,,,0.007852000000,   0.00080,
,,,0.007856000000,   0.00040,
,,,0.007860000000,   0.00160,
,,,0.007864000000,   0.00120,
,,,0.007868000000,   0.00120,
,,,0.007872000000,   0.00120,
,,,0.007876000000,   0.00080,
,,,0.007880000000,   0.00080,
,,,0.007884000000,   0.00080,
,,,0.007888000000,   0.00080,
,,,0.007892000000,   0.00080,
,,,0.007896000000,   0.00080,
,,,0.007900000000,   0.00160,
,,,0.007904000000,   0.00120,
,,,0.007908000000,   0.00080,
,,,0.007912000000,   0.00120,
,,,0.007916000000,   0.00120,
,,,0.007920000000,   0.00120,
,,,0.007924000000,   0.00040,
,,,0.007928000000,   0.00120,
,,,0.007932000000,   0.00120,
,,,0.007936000000,   0.00080,
,,,0.007940000000,   0.00080,
,,,0.007944000000,   0.00000,
,,,0.007948000000,   0.00080,
,,,0.007952000000,   0.00120,
,,,0.007956000000,   0.00080,
,,,0.007960000000,   0.00040,
,,,0.007964000000,   0.00120,
,,,0.007968000000,   0.00040,
,,,0.007972000000,   0.00120,
,,,0.007976000000,   0.00040,
,,,0.007980000000,   0.00080,
,,,0.007984000000,   0.00160,
,,,0.007988000000,   0.00080,
,,,0.007992000000,   0.00080,
,,,0.007996000000,   0.00120,
,,,0.008000000000,   0.00080,
,,,0.008004000000,   0.00120,
,,,0.008008000000,   0.00120,
,,,0.008012000000,   0.00160,
,,,0.008016000000,   0.00120,
,,,0.008020000000,   0.00120,
,,,0.008024000000,   0.00160,
,,,0.008028000000,   0.00160,
,,,0.008032000000,   0.00120,
,,,0.008036000000,   0.00120,
,,,0.008040000000,   0.00080,
,,,0.008044000000,   0.00080,
,,,0.008048000000,   0.00120,
,,,0.008052000000,   0.00080,
,,,0.008056000000,   0.00120,
,,,0.008060000000,   0.00120,
,,,0.008064000000,   0.00160,
,,,0.008068000000,   0.00120,
,,,0.008072000000,   0.00080,
,,,0.008076000000,   0.00120,
,,,0.008080000000,   0.00080,
,,,0.008084000000,   0.00120,
,,,0.008088000000,   0.00120,
,,,0.008092000000,   0.00080,
,,,0.008096000000,   0.00120,
,,,0.008100000000,   0.00080,
,,,0.008104000000,   0.00080,
,,,0.008108000000,   0.00080,
,,,0.008112000000,   0.00120,
,,,0.008116000000,   0.00200,
,,,0.008120000000,   0.00120,
,,,0.008124000000,   0.00160,
,,,0.008128000000,   0.00120,
,,,0.008132000000,   0.00200,
,,,0.008136000000,   0.00120,
,,,0.008140000000,   0.00120,
,,,0.008144000000,   0.00120,
,,,0.008148000000,   0.00080,
,,,0.008152000000,   0.00080,
,,,0.008156000000,   0.00120,
,,,0.008160000000,   0.00080,
,,,0.008164000000,   0.00080,
,,,0.008168000000,   0.00160,
,,,0.008172000000,   0.00120,
,,,0.008176000000,   0.00120,
,,,0.008180000000,   0.00080,
,,,0.008184000000,   0.00200,
,,,0.008188000000,   0.00120,
,,,0.008192000000,   0.00120,
,,,0.008196000000,   0.00120,
,,,0.008200000000,   0.00160,
,,,0.008204000000,   0.00160,
,,,0.008208000000,   0.00200,
,,,0.008212000000,   0.00120,
,,,0.008216000000,   0.00160,
,,,0.008220000000,   0.00200,
,,,0.008224000000,   0.00240,
,,,0.008228000000,   0.00120,
,,,0.008232000000,   0.00160,
,,,0.008236000000,   0.00120,
,,,0.008240000000,   0.00160,
,,,0.008244000000,   0.00120,
,,,0.008248000000,   0.00160,
,,,0.008252000000,   0.00160,
,,,0.008256000000,   0.00160,
,,,0.008260000000,   0.00160,
,,,0.008264000000,   0.00120,
,,,0.008268000000,   0.00120,
,,,0.008272000000,   0.00160,
,,,0.008276000000,   0.00200,
,,,0.008280000000,   0.00200,
,,,0.008284000000,   0.00240,
,,,0.008288000000,   0.00120,
,,,0.008292000000,   0.00160,
,,,0.008296000000,   0.00160,
,,,0.008300000000,   0.00200,
,,,0.008304000000,   0.00160,
,,,0.008308000000,   0.00160,
,,,0.008312000000,   0.00160,
,,,0.008316000000,   0.00160,
,,,0.008320000000,   0.00160,
,,,0.008324000000,   0.00120,
,,,0.008328000000,   0.00120,
,,,0.008332000000,   0.00200,
,,,0.008336000000,   0.00200,
,,,0.008340000000,   0.00160,
,,,0.008344000000,   0.00120,
,,,0.008348000000,   0.00080,
,,,0.008352000000,   0.00160,
,,,0.008356000000,   0.00160,
,,,0.008360000000,   0.00200,
,,,0.008364000000,   0.00080,
,,,0.008368000000,   0.00160,
,,,0.008372000000,   0.00200,
,,,0.008376000000,   0.00240,
,,,0.008380000000,   0.00120,
,,,0.008384000000,   0.00120,
,,,0.008388000000,   0.00120,
,,,0.008392000000,   0.00120,
,,,0.008396000000,   0.00200,
,,,0.008400000000,   0.00120,
,,,0.008404000000,   0.00200,
,,,0.008408000000,   0.00200,
,,,0.008412000000,   0.00160,
,,,0.008416000000,   0.00120,
,,,0.008420000000,   0.00200,
,,,0.008424000000,   0.00200,
,,,0.008428000000,   0.00120,
,,,0.008432000000,   0.00120,
,,,0.008436000000,   0.00200,
,,,0.008440000000,   0.00120,
,,,0.008444000000,   0.00160,
,,,0.008448000000,   0.00160,
,,,0.008452000000,   0.00120,
,,,0.008456000000,   0.00200,
,,,0.008460000000,   0.00120,
,,,0.008464000000,   0.00200,
,,,0.008468000000,   0.00160,
,,,0.008472000000,   0.00200,
,,,0.008476000000,   0.00160,
,,,0.008480000000,   0.00120,
,,,0.008484000000,   0.00160,
,,,0.008488000000,   0.00120,
,,,0.008492000000,   0.00200,
,,,0.008496000000,   0.00160,
,,,0.008500000000,   0.00160,
,,,0.008504000000,   0.00160,
,,,0.008508000000,   0.00080,
,,,0.008512000000,   0.00160,
,,,0.008516000000,   0.00240,
,,,0.008520000000,   0.00200,
,,,0.008524000000,   0.00160,
,,,0.008528000000,   0.00200,
,,,0.008532000000,   0.00120,
,,,0.008536000000,   0.00200,
,,,0.008540000000,   0.00120,
,,,0.008544000000,   0.00120,
,,,0.008548000000,   0.00160,
,,,0.008552000000,   0.00160,
,,,0.008556000000,   0.00120,
,,,0.008560000000,   0.00160,
,,,0.008564000000,   0.00160,
,,,0.008568000000,   0.00080,
,,,0.008572000000,   0.00160,
,,,0.008576000000,   0.00200,
,,,0.008580000000,   0.00120,
,,,0.008584000000,   0.00240,
,,,0.008588000000,   0.00200,
,,,0.008592000000,   0.00120,
,,,0.008596000000,   0.00120,
,,,0.008600000000,   0.00160,
,,,0.008604000000,   0.00200,
,,,0.008608000000,   0.00200,
,,,0.008612000000,   0.00080,
,,,0.008616000000,   0.00160,
,,,0.008620000000,   0.00120,
,,,0.008624000000,   0.00160,
,,,0.008628000000,   0.00120,
,,,0.008632000000,   0.00160,
,,,0.008636000000,   0.00200,
,,,0.008640000000,   0.00160,
,,,0.008644000000,   0.00200,
,,,0.008648000000,   0.00200,
,,,0.008652000000,   0.00160,
,,,0.008656000000,   0.00120,
,,,0.008660000000,   0.00160,
,,,0.008664000000,   0.00120,
,,,0.008668000000,   0.00200,
,,,0.008672000000,   0.00120,
,,,0.008676000000,   0.00080,
,,,0.008680000000,   0.00120,
,,,0.008684000000,   0.00200,
,,,0.008688000000,   0.00160,
,,,0.008692000000,   0.00080,
,,,0.008696000000,   0.00120,
,,,0.008700000000,   0.00120,
,,,0.008704000000,   0.00160,
,,,0.008708000000,   0.00080,
,,,0.008712000000,   0.00120,
,,,0.008716000000,   0.00080,
,,,0.008720000000,   0.00120,
,,,0.008724000000,   0.00160,
,,,0.008728000000,   0.00120,
,,,0.008732000000,   0.00160,
,,,0.008736000000,   0.00200,
,,,0.008740000000,   0.00160,
,,,0.008744000000,   0.00120,
,,,0.008748000000,   0.00160,
,,,0.008752000000,   0.00160,
,,,0.008756000000,   0.00160,
,,,0.008760000000,   0.00160,
,,,0.008764000000,   0.00120,
,,,0.008768000000,   0.00160,
,,,0.008772000000,   0.00080,
,,,0.008776000000,   0.00080,
,,,0.008780000000,   0.00160,
,,,0.008784000000,   0.00080,
,,,0.008788000000,   0.00120,
,,,0.008792000000,   0.00120,
,,,0.008796000000,   0.00160,
,,,0.008800000000,   0.00120,
,,,0.008804000000,   0.00120,
,,,0.008808000000,   0.00120,
,,,0.008812000000,   0.00040,
,,,0.008816000000,   0.00080,
,,,0.008820000000,   0.00080,
,,,0.008824000000,   0.00120,
,,,0.008828000000,   0.00120,
,,,0.008832000000,   0.00120,
,,,0.008836000000,   0.00160,
,,,0.008840000000,   0.00120,
,,,0.008844000000,   0.00080,
,,,0.008848000000,   0.00040,
,,,0.008852000000,   0.00040,
,,,0.008856000000,   0.00040,
,,,0.008860000000,   0.00080,
,,,0.008864000000,   0.00080,
,,,0.008868000000,   0.00080,
,,,0.008872000000,   0.00080,
,,,0.008876000000,   0.00120,
,,,0.008880000000,   0.00040,
,,,0.008884000000,   0.00080,
,,,0.008888000000,   0.00080,
,,,0.008892000000,   0.00080,
,,,0.008896000000,   0.00040,
,,,0.008900000000,   0.00080,
,,,0.008904000000,   0.00040,
,,,0.008908000000,   0.00000,
,,,0.008912000000,   0.00080,
,,,0.008916000000,  -0.00040,
,,,0.008920000000,   0.00080,
,,,0.008924000000,   0.00040,
,,,0.008928000000,   0.00040,
,,,0.008932000000,   0.00120,
,,,0.008936000000,   0.00080,
,,,0.008940000000,   0.00040,
,,,0.008944000000,   0.00000,
,,,0.008948000000,   0.00040,
,,,0.008952000000,   0.00080,
,,,0.008956000000,   0.00040,
,,,0.008960000000,   0.00040,
,,,0.008964000000,   0.00000,
,,,0.008968000000,   0.00000,
,,,0.008972000000,   0.00000,
,,,0.008976000000,   0.00040,
,,,0.008980000000,   0.00080,
,,,0.008984000000,   0.00080,
,,,0.008988000000,   0.00000,
,,,0.008992000000,   0.00000,
,,,0.008996000000,   0.00040,
,,,0.009000000000,   0.00000,
,,,0.009004000000,   0.00000,
,,,0.009008000000,  -0.00040,
,,,0.009012000000,   0.00000,
,,,0.009016000000,   0.00000,
,,,0.009020000000,   0.00000,
,,,0.009024000000,   0.00000,
,,,0.009028000000,   0.00000,
,,,0.009032000000,  -0.00040,
,,,0.009036000000,  -0.00040,
,,,0.009040000000,   0.00000,
,,,0.009044000000,  -0.00040,
,,,0.009048000000,   0.00040,
,,,0.009052000000,   0.00080,
,,,0.009056000000,  -0.00040,
,,,0.009060000000,  -0.00040,
,,,0.009064000000,   0.00000,
,,,0.009068000000,   0.00000,
,,,0.009072000000,  -0.00040,
,,,0.009076000000,   0.00000,
,,,0.009080000000,  -0.00040,
,,,0.009084000000,  -0.00120,
,,,0.009088000000,  -0.00080,
,,,0.009092000000,  -0.00040,
,,,0.009096000000,  -0.00040,
,,,0.009100000000,   0.00040,
,,,0.009104000000,   0.00000,
,,,0.009108000000,   0.00000,
,,,0.009112000000,  -0.00080,
,,,0.009116000000,   0.00040,
,,,0.009120000000,   0.00000,
,,,0.009124000000,   0.00000,
,,,0.009128000000,   0.00000,
,,,0.009132000000,   0.00000,
,,,0.009136000000,  -0.00080,
,,,0.009140000000,  -0.00040,
,,,0.009144000000,   0.00000,
,,,0.009148000000,  -0.00040,
,,,0.009152000000,  -0.00120,
,,,0.009156000000,  -0.00080,
,,,0.009160000000,   0.00000,
,,,0.009164000000,  -0.00080,
,,,0.009168000000,   0.00000,
,,,0.009172000000,   0.00000,
,,,0.009176000000,   0.00000,
,,,0.009180000000,  -0.00080,
,,,0.009184000000,  -0.00080,
,,,0.009188000000,   0.00000,
,,,0.009192000000,  -0.00040,
,,,0.009196000000,  -0.00040,
,,,0.009200000000,  -0.00040,
,,,0.009204000000,  -0.00080,
,,,0.009208000000,  -0.00040,
,,,0.009212000000,  -0.00080,
,,,0.009216000000,  -0.00040,
,,,0.009220000000,   0.00040,
,,,0.009224000000,  -0.00040,
,,,0.009228000000,  -0.00040,
,,,0.009232000000,  -0.00120,
,,,0.009236000000,   0.00040,
,,,0.009240000000,   0.00000,
,,,0.009244000000,  -0.00040,
,,,0.009248000000,  -0.00080,
,,,0.009252000000,  -0.00040,
,,,0.009256000000,   0.00000,
,,,0.009260000000,   0.00000,
,,,0.009264000000,  -0.00040,
,,,0.009268000000,   0.00040,
,,,0.009272000000,  -0.00040,
,,,0.009276000000,   0.00040,
,,,0.009280000000,  -0.00040,
,,,0.009284000000,  -0.00120,
,,,0.009288000000,  -0.00040,
,,,0.009292000000,   0.00040,
,,,0.009296000000,   0.00000,
,,,0.009300000000,   0.00000,
,,,0.009304000000,  -0.00040,
,,,0.009308000000,   0.00000,
,,,0.009312000000,  -0.00040,
,,,0.009316000000,  -0.00040,
,,,0.009320000000,   0.00040,
,,,0.009324000000,  -0.00040,
,,,0.009328000000,   0.00000,
,,,0.009332000000,   0.00000,
,,,0.009336000000,   0.00040,
,,,0.009340000000,   0.00000,
,,,0.009344000000,   0.00000,
,,,0.009348000000,   0.00000,
,,,0.009352000000,   0.00000,
,,,0.009356000000,   0.00000,
,,,0.009360000000,   0.00080,
,,,0.009364000000,   0.00000,
,,,0.009368000000,   0.00080,
,,,0.009372000000,   0.00000,
,,,0.009376000000,   0.00000,
,,,0.009380000000,   0.00080,
,,,0.009384000000,   0.00000,
,,,0.009388000000,   0.00080,
,,,0.009392000000,   0.00080,
,,,0.009396000000,   0.00040,
,,,0.009400000000,   0.00000,
,,,0.009404000000,   0.00040,
,,,0.009408000000,   0.00080,
,,,0.009412000000,   0.00080,
,,,0.009416000000,   0.00080,
,,,0.009420000000,   0.00000,
,,,0.009424000000,   0.00080,
,,,0.009428000000,   0.00120,
,,,0.009432000000,   0.00120,
,,,0.009436000000,   0.00120,
,,,0.009440000000,   0.00080,
,,,0.009444000000,   0.00080,
,,,0.009448000000,   0.00080,
,,,0.009452000000,   0.00080,
,,,0.009456000000,   0.00120,
,,,0.009460000000,   0.00120,
,,,0.009464000000,   0.00080,
,,,0.009468000000,   0.00040,
,,,0.009472000000,   0.00120,
,,,0.009476000000,   0.00080,
,,,0.009480000000,   0.00080,
,,,0.009484000000,   0.00160,
,,,0.009488000000,   0.00120,
,,,0.009492000000,   0.00160,
,,,0.009496000000,   0.00160,
,,,0.009500000000,   0.00120,
,,,0.009504000000,   0.00040,
,,,0.009508000000,   0.00120,
,,,0.009512000000,   0.00120,
,,,0.009516000000,   0.00160,
,,,0.009520000000,   0.00160,
,,,0.009524000000,   0.00200,
,,,0.009528000000,   0.00200,
,,,0.009532000000,   0.00160,
,,,0.009536000000,   0.00120,
,,,0.009540000000,   0.00080,
,,,0.009544000000,   0.00160,
,,,0.009548000000,   0.00200,
,,,0.009552000000,   0.00200,
,,,0.009556000000,   0.00120,
,,,0.009560000000,   0.00160,
,,,0.009564000000,   0.00120,
,,,0.009568000000,   0.00200,
,,,0.009572000000,   0.00200,
,,,0.009576000000,   0.00160,
,,,0.009580000000,   0.00240,
,,,0.009584000000,   0.00240,
,,,0.009588000000,   0.00160,
,,,0.009592000000,   0.00200,
,,,0.009596000000,   0.00200,
,,,0.009600000000,   0.00120,
,,,0.009604000000,   0.00240,
,,,0.009608000000,   0.00200,
,,,0.009612000000,   0.00200,
,,,0.009616000000,   0.00240,
,,,0.009620000000,   0.00160,
,,,0.009624000000,   0.00200,
,,,0.009628000000,   0.00240,
,,,0.009632000000,   0.00240,
,,,0.009636000000,   0.00200,
,,,0.009640000000,   0.00240,
,,,0.009644000000,   0.00240,
,,,0.009648000000,   0.00160,
,,,0.009652000000,   0.00240,
,,,0.009656000000,   0.00240,
,,,0.009660000000,   0.00200,
,,,0.009664000000,   0.00200,
,,,0.009668000000,   0.00280,
,,,0.009672000000,   0.00200,
,,,0.009676000000,   0.00240,
,,,0.009680000000,   0.00240,
,,,0.009684000000,   0.00240,
,,,0.009688000000,   0.00280,
,,,0.009692000000,   0.00240,
,,,0.009696000000,   0.00240,
,,,0.009700000000,   0.00280,
,,,0.009704000000,   0.00280,
,,,0.009708000000,   0.00240,
,,,0.009712000000,   0.00200,
,,,0.009716000000,   0.00320,
,,,0.009720000000,   0.00240,
,,,0.009724000000,   0.00280,
,,,0.009728000000,   0.00280,
,,,0.009732000000,   0.00320,
,,,0.009736000000,   0.00280,
,,,0.009740000000,   0.00240,
,,,0.009744000000,   0.00240,
,,,0.009748000000,   0.00320,
,,,0.009752000000,   0.00280,
,,,0.009756000000,   0.00320,
,,,0.009760000000,   0.00240,
,,,0.009764000000,   0.00360,
,,,0.009768000000,   0.00240,
,,,0.009772000000,   0.00280,
,,,0.009776000000,   0.00280,
,,,0.009780000000,   0.00280,
,,,0.009784000000,   0.00200,
,,,0.009788000000,   0.00280,
,,,0.009792000000,   0.00280,
,,,0.009796000000,   0.00280,
,,,0.009800000000,   0.00280,
,,,0.009804000000,   0.00280,
,,,0.009808000000,   0.00320,
,,,0.009812000000,   0.00280,
,,,0.009816000000,   0.00240,
,,,0.009820000000,   0.00200,
,,,0.009824000000,   0.00280,
,,,0.009828000000,   0.00280,
,,,0.009832000000,   0.00280,
,,,0.009836000000,   0.00200,
,,,0.009840000000,   0.00240,
,,,0.009844000000,   0.00360,
,,,0.009848000000,   0.00280,
,,,0.009852000000,   0.00320,
,,,0.009856000000,   0.00320,
,,,0.009860000000,   0.00280,
,,,0.009864000000,   0.00360,
,,,0.009868000000,   0.00280,
,,,0.009872000000,   0.00280,
,,,0.009876000000,   0.00200,
,,,0.009880000000,   0.00360,
,,,0.009884000000,   0.00320,
,,,0.009888000000,   0.00280,
,,,0.009892000000,   0.00320,
,,,0.009896000000,   0.00280,
,,,0.009900000000,   0.00320,
,,,0.009904000000,   0.00280,
,,,0.009908000000,   0.00320,
,,,0.009912000000,   0.00280,
,,,0.009916000000,   0.00320,
,,,0.009920000000,   0.00320,
,,,0.009924000000,   0.00280,
,,,0.009928000000,   0.00320,
,,,0.009932000000,   0.00360,
,,,0.009936000000,   0.00320,
,,,0.009940000000,   0.00320,
,,,0.009944000000,   0.00360,
,,,0.009948000000,   0.00360,
,,,0.009952000000,   0.00280,
,,,0.009956000000,   0.00280,
,,,0.009960000000,   0.00360,
,,,0.009964000000,   0.00320,
,,,0.009968000000,   0.00360,
,,,0.009972000000,   0.00320,
,,,0.009976000000,   0.00280,
,,,0.009980000000,   0.00360,
,,,0.009984000000,   0.00320,
,,,0.009988000000,   0.00320,
,,,0.009992000000,   0.00320,
,,,0.009996000000,   0.00360,
,,,0.010000000000,   0.00320,
,,,0.010004000000,   0.00320,
,,,0.010008000000,   0.00320,
,,,0.010012000000,   0.00360,
,,,0.010016000000,   0.00360,
,,,0.010020000000,   0.00320,
,,,0.010024000000,   0.00320,
,,,0.010028000000,   0.00320,
,,,0.010032000000,   0.00280,
,,,0.010036000000,   0.00320,
,,,0.010040000000,   0.00360,
,,,0.010044000000,   0.00320,
,,,0.010048000000,   0.00360,
,,,0.010052000000,   0.00320,
,,,0.010056000000,   0.00360,
,,,0.010060000000,   0.00320,
,,,0.010064000000,   0.00320,
,,,0.010068000000,   0.00320,
,,,0.010072000000,   0.00240,
,,,0.010076000000,   0.00400,
,,,0.010080000000,   0.00400,
,,,0.010084000000,   0.00440,
,,,0.010088000000,   0.00440,
,,,0.010092000000,   0.00320,
,,,0.010096000000,   0.00320,
,,,0.010100000000,   0.00360,
,,,0.010104000000,   0.00320,
,,,0.010108000000,   0.00320,
,,,0.010112000000,   0.00240,
,,,0.010116000000,   0.00320,
,,,0.010120000000,   0.00320,
,,,0.010124000000,   0.00320,
,,,0.010128000000,   0.00280,
,,,0.010132000000,   0.00360,
,,,0.010136000000,   0.00320,
,,,0.010140000000,   0.00360,
,,,0.010144000000,   0.00400,
,,,0.010148000000,   0.00320,
,,,0.010152000000,   0.00320,
,,,0.010156000000,   0.00320,
,,,0.010160000000,   0.00280,
,,,0.010164000000,   0.00360,
,,,0.010168000000,   0.00320,
,,,0.010172000000,   0.00360,
,,,0.010176000000,   0.00320,
