trunk/fp2/laserspektroskopie/daten/oszi/ALL0013/F0013CH1.CSV

Record Length,2.500000e+03,,   0.009265200000,   0.00792,
Sample Interval,4.000000e-08,,   0.009265240000,   0.00840,
Trigger Point,-2.316300000000e+05,,   0.009265280000,   0.00832,
,,,   0.009265320000,   0.00800,
,,,   0.009265360000,   0.00760,
,,,   0.009265400000,   0.00792,
Source,CH1,,   0.009265440000,   0.00808,
Vertical Units,V,,   0.009265480000,   0.00784,
Vertical Scale,2.000000e-03,,   0.009265520000,   0.00760,
Vertical Offset,-1.152000e-02,,   0.009265560000,   0.00824,
Horizontal Units,s,,   0.009265600000,   0.00792,
Horizontal Scale,1.000000e-05,,   0.009265640000,   0.00816,
Pt Fmt,Y,,   0.009265680000,   0.00776,
Yzero,0.000000e+00,,   0.009265720000,   0.00784,
Probe Atten,1.000000e+00,,   0.009265760000,   0.00800,
Firmware Version,FV:v6.08,,   0.009265800000,   0.00832,
,,,0.009265840000,   0.00832,
,,,0.009265880000,   0.00840,
,,,0.009265920000,   0.00848,
,,,0.009265960000,   0.00784,
,,,0.009266000000,   0.00808,
,,,0.009266040000,   0.00800,
,,,0.009266080000,   0.00824,
,,,0.009266120000,   0.00800,
,,,0.009266160000,   0.00800,
,,,0.009266200000,   0.00824,
,,,0.009266240000,   0.00824,
,,,0.009266280000,   0.00808,
,,,0.009266320000,   0.00832,
,,,0.009266360000,   0.00848,
,,,0.009266400000,   0.00832,
,,,0.009266440000,   0.00848,
,,,0.009266480000,   0.00848,
,,,0.009266520000,   0.00832,
,,,0.009266560000,   0.00856,
,,,0.009266600000,   0.00840,
,,,0.009266640000,   0.00856,
,,,0.009266680000,   0.00800,
,,,0.009266720000,   0.00896,
,,,0.009266760000,   0.00808,
,,,0.009266800000,   0.00816,
,,,0.009266840000,   0.00832,
,,,0.009266880000,   0.00832,
,,,0.009266920000,   0.00840,
,,,0.009266960000,   0.00840,
,,,0.009267000000,   0.00800,
,,,0.009267040000,   0.00848,
,,,0.009267080000,   0.00840,
,,,0.009267120000,   0.00848,
,,,0.009267160000,   0.00856,
,,,0.009267200000,   0.00840,
,,,0.009267240000,   0.00848,
,,,0.009267280000,   0.00880,
,,,0.009267320000,   0.00872,
,,,0.009267360000,   0.00848,
,,,0.009267400000,   0.00912,
,,,0.009267440000,   0.00880,
,,,0.009267480000,   0.00928,
,,,0.009267520000,   0.00896,
,,,0.009267560000,   0.00872,
,,,0.009267600000,   0.00872,
,,,0.009267640000,   0.00888,
,,,0.009267680000,   0.00872,
,,,0.009267720000,   0.00896,
,,,0.009267760000,   0.00856,
,,,0.009267800000,   0.00856,
,,,0.009267840000,   0.00880,
,,,0.009267880000,   0.00896,
,,,0.009267920000,   0.00888,
,,,0.009267960000,   0.00912,
,,,0.009268000000,   0.00944,
,,,0.009268040000,   0.00904,
,,,0.009268080000,   0.00904,
,,,0.009268120000,   0.00888,
,,,0.009268160000,   0.00872,
,,,0.009268200000,   0.00920,
,,,0.009268240000,   0.00912,
,,,0.009268280000,   0.00872,
,,,0.009268320000,   0.00888,
,,,0.009268360000,   0.00856,
,,,0.009268400000,   0.00920,
,,,0.009268440000,   0.00912,
,,,0.009268480000,   0.00952,
,,,0.009268520000,   0.00912,
,,,0.009268560000,   0.00920,
,,,0.009268600000,   0.00944,
,,,0.009268640000,   0.00888,
,,,0.009268680000,   0.00904,
,,,0.009268720000,   0.00920,
,,,0.009268760000,   0.00912,
,,,0.009268800000,   0.00904,
,,,0.009268840000,   0.00912,
,,,0.009268880000,   0.00840,
,,,0.009268920000,   0.00880,
,,,0.009268960000,   0.00904,
,,,0.009269000000,   0.00856,
,,,0.009269040000,   0.00920,
,,,0.009269080000,   0.00888,
,,,0.009269120000,   0.00880,
,,,0.009269160000,   0.00936,
,,,0.009269200000,   0.00872,
,,,0.009269240000,   0.00880,
,,,0.009269280000,   0.00888,
,,,0.009269320000,   0.00912,
,,,0.009269360000,   0.00896,
,,,0.009269400000,   0.00896,
,,,0.009269440000,   0.00896,
,,,0.009269480000,   0.00912,
,,,0.009269520000,   0.00952,
,,,0.009269560000,   0.00896,
,,,0.009269600000,   0.00904,
,,,0.009269640000,   0.00896,
,,,0.009269680000,   0.00896,
,,,0.009269720000,   0.00920,
,,,0.009269760000,   0.00880,
,,,0.009269800000,   0.00912,
,,,0.009269840000,   0.00912,
,,,0.009269880000,   0.00896,
,,,0.009269920000,   0.00872,
,,,0.009269960000,   0.00912,
,,,0.009270000000,   0.00888,
,,,0.009270040000,   0.00944,
,,,0.009270080000,   0.00936,
,,,0.009270120000,   0.00912,
,,,0.009270160000,   0.00880,
,,,0.009270200000,   0.00928,
,,,0.009270240000,   0.00936,
,,,0.009270280000,   0.00920,
,,,0.009270320000,   0.00864,
,,,0.009270360000,   0.00888,
,,,0.009270400000,   0.00920,
,,,0.009270440000,   0.00912,
,,,0.009270480000,   0.00944,
,,,0.009270520000,   0.00920,
,,,0.009270560000,   0.00904,
,,,0.009270600000,   0.00936,
,,,0.009270640000,   0.00920,
,,,0.009270680000,   0.00960,
,,,0.009270720000,   0.00952,
,,,0.009270760000,   0.00944,
,,,0.009270800000,   0.00936,
,,,0.009270840000,   0.00936,
,,,0.009270880000,   0.00912,
,,,0.009270920000,   0.00928,
,,,0.009270960000,   0.00960,
,,,0.009271000000,   0.00920,
,,,0.009271040000,   0.00920,
,,,0.009271080000,   0.00944,
,,,0.009271120000,   0.00936,
,,,0.009271160000,   0.00880,
,,,0.009271200000,   0.00952,
,,,0.009271240000,   0.00952,
,,,0.009271280000,   0.00920,
,,,0.009271320000,   0.00944,
,,,0.009271360000,   0.00920,
,,,0.009271400000,   0.00944,
,,,0.009271440000,   0.00960,
,,,0.009271480000,   0.00944,
,,,0.009271520000,   0.00960,
,,,0.009271560000,   0.00912,
,,,0.009271600000,   0.00944,
,,,0.009271640000,   0.00912,
,,,0.009271680000,   0.00960,
,,,0.009271720000,   0.00976,
,,,0.009271760000,   0.00992,
,,,0.009271800000,   0.00976,
,,,0.009271840000,   0.00968,
,,,0.009271880000,   0.00936,
,,,0.009271920000,   0.00920,
,,,0.009271960000,   0.00944,
,,,0.009272000000,   0.00952,
,,,0.009272040000,   0.00936,
,,,0.009272080000,   0.00928,
,,,0.009272120000,   0.00904,
,,,0.009272160000,   0.00944,
,,,0.009272200000,   0.00968,
,,,0.009272240000,   0.00904,
,,,0.009272280000,   0.00968,
,,,0.009272320000,   0.00968,
,,,0.009272360000,   0.00960,
,,,0.009272400000,   0.00960,
,,,0.009272440000,   0.00976,
,,,0.009272480000,   0.00992,
,,,0.009272520000,   0.00936,
,,,0.009272560000,   0.00968,
,,,0.009272600000,   0.00952,
,,,0.009272640000,   0.00968,
,,,0.009272680000,   0.00936,
,,,0.009272720000,   0.00968,
,,,0.009272760000,   0.00936,
,,,0.009272800000,   0.00952,
,,,0.009272840000,   0.00944,
,,,0.009272880000,   0.00944,
,,,0.009272920000,   0.00960,
,,,0.009272960000,   0.00984,
,,,0.009273000000,   0.00984,
,,,0.009273040000,   0.01000,
,,,0.009273080000,   0.00936,
,,,0.009273120000,   0.00960,
,,,0.009273160000,   0.01000,
,,,0.009273200000,   0.00944,
,,,0.009273240000,   0.00952,
,,,0.009273280000,   0.00952,
,,,0.009273320000,   0.00984,
,,,0.009273360000,   0.01016,
,,,0.009273400000,   0.00960,
,,,0.009273440000,   0.00944,
,,,0.009273480000,   0.00984,
,,,0.009273520000,   0.00968,
,,,0.009273560000,   0.00928,
,,,0.009273600000,   0.00952,
,,,0.009273640000,   0.00976,
,,,0.009273680000,   0.00976,
,,,0.009273720000,   0.00968,
,,,0.009273760000,   0.00944,
,,,0.009273800000,   0.01000,
,,,0.009273840000,   0.01016,
,,,0.009273880000,   0.00968,
,,,0.009273920000,   0.00968,
,,,0.009273960000,   0.00968,
,,,0.009274000000,   0.00944,
,,,0.009274040000,   0.00944,
,,,0.009274080000,   0.00984,
,,,0.009274120000,   0.00936,
,,,0.009274160000,   0.00936,
,,,0.009274200000,   0.00976,
,,,0.009274240000,   0.01008,
,,,0.009274280000,   0.01016,
,,,0.009274320000,   0.00944,
,,,0.009274360000,   0.00984,
,,,0.009274400000,   0.00992,
,,,0.009274440000,   0.00992,
,,,0.009274480000,   0.00944,
,,,0.009274520000,   0.00952,
,,,0.009274560000,   0.01000,
,,,0.009274600000,   0.00992,
,,,0.009274640000,   0.00992,
,,,0.009274680000,   0.00968,
,,,0.009274720000,   0.00992,
,,,0.009274760000,   0.00952,
,,,0.009274800000,   0.01000,
,,,0.009274840000,   0.00960,
,,,0.009274880000,   0.00936,
,,,0.009274920000,   0.00992,
,,,0.009274960000,   0.00976,
,,,0.009275000000,   0.01008,
,,,0.009275040000,   0.00992,
,,,0.009275080000,   0.01032,
,,,0.009275120000,   0.00992,
,,,0.009275160000,   0.00968,
,,,0.009275200000,   0.01032,
,,,0.009275240000,   0.00968,
,,,0.009275280000,   0.00984,
,,,0.009275320000,   0.01016,
,,,0.009275360000,   0.00976,
,,,0.009275400000,   0.01008,
,,,0.009275440000,   0.00976,
,,,0.009275480000,   0.01016,
,,,0.009275520000,   0.01024,
,,,0.009275560000,   0.01000,
,,,0.009275600000,   0.00992,
,,,0.009275640000,   0.01016,
,,,0.009275680000,   0.01024,
,,,0.009275720000,   0.00992,
,,,0.009275760000,   0.01000,
,,,0.009275800000,   0.01000,
,,,0.009275840000,   0.00984,
,,,0.009275880000,   0.01032,
,,,0.009275920000,   0.01024,
,,,0.009275960000,   0.01000,
,,,0.009276000000,   0.00976,
,,,0.009276040000,   0.01048,
,,,0.009276080000,   0.01056,
,,,0.009276120000,   0.01032,
,,,0.009276160000,   0.01008,
,,,0.009276200000,   0.01032,
,,,0.009276240000,   0.01040,
,,,0.009276280000,   0.01008,
,,,0.009276320000,   0.01024,
,,,0.009276360000,   0.01016,
,,,0.009276400000,   0.01064,
,,,0.009276440000,   0.00960,
,,,0.009276480000,   0.00984,
,,,0.009276520000,   0.01024,
,,,0.009276560000,   0.01016,
,,,0.009276600000,   0.01008,
,,,0.009276640000,   0.01008,
,,,0.009276680000,   0.01008,
,,,0.009276720000,   0.01016,
,,,0.009276760000,   0.01008,
,,,0.009276800000,   0.01024,
,,,0.009276840000,   0.00992,
,,,0.009276880000,   0.01032,
,,,0.009276920000,   0.01016,
,,,0.009276960000,   0.01000,
,,,0.009277000000,   0.01008,
,,,0.009277040000,   0.00984,
,,,0.009277080000,   0.01000,
,,,0.009277120000,   0.01000,
,,,0.009277160000,   0.01008,
,,,0.009277200000,   0.01048,
,,,0.009277240000,   0.01016,
,,,0.009277280000,   0.01000,
,,,0.009277320000,   0.01032,
,,,0.009277360000,   0.01064,
,,,0.009277400000,   0.01008,
,,,0.009277440000,   0.01000,
,,,0.009277480000,   0.01008,
,,,0.009277520000,   0.00984,
,,,0.009277560000,   0.01008,
,,,0.009277600000,   0.01016,
,,,0.009277640000,   0.00992,
,,,0.009277680000,   0.01056,
,,,0.009277720000,   0.01000,
,,,0.009277760000,   0.01000,
,,,0.009277800000,   0.01016,
,,,0.009277840000,   0.01024,
,,,0.009277880000,   0.00976,
,,,0.009277920000,   0.01024,
,,,0.009277960000,   0.01040,
,,,0.009278000000,   0.01064,
,,,0.009278040000,   0.01016,
,,,0.009278080000,   0.01032,
,,,0.009278120000,   0.01024,
,,,0.009278160000,   0.01032,
,,,0.009278200000,   0.01056,
,,,0.009278240000,   0.01040,
,,,0.009278280000,   0.01032,
,,,0.009278320000,   0.01048,
,,,0.009278360000,   0.01016,
,,,0.009278400000,   0.01024,
,,,0.009278440000,   0.01048,
,,,0.009278480000,   0.01024,
,,,0.009278520000,   0.01024,
,,,0.009278560000,   0.01040,
,,,0.009278600000,   0.00992,
,,,0.009278640000,   0.01040,
,,,0.009278680000,   0.01008,
,,,0.009278720000,   0.01072,
,,,0.009278760000,   0.01024,
,,,0.009278800000,   0.01056,
,,,0.009278840000,   0.01024,
,,,0.009278880000,   0.01088,
,,,0.009278920000,   0.01040,
,,,0.009278960000,   0.01048,
,,,0.009279000000,   0.01096,
,,,0.009279040000,   0.01096,
,,,0.009279080000,   0.01048,
,,,0.009279120000,   0.01008,
,,,0.009279160000,   0.01024,
,,,0.009279200000,   0.01056,
,,,0.009279240000,   0.01040,
,,,0.009279280000,   0.01080,
,,,0.009279320000,   0.01024,
,,,0.009279360000,   0.01072,
,,,0.009279400000,   0.01048,
,,,0.009279440000,   0.01072,
,,,0.009279480000,   0.01024,
,,,0.009279520000,   0.01008,
,,,0.009279560000,   0.01024,
,,,0.009279600000,   0.01080,
,,,0.009279640000,   0.01072,
,,,0.009279680000,   0.01072,
,,,0.009279720000,   0.01064,
,,,0.009279760000,   0.01032,
,,,0.009279800000,   0.01040,
,,,0.009279840000,   0.01096,
,,,0.009279880000,   0.01064,
,,,0.009279920000,   0.01080,
,,,0.009279960000,   0.01032,
,,,0.009280000000,   0.01080,
,,,0.009280040000,   0.01064,
,,,0.009280080000,   0.01088,
,,,0.009280120000,   0.01128,
,,,0.009280160000,   0.01072,
,,,0.009280200000,   0.01064,
,,,0.009280240000,   0.01088,
,,,0.009280280000,   0.01104,
,,,0.009280320000,   0.01088,
,,,0.009280360000,   0.01088,
,,,0.009280400000,   0.01080,
,,,0.009280440000,   0.01064,
,,,0.009280480000,   0.01080,
,,,0.009280520000,   0.01104,
,,,0.009280560000,   0.01112,
,,,0.009280600000,   0.01056,
,,,0.009280640000,   0.01064,
,,,0.009280680000,   0.01088,
,,,0.009280720000,   0.01064,
,,,0.009280760000,   0.01048,
,,,0.009280800000,   0.01072,
,,,0.009280840000,   0.01088,
,,,0.009280880000,   0.01048,
,,,0.009280920000,   0.01120,
,,,0.009280960000,   0.01080,
,,,0.009281000000,   0.01056,
,,,0.009281040000,   0.01104,
,,,0.009281080000,   0.01056,
,,,0.009281120000,   0.01088,
,,,0.009281160000,   0.01128,
,,,0.009281200000,   0.01072,
,,,0.009281240000,   0.01088,
,,,0.009281280000,   0.01088,
,,,0.009281320000,   0.01120,
,,,0.009281360000,   0.01096,
,,,0.009281400000,   0.01120,
,,,0.009281440000,   0.01136,
,,,0.009281480000,   0.01096,
,,,0.009281520000,   0.01112,
,,,0.009281560000,   0.01096,
,,,0.009281600000,   0.01104,
,,,0.009281640000,   0.01064,
,,,0.009281680000,   0.01104,
,,,0.009281720000,   0.01136,
,,,0.009281760000,   0.01160,
,,,0.009281800000,   0.01112,
,,,0.009281840000,   0.01120,
,,,0.009281880000,   0.01128,
,,,0.009281920000,   0.01072,
,,,0.009281960000,   0.01072,
,,,0.009282000000,   0.01104,
,,,0.009282040000,   0.01120,
,,,0.009282080000,   0.01088,
,,,0.009282120000,   0.01112,
,,,0.009282160000,   0.01120,
,,,0.009282200000,   0.01112,
,,,0.009282240000,   0.01128,
,,,0.009282280000,   0.01096,
,,,0.009282320000,   0.01104,
,,,0.009282360000,   0.01144,
,,,0.009282400000,   0.01136,
,,,0.009282440000,   0.01152,
,,,0.009282480000,   0.01128,
,,,0.009282520000,   0.01160,
,,,0.009282560000,   0.01176,
,,,0.009282600000,   0.01160,
,,,0.009282640000,   0.01144,
,,,0.009282680000,   0.01096,
,,,0.009282720000,   0.01152,
,,,0.009282760000,   0.01120,
,,,0.009282800000,   0.01088,
,,,0.009282840000,   0.01120,
,,,0.009282880000,   0.01136,
,,,0.009282920000,   0.01136,
,,,0.009282960000,   0.01120,
,,,0.009283000000,   0.01144,
,,,0.009283040000,   0.01168,
,,,0.009283080000,   0.01096,
,,,0.009283120000,   0.01144,
,,,0.009283160000,   0.01152,
,,,0.009283200000,   0.01152,
,,,0.009283240000,   0.01168,
,,,0.009283280000,   0.01200,
,,,0.009283320000,   0.01128,
,,,0.009283360000,   0.01112,
,,,0.009283400000,   0.01128,
,,,0.009283440000,   0.01128,
,,,0.009283480000,   0.01184,
,,,0.009283520000,   0.01152,
,,,0.009283560000,   0.01160,
,,,0.009283600000,   0.01176,
,,,0.009283640000,   0.01144,
,,,0.009283680000,   0.01112,
,,,0.009283720000,   0.01136,
,,,0.009283760000,   0.01112,
,,,0.009283800000,   0.01192,
,,,0.009283840000,   0.01128,
,,,0.009283880000,   0.01144,
,,,0.009283920000,   0.01128,
,,,0.009283960000,   0.01128,
,,,0.009284000000,   0.01168,
,,,0.009284040000,   0.01192,
,,,0.009284080000,   0.01128,
,,,0.009284120000,   0.01160,
,,,0.009284160000,   0.01152,
,,,0.009284200000,   0.01176,
,,,0.009284240000,   0.01192,
,,,0.009284280000,   0.01136,
,,,0.009284320000,   0.01144,
,,,0.009284360000,   0.01184,
,,,0.009284400000,   0.01160,
,,,0.009284440000,   0.01176,
,,,0.009284480000,   0.01144,
,,,0.009284520000,   0.01168,
,,,0.009284560000,   0.01168,
,,,0.009284600000,   0.01208,
,,,0.009284640000,   0.01192,
,,,0.009284680000,   0.01152,
,,,0.009284720000,   0.01192,
,,,0.009284760000,   0.01184,
,,,0.009284800000,   0.01176,
,,,0.009284840000,   0.01184,
,,,0.009284880000,   0.01160,
,,,0.009284920000,   0.01208,
,,,0.009284960000,   0.01216,
,,,0.009285000000,   0.01176,
,,,0.009285040000,   0.01200,
,,,0.009285080000,   0.01176,
,,,0.009285120000,   0.01208,
,,,0.009285160000,   0.01168,
,,,0.009285200000,   0.01216,
,,,0.009285240000,   0.01192,
,,,0.009285280000,   0.01216,
,,,0.009285320000,   0.01208,
,,,0.009285360000,   0.01208,
,,,0.009285400000,   0.01216,
,,,0.009285440000,   0.01240,
,,,0.009285480000,   0.01200,
,,,0.009285520000,   0.01216,
,,,0.009285560000,   0.01240,
,,,0.009285600000,   0.01224,
,,,0.009285640000,   0.01256,
,,,0.009285680000,   0.01232,
,,,0.009285720000,   0.01248,
,,,0.009285760000,   0.01248,
,,,0.009285800000,   0.01216,
,,,0.009285840000,   0.01256,
,,,0.009285880000,   0.01272,
,,,0.009285920000,   0.01232,
,,,0.009285960000,   0.01288,
,,,0.009286000000,   0.01264,
,,,0.009286040000,   0.01248,
,,,0.009286080000,   0.01272,
,,,0.009286120000,   0.01256,
,,,0.009286160000,   0.01216,
,,,0.009286200000,   0.01240,
,,,0.009286240000,   0.01232,
,,,0.009286280000,   0.01200,
,,,0.009286320000,   0.01224,
,,,0.009286360000,   0.01248,
,,,0.009286400000,   0.01216,
,,,0.009286440000,   0.01232,
,,,0.009286480000,   0.01280,
,,,0.009286520000,   0.01296,
,,,0.009286560000,   0.01248,
,,,0.009286600000,   0.01240,
,,,0.009286640000,   0.01272,
,,,0.009286680000,   0.01272,
,,,0.009286720000,   0.01248,
,,,0.009286760000,   0.01304,
,,,0.009286800000,   0.01272,
,,,0.009286840000,   0.01264,
,,,0.009286880000,   0.01280,
,,,0.009286920000,   0.01272,
,,,0.009286960000,   0.01280,
,,,0.009287000000,   0.01280,
,,,0.009287040000,   0.01304,
,,,0.009287080000,   0.01272,
,,,0.009287120000,   0.01288,
,,,0.009287160000,   0.01304,
,,,0.009287200000,   0.01288,
,,,0.009287240000,   0.01288,
,,,0.009287280000,   0.01296,
,,,0.009287320000,   0.01280,
,,,0.009287360000,   0.01328,
,,,0.009287400000,   0.01336,
,,,0.009287440000,   0.01280,
,,,0.009287480000,   0.01280,
,,,0.009287520000,   0.01304,
,,,0.009287560000,   0.01272,
,,,0.009287600000,   0.01288,
,,,0.009287640000,   0.01288,
,,,0.009287680000,   0.01264,
,,,0.009287720000,   0.01280,
,,,0.009287760000,   0.01280,
,,,0.009287800000,   0.01336,
,,,0.009287840000,   0.01288,
,,,0.009287880000,   0.01320,
,,,0.009287920000,   0.01312,
,,,0.009287960000,   0.01312,
,,,0.009288000000,   0.01320,
,,,0.009288040000,   0.01312,
,,,0.009288080000,   0.01272,
,,,0.009288120000,   0.01312,
,,,0.009288160000,   0.01368,
,,,0.009288200000,   0.01368,
,,,0.009288240000,   0.01360,
,,,0.009288280000,   0.01312,
,,,0.009288320000,   0.01272,
,,,0.009288360000,   0.01312,
,,,0.009288400000,   0.01376,
,,,0.009288440000,   0.01296,
,,,0.009288480000,   0.01344,
,,,0.009288520000,   0.01288,
,,,0.009288560000,   0.01360,
,,,0.009288600000,   0.01328,
,,,0.009288640000,   0.01344,
,,,0.009288680000,   0.01352,
,,,0.009288720000,   0.01304,
,,,0.009288760000,   0.01344,
,,,0.009288800000,   0.01304,
,,,0.009288840000,   0.01312,
,,,0.009288880000,   0.01368,
,,,0.009288920000,   0.01352,
,,,0.009288960000,   0.01312,
,,,0.009289000000,   0.01344,
,,,0.009289040000,   0.01312,
,,,0.009289080000,   0.01352,
,,,0.009289120000,   0.01336,
,,,0.009289160000,   0.01352,
,,,0.009289200000,   0.01352,
,,,0.009289240000,   0.01344,
,,,0.009289280000,   0.01376,
,,,0.009289320000,   0.01368,
,,,0.009289360000,   0.01384,
,,,0.009289400000,   0.01344,
,,,0.009289440000,   0.01392,
,,,0.009289480000,   0.01336,
,,,0.009289520000,   0.01320,
,,,0.009289560000,   0.01352,
,,,0.009289600000,   0.01352,
,,,0.009289640000,   0.01392,
,,,0.009289680000,   0.01384,
,,,0.009289720000,   0.01360,
,,,0.009289760000,   0.01392,
,,,0.009289800000,   0.01376,
,,,0.009289840000,   0.01400,
,,,0.009289880000,   0.01392,
,,,0.009289920000,   0.01384,
,,,0.009289960000,   0.01392,
,,,0.009290000000,   0.01368,
,,,0.009290040000,   0.01384,
,,,0.009290080000,   0.01368,
,,,0.009290120000,   0.01336,
,,,0.009290160000,   0.01392,
,,,0.009290200000,   0.01384,
,,,0.009290240000,   0.01376,
,,,0.009290280000,   0.01384,
,,,0.009290320000,   0.01360,
,,,0.009290360000,   0.01368,
,,,0.009290400000,   0.01376,
,,,0.009290440000,   0.01376,
,,,0.009290480000,   0.01440,
,,,0.009290520000,   0.01368,
,,,0.009290560000,   0.01408,
,,,0.009290600000,   0.01432,
,,,0.009290640000,   0.01392,
,,,0.009290680000,   0.01352,
,,,0.009290720000,   0.01400,
,,,0.009290760000,   0.01400,
,,,0.009290800000,   0.01416,
,,,0.009290840000,   0.01368,
,,,0.009290880000,   0.01400,
,,,0.009290920000,   0.01392,
,,,0.009290960000,   0.01408,
,,,0.009291000000,   0.01360,
,,,0.009291040000,   0.01416,
,,,0.009291080000,   0.01352,
,,,0.009291120000,   0.01368,
,,,0.009291160000,   0.01432,
,,,0.009291200000,   0.01360,
,,,0.009291240000,   0.01384,
,,,0.009291280000,   0.01376,
,,,0.009291320000,   0.01384,
,,,0.009291360000,   0.01400,
