trunk/fp2/laserspektroskopie/daten/oszi/ALL0020/F0020CH1.CSV

Record Length,2.500000e+03,,   0.011630000000,   0.00144,
Sample Interval,2.000000e-07,,   0.011630200000,   0.00128,
Trigger Point,-5.815000000000e+04,,   0.011630400000,   0.00120,
,,,   0.011630600000,   0.00176,
,,,   0.011630800000,   0.00128,
,,,   0.011631000000,   0.00136,
Source,CH1,,   0.011631200000,   0.00152,
Vertical Units,V,,   0.011631400000,   0.00176,
Vertical Scale,2.000000e-03,,   0.011631600000,   0.00152,
Vertical Offset,-1.080000e-02,,   0.011631800000,   0.00136,
Horizontal Units,s,,   0.011632000000,   0.00192,
Horizontal Scale,5.000000e-05,,   0.011632200000,   0.00168,
Pt Fmt,Y,,   0.011632400000,   0.00176,
Yzero,0.000000e+00,,   0.011632600000,   0.00152,
Probe Atten,1.000000e+00,,   0.011632800000,   0.00176,
Firmware Version,FV:v6.08,,   0.011633000000,   0.00144,
,,,0.011633200000,   0.00200,
,,,0.011633400000,   0.00176,
,,,0.011633600000,   0.00152,
,,,0.011633800000,   0.00240,
,,,0.011634000000,   0.00152,
,,,0.011634200000,   0.00160,
,,,0.011634400000,   0.00192,
,,,0.011634600000,   0.00160,
,,,0.011634800000,   0.00192,
,,,0.011635000000,   0.00160,
,,,0.011635200000,   0.00152,
,,,0.011635400000,   0.00160,
,,,0.011635600000,   0.00152,
,,,0.011635800000,   0.00152,
,,,0.011636000000,   0.00160,
,,,0.011636200000,   0.00192,
,,,0.011636400000,   0.00240,
,,,0.011636600000,   0.00168,
,,,0.011636800000,   0.00176,
,,,0.011637000000,   0.00200,
,,,0.011637200000,   0.00168,
,,,0.011637400000,   0.00160,
,,,0.011637600000,   0.00176,
,,,0.011637800000,   0.00176,
,,,0.011638000000,   0.00120,
,,,0.011638200000,   0.00176,
,,,0.011638400000,   0.00160,
,,,0.011638600000,   0.00176,
,,,0.011638800000,   0.00136,
,,,0.011639000000,   0.00152,
,,,0.011639200000,   0.00184,
,,,0.011639400000,   0.00216,
,,,0.011639600000,   0.00176,
,,,0.011639800000,   0.00112,
,,,0.011640000000,   0.00184,
,,,0.011640200000,   0.00208,
,,,0.011640400000,   0.00168,
,,,0.011640600000,   0.00176,
,,,0.011640800000,   0.00160,
,,,0.011641000000,   0.00176,
,,,0.011641200000,   0.00216,
,,,0.011641400000,   0.00200,
,,,0.011641600000,   0.00192,
,,,0.011641800000,   0.00168,
,,,0.011642000000,   0.00160,
,,,0.011642200000,   0.00184,
,,,0.011642400000,   0.00176,
,,,0.011642600000,   0.00152,
,,,0.011642800000,   0.00160,
,,,0.011643000000,   0.00208,
,,,0.011643200000,   0.00192,
,,,0.011643400000,   0.00152,
,,,0.011643600000,   0.00128,
,,,0.011643800000,   0.00152,
,,,0.011644000000,   0.00192,
,,,0.011644200000,   0.00176,
,,,0.011644400000,   0.00144,
,,,0.011644600000,   0.00176,
,,,0.011644800000,   0.00112,
,,,0.011645000000,   0.00168,
,,,0.011645200000,   0.00168,
,,,0.011645400000,   0.00160,
,,,0.011645600000,   0.00192,
,,,0.011645800000,   0.00176,
,,,0.011646000000,   0.00152,
,,,0.011646200000,   0.00160,
,,,0.011646400000,   0.00208,
,,,0.011646600000,   0.00152,
,,,0.011646800000,   0.00192,
,,,0.011647000000,   0.00216,
,,,0.011647200000,   0.00224,
,,,0.011647400000,   0.00176,
,,,0.011647600000,   0.00152,
,,,0.011647800000,   0.00184,
,,,0.011648000000,   0.00136,
,,,0.011648200000,   0.00208,
,,,0.011648400000,   0.00192,
,,,0.011648600000,   0.00184,
,,,0.011648800000,   0.00128,
,,,0.011649000000,   0.00120,
,,,0.011649200000,   0.00128,
,,,0.011649400000,   0.00136,
,,,0.011649600000,   0.00168,
,,,0.011649800000,   0.00184,
,,,0.011650000000,   0.00120,
,,,0.011650200000,   0.00184,
,,,0.011650400000,   0.00208,
,,,0.011650600000,   0.00176,
,,,0.011650800000,   0.00136,
,,,0.011651000000,   0.00176,
,,,0.011651200000,   0.00152,
,,,0.011651400000,   0.00168,
,,,0.011651600000,   0.00168,
,,,0.011651800000,   0.00136,
,,,0.011652000000,   0.00184,
,,,0.011652200000,   0.00192,
,,,0.011652400000,   0.00136,
,,,0.011652600000,   0.00128,
,,,0.011652800000,   0.00160,
,,,0.011653000000,   0.00152,
,,,0.011653200000,   0.00176,
,,,0.011653400000,   0.00152,
,,,0.011653600000,   0.00216,
,,,0.011653800000,   0.00192,
,,,0.011654000000,   0.00192,
,,,0.011654200000,   0.00232,
,,,0.011654400000,   0.00176,
,,,0.011654600000,   0.00152,
,,,0.011654800000,   0.00136,
,,,0.011655000000,   0.00136,
,,,0.011655200000,   0.00160,
,,,0.011655400000,   0.00128,
,,,0.011655600000,   0.00168,
,,,0.011655800000,   0.00152,
,,,0.011656000000,   0.00160,
,,,0.011656200000,   0.00192,
,,,0.011656400000,   0.00168,
,,,0.011656600000,   0.00168,
,,,0.011656800000,   0.00168,
,,,0.011657000000,   0.00168,
,,,0.011657200000,   0.00160,
,,,0.011657400000,   0.00136,
,,,0.011657600000,   0.00096,
,,,0.011657800000,   0.00136,
,,,0.011658000000,   0.00136,
,,,0.011658200000,   0.00120,
,,,0.011658400000,   0.00136,
,,,0.011658600000,   0.00144,
,,,0.011658800000,   0.00104,
,,,0.011659000000,   0.00112,
,,,0.011659200000,   0.00128,
,,,0.011659400000,   0.00136,
,,,0.011659600000,   0.00128,
,,,0.011659800000,   0.00168,
,,,0.011660000000,   0.00176,
,,,0.011660200000,   0.00168,
,,,0.011660400000,   0.00176,
,,,0.011660600000,   0.00152,
,,,0.011660800000,   0.00208,
,,,0.011661000000,   0.00216,
,,,0.011661200000,   0.00200,
,,,0.011661400000,   0.00176,
,,,0.011661600000,   0.00208,
,,,0.011661800000,   0.00168,
,,,0.011662000000,   0.00136,
,,,0.011662200000,   0.00128,
,,,0.011662400000,   0.00136,
,,,0.011662600000,   0.00160,
,,,0.011662800000,   0.00208,
,,,0.011663000000,   0.00144,
,,,0.011663200000,   0.00160,
,,,0.011663400000,   0.00168,
,,,0.011663600000,   0.00128,
,,,0.011663800000,   0.00168,
,,,0.011664000000,   0.00184,
,,,0.011664200000,   0.00128,
,,,0.011664400000,   0.00176,
,,,0.011664600000,   0.00184,
,,,0.011664800000,   0.00160,
,,,0.011665000000,   0.00104,
,,,0.011665200000,   0.00160,
,,,0.011665400000,   0.00152,
,,,0.011665600000,   0.00160,
,,,0.011665800000,   0.00144,
,,,0.011666000000,   0.00184,
,,,0.011666200000,   0.00216,
,,,0.011666400000,   0.00152,
,,,0.011666600000,   0.00224,
,,,0.011666800000,   0.00192,
,,,0.011667000000,   0.00216,
,,,0.011667200000,   0.00184,
,,,0.011667400000,   0.00184,
,,,0.011667600000,   0.00176,
,,,0.011667800000,   0.00136,
,,,0.011668000000,   0.00152,
,,,0.011668200000,   0.00184,
,,,0.011668400000,   0.00160,
,,,0.011668600000,   0.00184,
,,,0.011668800000,   0.00184,
,,,0.011669000000,   0.00160,
,,,0.011669200000,   0.00160,
,,,0.011669400000,   0.00176,
,,,0.011669600000,   0.00168,
,,,0.011669800000,   0.00152,
,,,0.011670000000,   0.00184,
,,,0.011670200000,   0.00160,
,,,0.011670400000,   0.00184,
,,,0.011670600000,   0.00136,
,,,0.011670800000,   0.00128,
,,,0.011671000000,   0.00152,
,,,0.011671200000,   0.00184,
,,,0.011671400000,   0.00144,
,,,0.011671600000,   0.00168,
,,,0.011671800000,   0.00136,
,,,0.011672000000,   0.00160,
,,,0.011672200000,   0.00152,
,,,0.011672400000,   0.00160,
,,,0.011672600000,   0.00144,
,,,0.011672800000,   0.00192,
,,,0.011673000000,   0.00184,
,,,0.011673200000,   0.00152,
,,,0.011673400000,   0.00176,
,,,0.011673600000,   0.00184,
,,,0.011673800000,   0.00176,
,,,0.011674000000,   0.00144,
,,,0.011674200000,   0.00160,
,,,0.011674400000,   0.00152,
,,,0.011674600000,   0.00112,
,,,0.011674800000,   0.00136,
,,,0.011675000000,   0.00144,
,,,0.011675200000,   0.00144,
,,,0.011675400000,   0.00200,
,,,0.011675600000,   0.00144,
,,,0.011675800000,   0.00160,
,,,0.011676000000,   0.00208,
,,,0.011676200000,   0.00120,
,,,0.011676400000,   0.00200,
,,,0.011676600000,   0.00200,
,,,0.011676800000,   0.00184,
,,,0.011677000000,   0.00184,
,,,0.011677200000,   0.00168,
,,,0.011677400000,   0.00160,
,,,0.011677600000,   0.00184,
,,,0.011677800000,   0.00160,
,,,0.011678000000,   0.00120,
,,,0.011678200000,   0.00152,
,,,0.011678400000,   0.00176,
,,,0.011678600000,   0.00160,
,,,0.011678800000,   0.00200,
,,,0.011679000000,   0.00120,
,,,0.011679200000,   0.00128,
,,,0.011679400000,   0.00144,
,,,0.011679600000,   0.00168,
,,,0.011679800000,   0.00200,
,,,0.011680000000,   0.00192,
,,,0.011680200000,   0.00184,
,,,0.011680400000,   0.00184,
,,,0.011680600000,   0.00160,
,,,0.011680800000,   0.00216,
,,,0.011681000000,   0.00160,
,,,0.011681200000,   0.00144,
,,,0.011681400000,   0.00144,
,,,0.011681600000,   0.00160,
,,,0.011681800000,   0.00176,
,,,0.011682000000,   0.00192,
,,,0.011682200000,   0.00168,
,,,0.011682400000,   0.00192,
,,,0.011682600000,   0.00232,
,,,0.011682800000,   0.00160,
,,,0.011683000000,   0.00160,
,,,0.011683200000,   0.00200,
,,,0.011683400000,   0.00208,
,,,0.011683600000,   0.00200,
,,,0.011683800000,   0.00184,
,,,0.011684000000,   0.00136,
,,,0.011684200000,   0.00160,
,,,0.011684400000,   0.00192,
,,,0.011684600000,   0.00136,
,,,0.011684800000,   0.00152,
,,,0.011685000000,   0.00152,
,,,0.011685200000,   0.00208,
,,,0.011685400000,   0.00152,
,,,0.011685600000,   0.00208,
,,,0.011685800000,   0.00160,
,,,0.011686000000,   0.00152,
,,,0.011686200000,   0.00176,
,,,0.011686400000,   0.00208,
,,,0.011686600000,   0.00184,
,,,0.011686800000,   0.00176,
,,,0.011687000000,   0.00192,
,,,0.011687200000,   0.00200,
,,,0.011687400000,   0.00192,
,,,0.011687600000,   0.00168,
,,,0.011687800000,   0.00144,
,,,0.011688000000,   0.00224,
,,,0.011688200000,   0.00160,
,,,0.011688400000,   0.00144,
,,,0.011688600000,   0.00176,
,,,0.011688800000,   0.00176,
,,,0.011689000000,   0.00184,
,,,0.011689200000,   0.00192,
,,,0.011689400000,   0.00144,
,,,0.011689600000,   0.00120,
,,,0.011689800000,   0.00160,
,,,0.011690000000,   0.00152,
,,,0.011690200000,   0.00176,
,,,0.011690400000,   0.00200,
,,,0.011690600000,   0.00240,
,,,0.011690800000,   0.00208,
,,,0.011691000000,   0.00160,
,,,0.011691200000,   0.00136,
,,,0.011691400000,   0.00176,
,,,0.011691600000,   0.00184,
,,,0.011691800000,   0.00168,
,,,0.011692000000,   0.00176,
,,,0.011692200000,   0.00192,
,,,0.011692400000,   0.00200,
,,,0.011692600000,   0.00192,
,,,0.011692800000,   0.00184,
,,,0.011693000000,   0.00184,
,,,0.011693200000,   0.00184,
,,,0.011693400000,   0.00200,
,,,0.011693600000,   0.00200,
,,,0.011693800000,   0.00144,
,,,0.011694000000,   0.00184,
,,,0.011694200000,   0.00160,
,,,0.011694400000,   0.00160,
,,,0.011694600000,   0.00160,
,,,0.011694800000,   0.00184,
,,,0.011695000000,   0.00152,
,,,0.011695200000,   0.00184,
,,,0.011695400000,   0.00160,
,,,0.011695600000,   0.00192,
,,,0.011695800000,   0.00192,
,,,0.011696000000,   0.00160,
,,,0.011696200000,   0.00208,
,,,0.011696400000,   0.00200,
,,,0.011696600000,   0.00152,
,,,0.011696800000,   0.00168,
,,,0.011697000000,   0.00184,
,,,0.011697200000,   0.00168,
,,,0.011697400000,   0.00192,
,,,0.011697600000,   0.00160,
,,,0.011697800000,   0.00160,
,,,0.011698000000,   0.00192,
,,,0.011698200000,   0.00200,
,,,0.011698400000,   0.00208,
,,,0.011698600000,   0.00168,
,,,0.011698800000,   0.00176,
,,,0.011699000000,   0.00192,
,,,0.011699200000,   0.00168,
,,,0.011699400000,   0.00256,
,,,0.011699600000,   0.00176,
,,,0.011699800000,   0.00200,
,,,0.011700000000,   0.00192,
,,,0.011700200000,   0.00184,
,,,0.011700400000,   0.00184,
,,,0.011700600000,   0.00160,
,,,0.011700800000,   0.00168,
,,,0.011701000000,   0.00128,
,,,0.011701200000,   0.00168,
,,,0.011701400000,   0.00120,
,,,0.011701600000,   0.00152,
,,,0.011701800000,   0.00144,
,,,0.011702000000,   0.00136,
,,,0.011702200000,   0.00200,
,,,0.011702400000,   0.00200,
,,,0.011702600000,   0.00144,
,,,0.011702800000,   0.00184,
,,,0.011703000000,   0.00192,
,,,0.011703200000,   0.00232,
,,,0.011703400000,   0.00216,
,,,0.011703600000,   0.00144,
,,,0.011703800000,   0.00168,
,,,0.011704000000,   0.00184,
,,,0.011704200000,   0.00152,
,,,0.011704400000,   0.00160,
,,,0.011704600000,   0.00176,
,,,0.011704800000,   0.00152,
,,,0.011705000000,   0.00240,
,,,0.011705200000,   0.00192,
,,,0.011705400000,   0.00176,
,,,0.011705600000,   0.00192,
,,,0.011705800000,   0.00200,
,,,0.011706000000,   0.00184,
,,,0.011706200000,   0.00160,
,,,0.011706400000,   0.00144,
,,,0.011706600000,   0.00176,
,,,0.011706800000,   0.00168,
,,,0.011707000000,   0.00160,
,,,0.011707200000,   0.00144,
,,,0.011707400000,   0.00112,
,,,0.011707600000,   0.00168,
,,,0.011707800000,   0.00096,
,,,0.011708000000,   0.00128,
,,,0.011708200000,   0.00152,
,,,0.011708400000,   0.00176,
,,,0.011708600000,   0.00176,
,,,0.011708800000,   0.00192,
,,,0.011709000000,   0.00208,
,,,0.011709200000,   0.00160,
,,,0.011709400000,   0.00144,
,,,0.011709600000,   0.00168,
,,,0.011709800000,   0.00216,
,,,0.011710000000,   0.00152,
,,,0.011710200000,   0.00152,
,,,0.011710400000,   0.00152,
,,,0.011710600000,   0.00152,
,,,0.011710800000,   0.00192,
,,,0.011711000000,   0.00200,
,,,0.011711200000,   0.00192,
,,,0.011711400000,   0.00184,
,,,0.011711600000,   0.00192,
,,,0.011711800000,   0.00216,
,,,0.011712000000,   0.00152,
,,,0.011712200000,   0.00184,
,,,0.011712400000,   0.00168,
,,,0.011712600000,   0.00168,
,,,0.011712800000,   0.00128,
,,,0.011713000000,   0.00216,
,,,0.011713200000,   0.00200,
,,,0.011713400000,   0.00168,
,,,0.011713600000,   0.00168,
,,,0.011713800000,   0.00176,
,,,0.011714000000,   0.00144,
,,,0.011714200000,   0.00096,
,,,0.011714400000,   0.00176,
,,,0.011714600000,   0.00232,
,,,0.011714800000,   0.00192,
,,,0.011715000000,   0.00168,
,,,0.011715200000,   0.00200,
,,,0.011715400000,   0.00224,
,,,0.011715600000,   0.00200,
,,,0.011715800000,   0.00176,
,,,0.011716000000,   0.00240,
,,,0.011716200000,   0.00216,
,,,0.011716400000,   0.00208,
,,,0.011716600000,   0.00168,
,,,0.011716800000,   0.00160,
,,,0.011717000000,   0.00168,
,,,0.011717200000,   0.00200,
,,,0.011717400000,   0.00176,
,,,0.011717600000,   0.00208,
,,,0.011717800000,   0.00176,
,,,0.011718000000,   0.00168,
,,,0.011718200000,   0.00176,
,,,0.011718400000,   0.00152,
,,,0.011718600000,   0.00152,
,,,0.011718800000,   0.00144,
,,,0.011719000000,   0.00176,
,,,0.011719200000,   0.00216,
,,,0.011719400000,   0.00216,
,,,0.011719600000,   0.00216,
,,,0.011719800000,   0.00232,
,,,0.011720000000,   0.00144,
,,,0.011720200000,   0.00192,
,,,0.011720400000,   0.00184,
,,,0.011720600000,   0.00224,
,,,0.011720800000,   0.00200,
,,,0.011721000000,   0.00216,
,,,0.011721200000,   0.00160,
,,,0.011721400000,   0.00256,
,,,0.011721600000,   0.00192,
,,,0.011721800000,   0.00208,
,,,0.011722000000,   0.00224,
,,,0.011722200000,   0.00240,
,,,0.011722400000,   0.00200,
,,,0.011722600000,   0.00192,
,,,0.011722800000,   0.00216,
,,,0.011723000000,   0.00216,
,,,0.011723200000,   0.00216,
,,,0.011723400000,   0.00192,
,,,0.011723600000,   0.00192,
,,,0.011723800000,   0.00192,
,,,0.011724000000,   0.00168,
,,,0.011724200000,   0.00192,
,,,0.011724400000,   0.00184,
,,,0.011724600000,   0.00200,
,,,0.011724800000,   0.00176,
,,,0.011725000000,   0.00224,
,,,0.011725200000,   0.00248,
,,,0.011725400000,   0.00200,
,,,0.011725600000,   0.00208,
,,,0.011725800000,   0.00216,
,,,0.011726000000,   0.00208,
,,,0.011726200000,   0.00224,
,,,0.011726400000,   0.00192,
,,,0.011726600000,   0.00216,
,,,0.011726800000,   0.00216,
,,,0.011727000000,   0.00216,
,,,0.011727200000,   0.00176,
,,,0.011727400000,   0.00224,
,,,0.011727600000,   0.00176,
,,,0.011727800000,   0.00192,
,,,0.011728000000,   0.00184,
,,,0.011728200000,   0.00224,
,,,0.011728400000,   0.00176,
,,,0.011728600000,   0.00224,
,,,0.011728800000,   0.00168,
,,,0.011729000000,   0.00216,
,,,0.011729200000,   0.00176,
,,,0.011729400000,   0.00200,
,,,0.011729600000,   0.00192,
,,,0.011729800000,   0.00216,
,,,0.011730000000,   0.00192,
,,,0.011730200000,   0.00184,
,,,0.011730400000,   0.00168,
,,,0.011730600000,   0.00208,
,,,0.011730800000,   0.00184,
,,,0.011731000000,   0.00232,
,,,0.011731200000,   0.00192,
,,,0.011731400000,   0.00232,
,,,0.011731600000,   0.00256,
,,,0.011731800000,   0.00216,
,,,0.011732000000,   0.00232,
,,,0.011732200000,   0.00216,
,,,0.011732400000,   0.00184,
,,,0.011732600000,   0.00208,
,,,0.011732800000,   0.00224,
,,,0.011733000000,   0.00192,
,,,0.011733200000,   0.00224,
,,,0.011733400000,   0.00168,
,,,0.011733600000,   0.00192,
,,,0.011733800000,   0.00224,
,,,0.011734000000,   0.00200,
,,,0.011734200000,   0.00216,
,,,0.011734400000,   0.00208,
,,,0.011734600000,   0.00184,
,,,0.011734800000,   0.00192,
,,,0.011735000000,   0.00168,
,,,0.011735200000,   0.00184,
,,,0.011735400000,   0.00208,
,,,0.011735600000,   0.00200,
,,,0.011735800000,   0.00216,
,,,0.011736000000,   0.00216,
,,,0.011736200000,   0.00248,
,,,0.011736400000,   0.00224,
,,,0.011736600000,   0.00232,
,,,0.011736800000,   0.00192,
,,,0.011737000000,   0.00200,
,,,0.011737200000,   0.00200,
,,,0.011737400000,   0.00176,
,,,0.011737600000,   0.00192,
,,,0.011737800000,   0.00184,
,,,0.011738000000,   0.00216,
,,,0.011738200000,   0.00216,
,,,0.011738400000,   0.00200,
,,,0.011738600000,   0.00168,
,,,0.011738800000,   0.00224,
,,,0.011739000000,   0.00216,
,,,0.011739200000,   0.00200,
,,,0.011739400000,   0.00192,
,,,0.011739600000,   0.00192,
,,,0.011739800000,   0.00200,
,,,0.011740000000,   0.00208,
,,,0.011740200000,   0.00160,
,,,0.011740400000,   0.00256,
,,,0.011740600000,   0.00216,
,,,0.011740800000,   0.00176,
,,,0.011741000000,   0.00168,
,,,0.011741200000,   0.00248,
,,,0.011741400000,   0.00224,
,,,0.011741600000,   0.00240,
,,,0.011741800000,   0.00216,
,,,0.011742000000,   0.00216,
,,,0.011742200000,   0.00184,
,,,0.011742400000,   0.00208,
,,,0.011742600000,   0.00208,
,,,0.011742800000,   0.00216,
,,,0.011743000000,   0.00176,
,,,0.011743200000,   0.00264,
,,,0.011743400000,   0.00192,
,,,0.011743600000,   0.00208,
,,,0.011743800000,   0.00224,
,,,0.011744000000,   0.00184,
,,,0.011744200000,   0.00208,
,,,0.011744400000,   0.00240,
,,,0.011744600000,   0.00192,
,,,0.011744800000,   0.00208,
,,,0.011745000000,   0.00208,
,,,0.011745200000,   0.00216,
,,,0.011745400000,   0.00208,
,,,0.011745600000,   0.00200,
,,,0.011745800000,   0.00192,
,,,0.011746000000,   0.00224,
,,,0.011746200000,   0.00200,
,,,0.011746400000,   0.00232,
,,,0.011746600000,   0.00168,
,,,0.011746800000,   0.00224,
,,,0.011747000000,   0.00240,
,,,0.011747200000,   0.00216,
,,,0.011747400000,   0.00232,
,,,0.011747600000,   0.00208,
,,,0.011747800000,   0.00192,
,,,0.011748000000,   0.00152,
,,,0.011748200000,   0.00184,
,,,0.011748400000,   0.00224,
,,,0.011748600000,   0.00264,
,,,0.011748800000,   0.00216,
,,,0.011749000000,   0.00184,
,,,0.011749200000,   0.00200,
,,,0.011749400000,   0.00192,
,,,0.011749600000,   0.00240,
,,,0.011749800000,   0.00216,
,,,0.011750000000,   0.00160,
,,,0.011750200000,   0.00240,
,,,0.011750400000,   0.00272,
,,,0.011750600000,   0.00224,
,,,0.011750800000,   0.00240,
,,,0.011751000000,   0.00200,
,,,0.011751200000,   0.00200,
,,,0.011751400000,   0.00192,
,,,0.011751600000,   0.00240,
,,,0.011751800000,   0.00232,
,,,0.011752000000,   0.00216,
,,,0.011752200000,   0.00208,
,,,0.011752400000,   0.00208,
,,,0.011752600000,   0.00248,
,,,0.011752800000,   0.00200,
,,,0.011753000000,   0.00232,
,,,0.011753200000,   0.00272,
,,,0.011753400000,   0.00232,
,,,0.011753600000,   0.00216,
,,,0.011753800000,   0.00240,
,,,0.011754000000,   0.00248,
,,,0.011754200000,   0.00248,
,,,0.011754400000,   0.00232,
,,,0.011754600000,   0.00216,
,,,0.011754800000,   0.00272,
,,,0.011755000000,   0.00280,
,,,0.011755200000,   0.00304,
,,,0.011755400000,   0.00264,
,,,0.011755600000,   0.00240,
,,,0.011755800000,   0.00224,
,,,0.011756000000,   0.00248,
,,,0.011756200000,   0.00200,
,,,0.011756400000,   0.00192,
,,,0.011756600000,   0.00200,
,,,0.011756800000,   0.00176,
,,,0.011757000000,   0.00184,
,,,0.011757200000,   0.00232,
,,,0.011757400000,   0.00224,
,,,0.011757600000,   0.00176,
,,,0.011757800000,   0.00184,
,,,0.011758000000,   0.00200,
,,,0.011758200000,   0.00248,
,,,0.011758400000,   0.00248,
,,,0.011758600000,   0.00216,
,,,0.011758800000,   0.00216,
,,,0.011759000000,   0.00248,
,,,0.011759200000,   0.00288,
,,,0.011759400000,   0.00312,
,,,0.011759600000,   0.00280,
,,,0.011759800000,   0.00328,
,,,0.011760000000,   0.00288,
,,,0.011760200000,   0.00288,
,,,0.011760400000,   0.00280,
,,,0.011760600000,   0.00248,
,,,0.011760800000,   0.00176,
