trunk/fp2/laserspektroskopie/daten/oszi/ALL0015/F0015CH1.CSV

Record Length,2.500000e+03,,   0.010367000000,   0.00020,
Sample Interval,1.000000e-07,,   0.010367100000,   0.00080,
Trigger Point,-1.036700000000e+05,,   0.010367200000,   0.00080,
,,,   0.010367300000,   0.00040,
,,,   0.010367400000,   0.00000,
,,,   0.010367500000,   0.00040,
Source,CH1,,   0.010367600000,   0.00020,
Vertical Units,V,,   0.010367700000,   0.00040,
Vertical Scale,5.000000e-03,,   0.010367800000,   0.00060,
Vertical Offset,-1.500000e-02,,   0.010367900000,   0.00000,
Horizontal Units,s,,   0.010368000000,   0.00060,
Horizontal Scale,2.500000e-05,,   0.010368100000,  -0.00020,
Pt Fmt,Y,,   0.010368200000,   0.00100,
Yzero,0.000000e+00,,   0.010368300000,   0.00060,
Probe Atten,1.000000e+00,,   0.010368400000,   0.00060,
Firmware Version,FV:v6.08,,   0.010368500000,   0.00020,
,,,0.010368600000,   0.00060,
,,,0.010368700000,   0.00000,
,,,0.010368800000,   0.00040,
,,,0.010368900000,   0.00080,
,,,0.010369000000,   0.00000,
,,,0.010369100000,  -0.00020,
,,,0.010369200000,   0.00100,
,,,0.010369300000,   0.00080,
,,,0.010369400000,  -0.00020,
,,,0.010369500000,   0.00000,
,,,0.010369600000,   0.00020,
,,,0.010369700000,   0.00000,
,,,0.010369800000,  -0.00040,
,,,0.010369900000,  -0.00020,
,,,0.010370000000,   0.00100,
,,,0.010370100000,   0.00040,
,,,0.010370200000,   0.00020,
,,,0.010370300000,  -0.00020,
,,,0.010370400000,   0.00120,
,,,0.010370500000,   0.00120,
,,,0.010370600000,   0.00080,
,,,0.010370700000,   0.00060,
,,,0.010370800000,   0.00040,
,,,0.010370900000,   0.00020,
,,,0.010371000000,   0.00020,
,,,0.010371100000,   0.00020,
,,,0.010371200000,   0.00000,
,,,0.010371300000,   0.00040,
,,,0.010371400000,   0.00120,
,,,0.010371500000,  -0.00040,
,,,0.010371600000,   0.00000,
,,,0.010371700000,  -0.00020,
,,,0.010371800000,   0.00100,
,,,0.010371900000,   0.00080,
,,,0.010372000000,   0.00060,
,,,0.010372100000,   0.00000,
,,,0.010372200000,   0.00040,
,,,0.010372300000,   0.00060,
,,,0.010372400000,  -0.00020,
,,,0.010372500000,  -0.00020,
,,,0.010372600000,  -0.00020,
,,,0.010372700000,   0.00020,
,,,0.010372800000,  -0.00020,
,,,0.010372900000,   0.00020,
,,,0.010373000000,   0.00060,
,,,0.010373100000,  -0.00020,
,,,0.010373200000,   0.00020,
,,,0.010373300000,   0.00020,
,,,0.010373400000,  -0.00040,
,,,0.010373500000,   0.00000,
,,,0.010373600000,   0.00120,
,,,0.010373700000,   0.00040,
,,,0.010373800000,   0.00100,
,,,0.010373900000,  -0.00040,
,,,0.010374000000,   0.00000,
,,,0.010374100000,   0.00020,
,,,0.010374200000,  -0.00040,
,,,0.010374300000,   0.00040,
,,,0.010374400000,  -0.00020,
,,,0.010374500000,   0.00000,
,,,0.010374600000,  -0.00020,
,,,0.010374700000,   0.00060,
,,,0.010374800000,  -0.00060,
,,,0.010374900000,   0.00020,
,,,0.010375000000,  -0.00080,
,,,0.010375100000,   0.00040,
,,,0.010375200000,  -0.00040,
,,,0.010375300000,   0.00020,
,,,0.010375400000,   0.00040,
,,,0.010375500000,   0.00040,
,,,0.010375600000,  -0.00020,
,,,0.010375700000,  -0.00040,
,,,0.010375800000,   0.00040,
,,,0.010375900000,   0.00000,
,,,0.010376000000,   0.00060,
,,,0.010376100000,   0.00080,
,,,0.010376200000,   0.00040,
,,,0.010376300000,   0.00080,
,,,0.010376400000,   0.00100,
,,,0.010376500000,   0.00060,
,,,0.010376600000,   0.00000,
,,,0.010376700000,   0.00040,
,,,0.010376800000,   0.00040,
,,,0.010376900000,   0.00020,
,,,0.010377000000,   0.00080,
,,,0.010377100000,   0.00040,
,,,0.010377200000,   0.00080,
,,,0.010377300000,   0.00020,
,,,0.010377400000,   0.00020,
,,,0.010377500000,   0.00100,
,,,0.010377600000,   0.00000,
,,,0.010377700000,   0.00040,
,,,0.010377800000,   0.00060,
,,,0.010377900000,   0.00020,
,,,0.010378000000,   0.00080,
,,,0.010378100000,   0.00060,
,,,0.010378200000,   0.00100,
,,,0.010378300000,   0.00000,
,,,0.010378400000,   0.00000,
,,,0.010378500000,  -0.00040,
,,,0.010378600000,   0.00000,
,,,0.010378700000,   0.00000,
,,,0.010378800000,   0.00040,
,,,0.010378900000,   0.00020,
,,,0.010379000000,   0.00000,
,,,0.010379100000,   0.00040,
,,,0.010379200000,   0.00020,
,,,0.010379300000,   0.00040,
,,,0.010379400000,   0.00060,
,,,0.010379500000,   0.00020,
,,,0.010379600000,  -0.00040,
,,,0.010379700000,   0.00000,
,,,0.010379800000,   0.00140,
,,,0.010379900000,   0.00040,
,,,0.010380000000,   0.00080,
,,,0.010380100000,   0.00080,
,,,0.010380200000,   0.00000,
,,,0.010380300000,   0.00040,
,,,0.010380400000,   0.00040,
,,,0.010380500000,   0.00000,
,,,0.010380600000,  -0.00020,
,,,0.010380700000,   0.00020,
,,,0.010380800000,   0.00080,
,,,0.010380900000,   0.00060,
,,,0.010381000000,   0.00100,
,,,0.010381100000,   0.00040,
,,,0.010381200000,   0.00060,
,,,0.010381300000,   0.00040,
,,,0.010381400000,   0.00060,
,,,0.010381500000,   0.00060,
,,,0.010381600000,   0.00040,
,,,0.010381700000,   0.00020,
,,,0.010381800000,  -0.00040,
,,,0.010381900000,   0.00020,
,,,0.010382000000,   0.00040,
,,,0.010382100000,   0.00000,
,,,0.010382200000,   0.00040,
,,,0.010382300000,   0.00040,
,,,0.010382400000,   0.00000,
,,,0.010382500000,   0.00080,
,,,0.010382600000,   0.00080,
,,,0.010382700000,   0.00060,
,,,0.010382800000,   0.00060,
,,,0.010382900000,   0.00000,
,,,0.010383000000,   0.00020,
,,,0.010383100000,   0.00060,
,,,0.010383200000,   0.00040,
,,,0.010383300000,   0.00080,
,,,0.010383400000,   0.00000,
,,,0.010383500000,   0.00080,
,,,0.010383600000,   0.00040,
,,,0.010383700000,   0.00120,
,,,0.010383800000,   0.00000,
,,,0.010383900000,   0.00100,
,,,0.010384000000,   0.00020,
,,,0.010384100000,   0.00020,
,,,0.010384200000,   0.00080,
,,,0.010384300000,   0.00020,
,,,0.010384400000,   0.00080,
,,,0.010384500000,   0.00020,
,,,0.010384600000,   0.00000,
,,,0.010384700000,   0.00040,
,,,0.010384800000,  -0.00020,
,,,0.010384900000,   0.00080,
,,,0.010385000000,   0.00080,
,,,0.010385100000,   0.00060,
,,,0.010385200000,   0.00020,
,,,0.010385300000,   0.00020,
,,,0.010385400000,   0.00060,
,,,0.010385500000,   0.00040,
,,,0.010385600000,   0.00060,
,,,0.010385700000,   0.00080,
,,,0.010385800000,   0.00020,
,,,0.010385900000,   0.00020,
,,,0.010386000000,   0.00040,
,,,0.010386100000,   0.00080,
,,,0.010386200000,   0.00080,
,,,0.010386300000,   0.00040,
,,,0.010386400000,   0.00040,
,,,0.010386500000,   0.00040,
,,,0.010386600000,   0.00040,
,,,0.010386700000,  -0.00020,
,,,0.010386800000,   0.00000,
,,,0.010386900000,   0.00100,
,,,0.010387000000,   0.00060,
,,,0.010387100000,   0.00060,
,,,0.010387200000,  -0.00020,
,,,0.010387300000,   0.00000,
,,,0.010387400000,   0.00020,
,,,0.010387500000,   0.00060,
,,,0.010387600000,   0.00040,
,,,0.010387700000,   0.00060,
,,,0.010387800000,   0.00080,
,,,0.010387900000,   0.00020,
,,,0.010388000000,   0.00020,
,,,0.010388100000,  -0.00060,
,,,0.010388200000,   0.00000,
,,,0.010388300000,   0.00000,
,,,0.010388400000,  -0.00020,
,,,0.010388500000,  -0.00040,
,,,0.010388600000,   0.00000,
,,,0.010388700000,   0.00000,
,,,0.010388800000,  -0.00020,
,,,0.010388900000,   0.00020,
,,,0.010389000000,   0.00020,
,,,0.010389100000,   0.00020,
,,,0.010389200000,   0.00040,
,,,0.010389300000,   0.00020,
,,,0.010389400000,   0.00040,
,,,0.010389500000,   0.00020,
,,,0.010389600000,  -0.00020,
,,,0.010389700000,   0.00020,
,,,0.010389800000,   0.00040,
,,,0.010389900000,   0.00080,
,,,0.010390000000,   0.00040,
,,,0.010390100000,   0.00040,
,,,0.010390200000,   0.00060,
,,,0.010390300000,   0.00040,
,,,0.010390400000,   0.00000,
,,,0.010390500000,   0.00100,
,,,0.010390600000,   0.00000,
,,,0.010390700000,   0.00080,
,,,0.010390800000,   0.00040,
,,,0.010390900000,   0.00000,
,,,0.010391000000,   0.00040,
,,,0.010391100000,   0.00060,
,,,0.010391200000,   0.00060,
,,,0.010391300000,   0.00080,
,,,0.010391400000,   0.00080,
,,,0.010391500000,   0.00060,
,,,0.010391600000,   0.00020,
,,,0.010391700000,  -0.00040,
,,,0.010391800000,   0.00080,
,,,0.010391900000,   0.00060,
,,,0.010392000000,   0.00020,
,,,0.010392100000,  -0.00020,
,,,0.010392200000,   0.00040,
,,,0.010392300000,   0.00020,
,,,0.010392400000,   0.00060,
,,,0.010392500000,   0.00120,
,,,0.010392600000,   0.00020,
,,,0.010392700000,   0.00020,
,,,0.010392800000,   0.00060,
,,,0.010392900000,   0.00080,
,,,0.010393000000,   0.00020,
,,,0.010393100000,   0.00000,
,,,0.010393200000,   0.00000,
,,,0.010393300000,  -0.00020,
,,,0.010393400000,   0.00100,
,,,0.010393500000,   0.00100,
,,,0.010393600000,   0.00080,
,,,0.010393700000,   0.00040,
,,,0.010393800000,   0.00000,
,,,0.010393900000,   0.00000,
,,,0.010394000000,  -0.00040,
,,,0.010394100000,   0.00020,
,,,0.010394200000,   0.00000,
,,,0.010394300000,   0.00040,
,,,0.010394400000,   0.00020,
,,,0.010394500000,   0.00000,
,,,0.010394600000,   0.00020,
,,,0.010394700000,   0.00080,
,,,0.010394800000,  -0.00020,
,,,0.010394900000,   0.00000,
,,,0.010395000000,   0.00060,
,,,0.010395100000,   0.00080,
,,,0.010395200000,   0.00060,
,,,0.010395300000,   0.00080,
,,,0.010395400000,   0.00000,
,,,0.010395500000,   0.00040,
,,,0.010395600000,   0.00020,
,,,0.010395700000,   0.00060,
,,,0.010395800000,   0.00000,
,,,0.010395900000,   0.00080,
,,,0.010396000000,   0.00040,
,,,0.010396100000,   0.00040,
,,,0.010396200000,   0.00100,
,,,0.010396300000,   0.00060,
,,,0.010396400000,   0.00060,
,,,0.010396500000,   0.00020,
,,,0.010396600000,   0.00100,
,,,0.010396700000,   0.00080,
,,,0.010396800000,   0.00080,
,,,0.010396900000,   0.00080,
,,,0.010397000000,   0.00100,
,,,0.010397100000,   0.00000,
,,,0.010397200000,   0.00060,
,,,0.010397300000,   0.00000,
,,,0.010397400000,   0.00040,
,,,0.010397500000,   0.00080,
,,,0.010397600000,   0.00020,
,,,0.010397700000,   0.00100,
,,,0.010397800000,   0.00100,
,,,0.010397900000,   0.00060,
,,,0.010398000000,  -0.00020,
,,,0.010398100000,   0.00000,
,,,0.010398200000,   0.00040,
,,,0.010398300000,   0.00020,
,,,0.010398400000,   0.00040,
,,,0.010398500000,   0.00080,
,,,0.010398600000,   0.00080,
,,,0.010398700000,   0.00040,
,,,0.010398800000,   0.00000,
,,,0.010398900000,   0.00020,
,,,0.010399000000,   0.00080,
,,,0.010399100000,   0.00020,
,,,0.010399200000,   0.00080,
,,,0.010399300000,  -0.00020,
,,,0.010399400000,   0.00020,
,,,0.010399500000,  -0.00020,
,,,0.010399600000,   0.00020,
,,,0.010399700000,   0.00080,
,,,0.010399800000,  -0.00060,
,,,0.010399900000,   0.00060,
,,,0.010400000000,   0.00040,
,,,0.010400100000,   0.00080,
,,,0.010400200000,   0.00040,
,,,0.010400300000,   0.00080,
,,,0.010400400000,   0.00120,
,,,0.010400500000,   0.00120,
,,,0.010400600000,   0.00120,
,,,0.010400700000,   0.00080,
,,,0.010400800000,   0.00100,
,,,0.010400900000,   0.00040,
,,,0.010401000000,   0.00020,
,,,0.010401100000,   0.00040,
,,,0.010401200000,   0.00080,
,,,0.010401300000,   0.00000,
,,,0.010401400000,   0.00040,
,,,0.010401500000,   0.00020,
,,,0.010401600000,   0.00060,
,,,0.010401700000,   0.00060,
,,,0.010401800000,   0.00080,
,,,0.010401900000,   0.00080,
,,,0.010402000000,   0.00020,
,,,0.010402100000,   0.00040,
,,,0.010402200000,   0.00040,
,,,0.010402300000,   0.00040,
,,,0.010402400000,   0.00040,
,,,0.010402500000,   0.00020,
,,,0.010402600000,   0.00000,
,,,0.010402700000,   0.00000,
,,,0.010402800000,   0.00060,
,,,0.010402900000,  -0.00040,
,,,0.010403000000,   0.00100,
,,,0.010403100000,  -0.00020,
,,,0.010403200000,   0.00040,
,,,0.010403300000,   0.00080,
,,,0.010403400000,   0.00020,
,,,0.010403500000,   0.00040,
,,,0.010403600000,   0.00000,
,,,0.010403700000,   0.00020,
,,,0.010403800000,   0.00000,
,,,0.010403900000,   0.00060,
,,,0.010404000000,   0.00040,
,,,0.010404100000,   0.00060,
,,,0.010404200000,   0.00040,
,,,0.010404300000,   0.00040,
,,,0.010404400000,   0.00020,
,,,0.010404500000,   0.00000,
,,,0.010404600000,   0.00040,
,,,0.010404700000,   0.00040,
,,,0.010404800000,   0.00060,
,,,0.010404900000,   0.00080,
,,,0.010405000000,   0.00060,
,,,0.010405100000,   0.00000,
,,,0.010405200000,   0.00060,
,,,0.010405300000,   0.00000,
,,,0.010405400000,   0.00060,
,,,0.010405500000,   0.00020,
,,,0.010405600000,   0.00040,
,,,0.010405700000,  -0.00020,
,,,0.010405800000,   0.00040,
,,,0.010405900000,   0.00080,
,,,0.010406000000,   0.00040,
,,,0.010406100000,   0.00100,
,,,0.010406200000,   0.00100,
,,,0.010406300000,   0.00060,
,,,0.010406400000,   0.00060,
,,,0.010406500000,   0.00000,
,,,0.010406600000,   0.00080,
,,,0.010406700000,   0.00060,
,,,0.010406800000,   0.00100,
,,,0.010406900000,   0.00080,
,,,0.010407000000,   0.00040,
,,,0.010407100000,   0.00020,
,,,0.010407200000,   0.00080,
,,,0.010407300000,  -0.00020,
,,,0.010407400000,   0.00060,
,,,0.010407500000,   0.00080,
,,,0.010407600000,   0.00080,
,,,0.010407700000,   0.00060,
,,,0.010407800000,   0.00060,
,,,0.010407900000,   0.00040,
,,,0.010408000000,   0.00000,
,,,0.010408100000,   0.00000,
,,,0.010408200000,   0.00020,
,,,0.010408300000,   0.00040,
,,,0.010408400000,   0.00060,
,,,0.010408500000,   0.00040,
,,,0.010408600000,  -0.00020,
,,,0.010408700000,   0.00020,
,,,0.010408800000,   0.00000,
,,,0.010408900000,   0.00080,
,,,0.010409000000,   0.00000,
,,,0.010409100000,  -0.00020,
,,,0.010409200000,   0.00060,
,,,0.010409300000,   0.00020,
,,,0.010409400000,   0.00100,
,,,0.010409500000,   0.00000,
,,,0.010409600000,   0.00100,
,,,0.010409700000,   0.00000,
,,,0.010409800000,  -0.00040,
,,,0.010409900000,   0.00020,
,,,0.010410000000,   0.00020,
,,,0.010410100000,   0.00060,
,,,0.010410200000,   0.00020,
,,,0.010410300000,   0.00100,
,,,0.010410400000,   0.00020,
,,,0.010410500000,   0.00060,
,,,0.010410600000,   0.00020,
,,,0.010410700000,   0.00020,
,,,0.010410800000,   0.00080,
,,,0.010410900000,   0.00000,
,,,0.010411000000,   0.00020,
,,,0.010411100000,   0.00080,
,,,0.010411200000,   0.00040,
,,,0.010411300000,   0.00020,
,,,0.010411400000,   0.00100,
,,,0.010411500000,   0.00120,
,,,0.010411600000,   0.00060,
,,,0.010411700000,   0.00020,
,,,0.010411800000,   0.00080,
,,,0.010411900000,   0.00040,
,,,0.010412000000,   0.00060,
,,,0.010412100000,   0.00040,
,,,0.010412200000,   0.00120,
,,,0.010412300000,   0.00080,
,,,0.010412400000,   0.00080,
,,,0.010412500000,   0.00080,
,,,0.010412600000,   0.00100,
,,,0.010412700000,   0.00000,
,,,0.010412800000,   0.00000,
,,,0.010412900000,   0.00080,
,,,0.010413000000,   0.00020,
,,,0.010413100000,  -0.00020,
,,,0.010413200000,   0.00060,
,,,0.010413300000,   0.00000,
,,,0.010413400000,   0.00000,
,,,0.010413500000,   0.00080,
,,,0.010413600000,   0.00020,
,,,0.010413700000,   0.00060,
,,,0.010413800000,   0.00100,
,,,0.010413900000,   0.00020,
,,,0.010414000000,   0.00040,
,,,0.010414100000,   0.00100,
,,,0.010414200000,   0.00060,
,,,0.010414300000,   0.00100,
,,,0.010414400000,   0.00040,
,,,0.010414500000,   0.00000,
,,,0.010414600000,   0.00100,
,,,0.010414700000,   0.00000,
,,,0.010414800000,   0.00080,
,,,0.010414900000,   0.00160,
,,,0.010415000000,   0.00160,
,,,0.010415100000,   0.00020,
,,,0.010415200000,   0.00020,
,,,0.010415300000,   0.00040,
,,,0.010415400000,   0.00020,
,,,0.010415500000,   0.00140,
,,,0.010415600000,   0.00080,
,,,0.010415700000,   0.00080,
,,,0.010415800000,   0.00060,
,,,0.010415900000,   0.00040,
,,,0.010416000000,   0.00040,
,,,0.010416100000,   0.00140,
,,,0.010416200000,   0.00100,
,,,0.010416300000,   0.00040,
,,,0.010416400000,   0.00060,
,,,0.010416500000,   0.00020,
,,,0.010416600000,   0.00060,
,,,0.010416700000,   0.00040,
,,,0.010416800000,   0.00060,
,,,0.010416900000,   0.00040,
,,,0.010417000000,   0.00080,
,,,0.010417100000,   0.00120,
,,,0.010417200000,   0.00040,
,,,0.010417300000,   0.00040,
,,,0.010417400000,   0.00060,
,,,0.010417500000,   0.00120,
,,,0.010417600000,   0.00060,
,,,0.010417700000,   0.00080,
,,,0.010417800000,   0.00020,
,,,0.010417900000,   0.00100,
,,,0.010418000000,   0.00060,
,,,0.010418100000,   0.00120,
,,,0.010418200000,   0.00020,
,,,0.010418300000,   0.00060,
,,,0.010418400000,   0.00040,
,,,0.010418500000,   0.00020,
,,,0.010418600000,   0.00040,
,,,0.010418700000,   0.00080,
,,,0.010418800000,   0.00060,
,,,0.010418900000,   0.00020,
,,,0.010419000000,   0.00100,
,,,0.010419100000,   0.00060,
,,,0.010419200000,   0.00020,
,,,0.010419300000,   0.00060,
,,,0.010419400000,   0.00140,
,,,0.010419500000,   0.00060,
,,,0.010419600000,   0.00100,
,,,0.010419700000,   0.00060,
,,,0.010419800000,   0.00040,
,,,0.010419900000,   0.00100,
,,,0.010420000000,   0.00120,
,,,0.010420100000,   0.00100,
,,,0.010420200000,   0.00100,
,,,0.010420300000,   0.00080,
,,,0.010420400000,   0.00080,
,,,0.010420500000,   0.00100,
,,,0.010420600000,   0.00100,
,,,0.010420700000,   0.00120,
,,,0.010420800000,   0.00100,
,,,0.010420900000,   0.00060,
,,,0.010421000000,   0.00100,
,,,0.010421100000,   0.00080,
,,,0.010421200000,   0.00120,
,,,0.010421300000,   0.00060,
,,,0.010421400000,   0.00060,
,,,0.010421500000,   0.00080,
,,,0.010421600000,   0.00140,
,,,0.010421700000,   0.00080,
,,,0.010421800000,   0.00080,
,,,0.010421900000,   0.00100,
,,,0.010422000000,   0.00120,
,,,0.010422100000,   0.00100,
,,,0.010422200000,   0.00140,
,,,0.010422300000,   0.00080,
,,,0.010422400000,   0.00100,
,,,0.010422500000,   0.00060,
,,,0.010422600000,   0.00140,
,,,0.010422700000,   0.00060,
,,,0.010422800000,   0.00100,
,,,0.010422900000,   0.00000,
,,,0.010423000000,   0.00080,
,,,0.010423100000,   0.00140,
,,,0.010423200000,   0.00040,
,,,0.010423300000,   0.00080,
,,,0.010423400000,   0.00120,
,,,0.010423500000,   0.00020,
,,,0.010423600000,   0.00120,
,,,0.010423700000,   0.00120,
,,,0.010423800000,   0.00080,
,,,0.010423900000,   0.00120,
,,,0.010424000000,   0.00160,
,,,0.010424100000,   0.00080,
,,,0.010424200000,   0.00120,
,,,0.010424300000,   0.00140,
,,,0.010424400000,   0.00100,
,,,0.010424500000,   0.00120,
,,,0.010424600000,   0.00080,
,,,0.010424700000,   0.00100,
,,,0.010424800000,   0.00140,
,,,0.010424900000,   0.00140,
,,,0.010425000000,   0.00080,
,,,0.010425100000,   0.00080,
,,,0.010425200000,   0.00140,
,,,0.010425300000,   0.00100,
,,,0.010425400000,   0.00100,
,,,0.010425500000,   0.00100,
,,,0.010425600000,   0.00140,
,,,0.010425700000,   0.00120,
,,,0.010425800000,   0.00080,
,,,0.010425900000,   0.00160,
,,,0.010426000000,   0.00160,
,,,0.010426100000,   0.00100,
,,,0.010426200000,   0.00060,
,,,0.010426300000,   0.00100,
,,,0.010426400000,   0.00140,
,,,0.010426500000,   0.00120,
,,,0.010426600000,   0.00140,
,,,0.010426700000,   0.00080,
,,,0.010426800000,   0.00060,
,,,0.010426900000,   0.00080,
,,,0.010427000000,   0.00060,
,,,0.010427100000,   0.00120,
,,,0.010427200000,   0.00120,
,,,0.010427300000,   0.00180,
,,,0.010427400000,   0.00160,
,,,0.010427500000,   0.00120,
,,,0.010427600000,   0.00140,
,,,0.010427700000,   0.00140,
,,,0.010427800000,   0.00180,
,,,0.010427900000,   0.00120,
,,,0.010428000000,   0.00120,
,,,0.010428100000,   0.00140,
,,,0.010428200000,   0.00180,
,,,0.010428300000,   0.00140,
,,,0.010428400000,   0.00100,
,,,0.010428500000,   0.00140,
,,,0.010428600000,   0.00040,
,,,0.010428700000,   0.00140,
,,,0.010428800000,   0.00040,
,,,0.010428900000,   0.00160,
,,,0.010429000000,   0.00180,
,,,0.010429100000,   0.00100,
,,,0.010429200000,   0.00140,
,,,0.010429300000,   0.00140,
,,,0.010429400000,   0.00200,
,,,0.010429500000,   0.00160,
,,,0.010429600000,   0.00180,
,,,0.010429700000,   0.00140,
,,,0.010429800000,   0.00120,
,,,0.010429900000,   0.00200,
,,,0.010430000000,   0.00200,
,,,0.010430100000,   0.00200,
,,,0.010430200000,   0.00180,
,,,0.010430300000,   0.00200,
,,,0.010430400000,   0.00100,
,,,0.010430500000,   0.00100,
,,,0.010430600000,   0.00160,
,,,0.010430700000,   0.00200,
,,,0.010430800000,   0.00120,
,,,0.010430900000,   0.00180,
,,,0.010431000000,   0.00120,
,,,0.010431100000,   0.00220,
,,,0.010431200000,   0.00140,
,,,0.010431300000,   0.00200,
,,,0.010431400000,   0.00180,
,,,0.010431500000,   0.00240,
,,,0.010431600000,   0.00220,
,,,0.010431700000,   0.00160,
,,,0.010431800000,   0.00200,
,,,0.010431900000,   0.00240,
,,,0.010432000000,   0.00220,
,,,0.010432100000,   0.00200,
,,,0.010432200000,   0.00180,
,,,0.010432300000,   0.00220,
,,,0.010432400000,   0.00140,
