trunk/fp2/laserspektroskopie/daten/oszi/ALL0016/F0016CH1.CSV

Record Length,2.500000e+03,,   0.010319000000,  -0.00080,
Sample Interval,1.000000e-07,,   0.010319100000,   0.00060,
Trigger Point,-1.031900000000e+05,,   0.010319200000,   0.00060,
,,,   0.010319300000,   0.00040,
,,,   0.010319400000,   0.00060,
,,,   0.010319500000,   0.00000,
Source,CH1,,   0.010319600000,   0.00040,
Vertical Units,V,,   0.010319700000,  -0.00040,
Vertical Scale,5.000000e-03,,   0.010319800000,   0.00060,
Vertical Offset,-1.500000e-02,,   0.010319900000,   0.00040,
Horizontal Units,s,,   0.010320000000,   0.00020,
Horizontal Scale,2.500000e-05,,   0.010320100000,   0.00000,
Pt Fmt,Y,,   0.010320200000,   0.00000,
Yzero,0.000000e+00,,   0.010320300000,   0.00040,
Probe Atten,1.000000e+00,,   0.010320400000,  -0.00020,
Firmware Version,FV:v6.08,,   0.010320500000,   0.00020,
,,,0.010320600000,  -0.00020,
,,,0.010320700000,  -0.00020,
,,,0.010320800000,  -0.00040,
,,,0.010320900000,  -0.00040,
,,,0.010321000000,   0.00060,
,,,0.010321100000,  -0.00020,
,,,0.010321200000,   0.00020,
,,,0.010321300000,   0.00020,
,,,0.010321400000,  -0.00020,
,,,0.010321500000,  -0.00020,
,,,0.010321600000,   0.00040,
,,,0.010321700000,   0.00020,
,,,0.010321800000,  -0.00040,
,,,0.010321900000,   0.00040,
,,,0.010322000000,   0.00160,
,,,0.010322100000,   0.00060,
,,,0.010322200000,   0.00020,
,,,0.010322300000,   0.00000,
,,,0.010322400000,   0.00100,
,,,0.010322500000,  -0.00020,
,,,0.010322600000,   0.00000,
,,,0.010322700000,  -0.00020,
,,,0.010322800000,   0.00060,
,,,0.010322900000,   0.00000,
,,,0.010323000000,   0.00040,
,,,0.010323100000,   0.00020,
,,,0.010323200000,   0.00020,
,,,0.010323300000,  -0.00020,
,,,0.010323400000,   0.00020,
,,,0.010323500000,   0.00040,
,,,0.010323600000,   0.00020,
,,,0.010323700000,   0.00040,
,,,0.010323800000,   0.00040,
,,,0.010323900000,   0.00100,
,,,0.010324000000,   0.00000,
,,,0.010324100000,   0.00020,
,,,0.010324200000,   0.00000,
,,,0.010324300000,   0.00060,
,,,0.010324400000,   0.00100,
,,,0.010324500000,  -0.00020,
,,,0.010324600000,  -0.00040,
,,,0.010324700000,  -0.00040,
,,,0.010324800000,   0.00020,
,,,0.010324900000,  -0.00020,
,,,0.010325000000,  -0.00040,
,,,0.010325100000,   0.00020,
,,,0.010325200000,   0.00060,
,,,0.010325300000,   0.00060,
,,,0.010325400000,  -0.00020,
,,,0.010325500000,  -0.00040,
,,,0.010325600000,   0.00000,
,,,0.010325700000,  -0.00020,
,,,0.010325800000,   0.00000,
,,,0.010325900000,  -0.00020,
,,,0.010326000000,   0.00000,
,,,0.010326100000,  -0.00020,
,,,0.010326200000,  -0.00040,
,,,0.010326300000,   0.00000,
,,,0.010326400000,   0.00000,
,,,0.010326500000,   0.00000,
,,,0.010326600000,   0.00040,
,,,0.010326700000,  -0.00080,
,,,0.010326800000,   0.00000,
,,,0.010326900000,   0.00020,
,,,0.010327000000,   0.00000,
,,,0.010327100000,  -0.00060,
,,,0.010327200000,   0.00040,
,,,0.010327300000,  -0.00040,
,,,0.010327400000,   0.00060,
,,,0.010327500000,  -0.00020,
,,,0.010327600000,   0.00040,
,,,0.010327700000,   0.00080,
,,,0.010327800000,   0.00100,
,,,0.010327900000,   0.00020,
,,,0.010328000000,   0.00000,
,,,0.010328100000,  -0.00020,
,,,0.010328200000,  -0.00040,
,,,0.010328300000,  -0.00040,
,,,0.010328400000,  -0.00020,
,,,0.010328500000,   0.00100,
,,,0.010328600000,   0.00080,
,,,0.010328700000,   0.00000,
,,,0.010328800000,  -0.00020,
,,,0.010328900000,   0.00000,
,,,0.010329000000,   0.00020,
,,,0.010329100000,   0.00040,
,,,0.010329200000,   0.00040,
,,,0.010329300000,   0.00040,
,,,0.010329400000,   0.00040,
,,,0.010329500000,   0.00060,
,,,0.010329600000,   0.00040,
,,,0.010329700000,   0.00000,
,,,0.010329800000,   0.00080,
,,,0.010329900000,   0.00060,
,,,0.010330000000,   0.00020,
,,,0.010330100000,   0.00020,
,,,0.010330200000,  -0.00020,
,,,0.010330300000,  -0.00060,
,,,0.010330400000,   0.00040,
,,,0.010330500000,  -0.00020,
,,,0.010330600000,   0.00000,
,,,0.010330700000,  -0.00020,
,,,0.010330800000,   0.00000,
,,,0.010330900000,  -0.00020,
,,,0.010331000000,  -0.00020,
,,,0.010331100000,  -0.00060,
,,,0.010331200000,   0.00020,
,,,0.010331300000,   0.00020,
,,,0.010331400000,   0.00000,
,,,0.010331500000,  -0.00120,
,,,0.010331600000,  -0.00040,
,,,0.010331700000,   0.00000,
,,,0.010331800000,   0.00080,
,,,0.010331900000,   0.00000,
,,,0.010332000000,   0.00060,
,,,0.010332100000,   0.00040,
,,,0.010332200000,   0.00020,
,,,0.010332300000,   0.00040,
,,,0.010332400000,  -0.00020,
,,,0.010332500000,  -0.00020,
,,,0.010332600000,   0.00040,
,,,0.010332700000,   0.00100,
,,,0.010332800000,   0.00020,
,,,0.010332900000,   0.00000,
,,,0.010333000000,   0.00020,
,,,0.010333100000,   0.00000,
,,,0.010333200000,   0.00000,
,,,0.010333300000,   0.00000,
,,,0.010333400000,   0.00020,
,,,0.010333500000,   0.00020,
,,,0.010333600000,   0.00040,
,,,0.010333700000,   0.00000,
,,,0.010333800000,   0.00040,
,,,0.010333900000,   0.00020,
,,,0.010334000000,   0.00040,
,,,0.010334100000,   0.00040,
,,,0.010334200000,   0.00020,
,,,0.010334300000,   0.00060,
,,,0.010334400000,   0.00040,
,,,0.010334500000,   0.00020,
,,,0.010334600000,   0.00000,
,,,0.010334700000,  -0.00040,
,,,0.010334800000,   0.00000,
,,,0.010334900000,   0.00000,
,,,0.010335000000,   0.00040,
,,,0.010335100000,   0.00080,
,,,0.010335200000,   0.00060,
,,,0.010335300000,  -0.00020,
,,,0.010335400000,   0.00000,
,,,0.010335500000,   0.00000,
,,,0.010335600000,   0.00080,
,,,0.010335700000,   0.00040,
,,,0.010335800000,   0.00020,
,,,0.010335900000,   0.00020,
,,,0.010336000000,  -0.00020,
,,,0.010336100000,   0.00000,
,,,0.010336200000,  -0.00040,
,,,0.010336300000,  -0.00040,
,,,0.010336400000,   0.00040,
,,,0.010336500000,   0.00000,
,,,0.010336600000,  -0.00020,
,,,0.010336700000,   0.00040,
,,,0.010336800000,   0.00040,
,,,0.010336900000,   0.00000,
,,,0.010337000000,   0.00100,
,,,0.010337100000,  -0.00020,
,,,0.010337200000,  -0.00060,
,,,0.010337300000,   0.00000,
,,,0.010337400000,   0.00000,
,,,0.010337500000,   0.00060,
,,,0.010337600000,   0.00060,
,,,0.010337700000,   0.00000,
,,,0.010337800000,  -0.00020,
,,,0.010337900000,   0.00000,
,,,0.010338000000,   0.00060,
,,,0.010338100000,   0.00060,
,,,0.010338200000,   0.00020,
,,,0.010338300000,   0.00080,
,,,0.010338400000,   0.00040,
,,,0.010338500000,   0.00040,
,,,0.010338600000,   0.00100,
,,,0.010338700000,   0.00040,
,,,0.010338800000,   0.00100,
,,,0.010338900000,   0.00080,
,,,0.010339000000,   0.00040,
,,,0.010339100000,   0.00040,
,,,0.010339200000,   0.00000,
,,,0.010339300000,   0.00100,
,,,0.010339400000,   0.00020,
,,,0.010339500000,   0.00020,
,,,0.010339600000,   0.00040,
,,,0.010339700000,   0.00040,
,,,0.010339800000,  -0.00020,
,,,0.010339900000,   0.00000,
,,,0.010340000000,   0.00060,
,,,0.010340100000,   0.00020,
,,,0.010340200000,  -0.00040,
,,,0.010340300000,  -0.00040,
,,,0.010340400000,   0.00060,
,,,0.010340500000,   0.00000,
,,,0.010340600000,   0.00020,
,,,0.010340700000,   0.00060,
,,,0.010340800000,   0.00040,
,,,0.010340900000,   0.00020,
,,,0.010341000000,  -0.00040,
,,,0.010341100000,  -0.00040,
,,,0.010341200000,  -0.00040,
,,,0.010341300000,   0.00040,
,,,0.010341400000,   0.00020,
,,,0.010341500000,   0.00040,
,,,0.010341600000,   0.00040,
,,,0.010341700000,   0.00080,
,,,0.010341800000,   0.00040,
,,,0.010341900000,   0.00080,
,,,0.010342000000,   0.00040,
,,,0.010342100000,   0.00020,
,,,0.010342200000,   0.00040,
,,,0.010342300000,   0.00000,
,,,0.010342400000,   0.00040,
,,,0.010342500000,   0.00020,
,,,0.010342600000,  -0.00020,
,,,0.010342700000,   0.00020,
,,,0.010342800000,   0.00000,
,,,0.010342900000,   0.00060,
,,,0.010343000000,  -0.00020,
,,,0.010343100000,  -0.00020,
,,,0.010343200000,  -0.00040,
,,,0.010343300000,   0.00000,
,,,0.010343400000,   0.00000,
,,,0.010343500000,   0.00000,
,,,0.010343600000,   0.00000,
,,,0.010343700000,  -0.00060,
,,,0.010343800000,   0.00040,
,,,0.010343900000,   0.00040,
,,,0.010344000000,  -0.00040,
,,,0.010344100000,   0.00060,
,,,0.010344200000,   0.00020,
,,,0.010344300000,   0.00060,
,,,0.010344400000,  -0.00020,
,,,0.010344500000,   0.00080,
,,,0.010344600000,   0.00000,
,,,0.010344700000,   0.00020,
,,,0.010344800000,   0.00020,
,,,0.010344900000,   0.00120,
,,,0.010345000000,   0.00060,
,,,0.010345100000,   0.00060,
,,,0.010345200000,   0.00020,
,,,0.010345300000,   0.00020,
,,,0.010345400000,   0.00000,
,,,0.010345500000,   0.00000,
,,,0.010345600000,   0.00100,
,,,0.010345700000,   0.00000,
,,,0.010345800000,   0.00040,
,,,0.010345900000,   0.00040,
,,,0.010346000000,   0.00100,
,,,0.010346100000,   0.00060,
,,,0.010346200000,  -0.00040,
,,,0.010346300000,   0.00040,
,,,0.010346400000,  -0.00040,
,,,0.010346500000,   0.00000,
,,,0.010346600000,   0.00080,
,,,0.010346700000,   0.00020,
,,,0.010346800000,   0.00020,
,,,0.010346900000,   0.00100,
,,,0.010347000000,   0.00000,
,,,0.010347100000,  -0.00020,
,,,0.010347200000,   0.00020,
,,,0.010347300000,   0.00080,
,,,0.010347400000,   0.00040,
,,,0.010347500000,   0.00040,
,,,0.010347600000,   0.00040,
,,,0.010347700000,   0.00100,
,,,0.010347800000,   0.00060,
,,,0.010347900000,   0.00040,
,,,0.010348000000,   0.00020,
,,,0.010348100000,   0.00060,
,,,0.010348200000,  -0.00040,
,,,0.010348300000,   0.00020,
,,,0.010348400000,   0.00080,
,,,0.010348500000,   0.00020,
,,,0.010348600000,   0.00080,
,,,0.010348700000,  -0.00020,
,,,0.010348800000,   0.00040,
,,,0.010348900000,  -0.00020,
,,,0.010349000000,   0.00060,
,,,0.010349100000,   0.00000,
,,,0.010349200000,   0.00080,
,,,0.010349300000,   0.00060,
,,,0.010349400000,  -0.00020,
,,,0.010349500000,   0.00020,
,,,0.010349600000,   0.00100,
,,,0.010349700000,   0.00000,
,,,0.010349800000,   0.00060,
,,,0.010349900000,  -0.00020,
,,,0.010350000000,   0.00000,
,,,0.010350100000,   0.00020,
,,,0.010350200000,  -0.00040,
,,,0.010350300000,   0.00020,
,,,0.010350400000,  -0.00020,
,,,0.010350500000,  -0.00040,
,,,0.010350600000,   0.00020,
,,,0.010350700000,  -0.00060,
,,,0.010350800000,   0.00040,
,,,0.010350900000,  -0.00020,
,,,0.010351000000,   0.00040,
,,,0.010351100000,  -0.00060,
,,,0.010351200000,  -0.00040,
,,,0.010351300000,  -0.00020,
,,,0.010351400000,   0.00000,
,,,0.010351500000,   0.00120,
,,,0.010351600000,   0.00080,
,,,0.010351700000,   0.00140,
,,,0.010351800000,   0.00020,
,,,0.010351900000,   0.00060,
,,,0.010352000000,   0.00040,
,,,0.010352100000,   0.00100,
,,,0.010352200000,   0.00040,
,,,0.010352300000,   0.00020,
,,,0.010352400000,   0.00020,
,,,0.010352500000,   0.00080,
,,,0.010352600000,   0.00040,
,,,0.010352700000,   0.00080,
,,,0.010352800000,   0.00040,
,,,0.010352900000,   0.00000,
,,,0.010353000000,   0.00000,
,,,0.010353100000,   0.00040,
,,,0.010353200000,   0.00140,
,,,0.010353300000,   0.00040,
,,,0.010353400000,   0.00060,
,,,0.010353500000,  -0.00080,
,,,0.010353600000,   0.00040,
,,,0.010353700000,   0.00020,
,,,0.010353800000,   0.00060,
,,,0.010353900000,  -0.00060,
,,,0.010354000000,   0.00020,
,,,0.010354100000,   0.00060,
,,,0.010354200000,  -0.00020,
,,,0.010354300000,   0.00080,
,,,0.010354400000,   0.00060,
,,,0.010354500000,   0.00100,
,,,0.010354600000,   0.00000,
,,,0.010354700000,   0.00060,
,,,0.010354800000,   0.00040,
,,,0.010354900000,  -0.00020,
,,,0.010355000000,   0.00040,
,,,0.010355100000,  -0.00040,
,,,0.010355200000,  -0.00020,
,,,0.010355300000,   0.00040,
,,,0.010355400000,   0.00020,
,,,0.010355500000,   0.00060,
,,,0.010355600000,  -0.00040,
,,,0.010355700000,   0.00060,
,,,0.010355800000,   0.00000,
,,,0.010355900000,   0.00100,
,,,0.010356000000,   0.00060,
,,,0.010356100000,   0.00080,
,,,0.010356200000,   0.00040,
,,,0.010356300000,   0.00000,
,,,0.010356400000,   0.00060,
,,,0.010356500000,   0.00000,
,,,0.010356600000,   0.00060,
,,,0.010356700000,   0.00040,
,,,0.010356800000,  -0.00020,
,,,0.010356900000,   0.00000,
,,,0.010357000000,   0.00000,
,,,0.010357100000,   0.00020,
,,,0.010357200000,   0.00000,
,,,0.010357300000,   0.00000,
,,,0.010357400000,   0.00060,
,,,0.010357500000,   0.00080,
,,,0.010357600000,   0.00020,
,,,0.010357700000,   0.00040,
,,,0.010357800000,   0.00040,
,,,0.010357900000,   0.00040,
,,,0.010358000000,   0.00020,
,,,0.010358100000,   0.00040,
,,,0.010358200000,   0.00040,
,,,0.010358300000,   0.00060,
,,,0.010358400000,   0.00020,
,,,0.010358500000,  -0.00060,
,,,0.010358600000,   0.00080,
,,,0.010358700000,   0.00040,
,,,0.010358800000,  -0.00020,
,,,0.010358900000,   0.00000,
,,,0.010359000000,   0.00000,
,,,0.010359100000,   0.00060,
,,,0.010359200000,   0.00060,
,,,0.010359300000,  -0.00020,
,,,0.010359400000,   0.00040,
,,,0.010359500000,   0.00000,
,,,0.010359600000,   0.00020,
,,,0.010359700000,   0.00040,
,,,0.010359800000,   0.00000,
,,,0.010359900000,   0.00040,
,,,0.010360000000,   0.00080,
,,,0.010360100000,   0.00020,
,,,0.010360200000,   0.00060,
,,,0.010360300000,   0.00020,
,,,0.010360400000,   0.00000,
,,,0.010360500000,   0.00020,
,,,0.010360600000,   0.00020,
,,,0.010360700000,  -0.00020,
,,,0.010360800000,   0.00000,
,,,0.010360900000,   0.00080,
,,,0.010361000000,   0.00000,
,,,0.010361100000,   0.00040,
,,,0.010361200000,   0.00040,
,,,0.010361300000,   0.00000,
,,,0.010361400000,   0.00080,
,,,0.010361500000,  -0.00020,
,,,0.010361600000,   0.00100,
,,,0.010361700000,   0.00020,
,,,0.010361800000,   0.00060,
,,,0.010361900000,   0.00020,
,,,0.010362000000,   0.00060,
,,,0.010362100000,   0.00060,
,,,0.010362200000,   0.00080,
,,,0.010362300000,   0.00060,
,,,0.010362400000,   0.00040,
,,,0.010362500000,   0.00060,
,,,0.010362600000,   0.00060,
,,,0.010362700000,  -0.00040,
,,,0.010362800000,   0.00020,
,,,0.010362900000,   0.00000,
,,,0.010363000000,   0.00040,
,,,0.010363100000,   0.00000,
,,,0.010363200000,  -0.00020,
,,,0.010363300000,   0.00000,
,,,0.010363400000,   0.00040,
,,,0.010363500000,   0.00000,
,,,0.010363600000,   0.00080,
,,,0.010363700000,   0.00020,
,,,0.010363800000,   0.00020,
,,,0.010363900000,   0.00040,
,,,0.010364000000,   0.00100,
,,,0.010364100000,   0.00040,
,,,0.010364200000,  -0.00020,
,,,0.010364300000,   0.00060,
,,,0.010364400000,   0.00060,
,,,0.010364500000,  -0.00040,
,,,0.010364600000,   0.00020,
,,,0.010364700000,  -0.00060,
,,,0.010364800000,   0.00040,
,,,0.010364900000,   0.00040,
,,,0.010365000000,   0.00000,
,,,0.010365100000,   0.00040,
,,,0.010365200000,   0.00060,
,,,0.010365300000,   0.00000,
,,,0.010365400000,   0.00080,
,,,0.010365500000,   0.00020,
,,,0.010365600000,   0.00020,
,,,0.010365700000,   0.00040,
,,,0.010365800000,   0.00000,
,,,0.010365900000,  -0.00020,
,,,0.010366000000,   0.00080,
,,,0.010366100000,   0.00120,
,,,0.010366200000,   0.00100,
,,,0.010366300000,   0.00080,
,,,0.010366400000,   0.00120,
,,,0.010366500000,   0.00040,
,,,0.010366600000,   0.00100,
,,,0.010366700000,   0.00040,
,,,0.010366800000,   0.00080,
,,,0.010366900000,   0.00060,
,,,0.010367000000,   0.00080,
,,,0.010367100000,   0.00080,
,,,0.010367200000,   0.00140,
,,,0.010367300000,   0.00100,
,,,0.010367400000,   0.00120,
,,,0.010367500000,   0.00060,
,,,0.010367600000,   0.00060,
,,,0.010367700000,   0.00100,
,,,0.010367800000,   0.00040,
,,,0.010367900000,   0.00100,
,,,0.010368000000,   0.00040,
,,,0.010368100000,   0.00060,
,,,0.010368200000,   0.00000,
,,,0.010368300000,   0.00040,
,,,0.010368400000,   0.00040,
,,,0.010368500000,   0.00040,
,,,0.010368600000,  -0.00060,
,,,0.010368700000,   0.00000,
,,,0.010368800000,   0.00020,
,,,0.010368900000,   0.00040,
,,,0.010369000000,   0.00020,
,,,0.010369100000,  -0.00020,
,,,0.010369200000,   0.00000,
,,,0.010369300000,   0.00000,
,,,0.010369400000,  -0.00040,
,,,0.010369500000,  -0.00020,
,,,0.010369600000,  -0.00100,
,,,0.010369700000,   0.00020,
,,,0.010369800000,   0.00040,
,,,0.010369900000,   0.00100,
,,,0.010370000000,  -0.00020,
,,,0.010370100000,   0.00040,
,,,0.010370200000,   0.00040,
,,,0.010370300000,   0.00060,
,,,0.010370400000,   0.00000,
,,,0.010370500000,   0.00000,
,,,0.010370600000,   0.00040,
,,,0.010370700000,   0.00020,
,,,0.010370800000,   0.00040,
,,,0.010370900000,   0.00060,
,,,0.010371000000,   0.00080,
,,,0.010371100000,   0.00060,
,,,0.010371200000,   0.00040,
,,,0.010371300000,   0.00060,
,,,0.010371400000,   0.00080,
,,,0.010371500000,   0.00160,
,,,0.010371600000,   0.00060,
,,,0.010371700000,   0.00080,
,,,0.010371800000,   0.00080,
,,,0.010371900000,   0.00120,
,,,0.010372000000,   0.00060,
,,,0.010372100000,   0.00060,
,,,0.010372200000,   0.00100,
,,,0.010372300000,   0.00080,
,,,0.010372400000,   0.00060,
,,,0.010372500000,   0.00040,
,,,0.010372600000,   0.00020,
,,,0.010372700000,   0.00040,
,,,0.010372800000,   0.00040,
,,,0.010372900000,  -0.00040,
,,,0.010373000000,   0.00040,
,,,0.010373100000,   0.00020,
,,,0.010373200000,   0.00000,
,,,0.010373300000,   0.00000,
,,,0.010373400000,   0.00020,
,,,0.010373500000,   0.00040,
,,,0.010373600000,   0.00060,
,,,0.010373700000,  -0.00020,
,,,0.010373800000,  -0.00020,
,,,0.010373900000,  -0.00040,
,,,0.010374000000,  -0.00020,
,,,0.010374100000,   0.00020,
,,,0.010374200000,  -0.00040,
,,,0.010374300000,  -0.00040,
,,,0.010374400000,  -0.00020,
,,,0.010374500000,  -0.00020,
,,,0.010374600000,  -0.00040,
,,,0.010374700000,   0.00000,
,,,0.010374800000,   0.00020,
,,,0.010374900000,  -0.00020,
,,,0.010375000000,   0.00000,
,,,0.010375100000,   0.00020,
,,,0.010375200000,   0.00000,
,,,0.010375300000,   0.00040,
,,,0.010375400000,   0.00000,
,,,0.010375500000,   0.00000,
,,,0.010375600000,   0.00060,
,,,0.010375700000,   0.00000,
,,,0.010375800000,   0.00000,
,,,0.010375900000,   0.00000,
,,,0.010376000000,   0.00000,
,,,0.010376100000,   0.00020,
,,,0.010376200000,   0.00060,
,,,0.010376300000,   0.00140,
,,,0.010376400000,   0.00060,
,,,0.010376500000,   0.00140,
,,,0.010376600000,   0.00040,
,,,0.010376700000,   0.00060,
,,,0.010376800000,   0.00040,
,,,0.010376900000,   0.00060,
,,,0.010377000000,   0.00060,
,,,0.010377100000,   0.00120,
,,,0.010377200000,   0.00080,
,,,0.010377300000,   0.00120,
,,,0.010377400000,   0.00140,
,,,0.010377500000,   0.00040,
,,,0.010377600000,   0.00080,
,,,0.010377700000,   0.00040,
,,,0.010377800000,   0.00080,
,,,0.010377900000,   0.00040,
,,,0.010378000000,   0.00100,
,,,0.010378100000,   0.00080,
,,,0.010378200000,   0.00060,
,,,0.010378300000,   0.00040,
,,,0.010378400000,   0.00000,
,,,0.010378500000,   0.00020,
,,,0.010378600000,   0.00060,
,,,0.010378700000,   0.00080,
,,,0.010378800000,   0.00080,
,,,0.010378900000,   0.00040,
,,,0.010379000000,   0.00080,
,,,0.010379100000,   0.00020,
,,,0.010379200000,   0.00040,
,,,0.010379300000,   0.00060,
,,,0.010379400000,   0.00060,
,,,0.010379500000,   0.00000,
,,,0.010379600000,   0.00040,
,,,0.010379700000,  -0.00020,
,,,0.010379800000,   0.00020,
,,,0.010379900000,  -0.00040,
,,,0.010380000000,   0.00020,
,,,0.010380100000,   0.00060,
,,,0.010380200000,   0.00040,
,,,0.010380300000,   0.00000,
,,,0.010380400000,   0.00020,
,,,0.010380500000,   0.00060,
,,,0.010380600000,   0.00040,
,,,0.010380700000,   0.00080,
,,,0.010380800000,  -0.00020,
,,,0.010380900000,   0.00040,
,,,0.010381000000,   0.00040,
,,,0.010381100000,   0.00040,
,,,0.010381200000,   0.00120,
,,,0.010381300000,   0.00040,
,,,0.010381400000,   0.00140,
,,,0.010381500000,   0.00080,
,,,0.010381600000,   0.00080,
,,,0.010381700000,   0.00100,
,,,0.010381800000,   0.00140,
,,,0.010381900000,   0.00100,
,,,0.010382000000,   0.00100,
,,,0.010382100000,   0.00060,
,,,0.010382200000,   0.00100,
,,,0.010382300000,   0.00160,
,,,0.010382400000,   0.00140,
,,,0.010382500000,   0.00040,
,,,0.010382600000,   0.00120,
,,,0.010382700000,   0.00100,
,,,0.010382800000,   0.00060,
,,,0.010382900000,   0.00120,
,,,0.010383000000,   0.00080,
,,,0.010383100000,   0.00040,
,,,0.010383200000,   0.00000,
,,,0.010383300000,   0.00060,
,,,0.010383400000,   0.00120,
,,,0.010383500000,   0.00020,
,,,0.010383600000,   0.00080,
,,,0.010383700000,   0.00040,
,,,0.010383800000,   0.00100,
,,,0.010383900000,   0.00080,
,,,0.010384000000,   0.00040,
,,,0.010384100000,   0.00040,
,,,0.010384200000,   0.00120,
,,,0.010384300000,   0.00000,
,,,0.010384400000,   0.00040,
