fp2/laserspektroskopie/daten/oszi/ALL0021/F0021CH1.CSV

Record Length,2.500000e+03,,   0.011888000000,   0.00040,
Sample Interval,2.000000e-07,,   0.011888200000,   0.00064,
Trigger Point,-5.944000000000e+04,,   0.011888400000,   0.00096,
,,,   0.011888600000,   0.00080,
,,,   0.011888800000,   0.00056,
,,,   0.011889000000,   0.00088,
Source,CH1,,   0.011889200000,   0.00064,
Vertical Units,V,,   0.011889400000,   0.00096,
Vertical Scale,2.000000e-03,,   0.011889600000,   0.00072,
Vertical Offset,-4.880000e-03,,   0.011889800000,   0.00128,
Horizontal Units,s,,   0.011890000000,   0.00112,
Horizontal Scale,5.000000e-05,,   0.011890200000,   0.00056,
Pt Fmt,Y,,   0.011890400000,   0.00128,
Yzero,0.000000e+00,,   0.011890600000,   0.00136,
Probe Atten,1.000000e+00,,   0.011890800000,   0.00120,
Firmware Version,FV:v6.08,,   0.011891000000,   0.00120,
,,,0.011891200000,   0.00064,
,,,0.011891400000,   0.00064,
,,,0.011891600000,   0.00096,
,,,0.011891800000,   0.00104,
,,,0.011892000000,   0.00120,
,,,0.011892200000,   0.00088,
,,,0.011892400000,   0.00104,
,,,0.011892600000,   0.00096,
,,,0.011892800000,   0.00088,
,,,0.011893000000,   0.00064,
,,,0.011893200000,   0.00120,
,,,0.011893400000,   0.00136,
,,,0.011893600000,   0.00080,
,,,0.011893800000,   0.00096,
,,,0.011894000000,   0.00096,
,,,0.011894200000,   0.00072,
,,,0.011894400000,   0.00080,
,,,0.011894600000,   0.00104,
,,,0.011894800000,   0.00112,
,,,0.011895000000,   0.00160,
,,,0.011895200000,   0.00168,
,,,0.011895400000,   0.00128,
,,,0.011895600000,   0.00168,
,,,0.011895800000,   0.00112,
,,,0.011896000000,   0.00160,
,,,0.011896200000,   0.00128,
,,,0.011896400000,   0.00112,
,,,0.011896600000,   0.00104,
,,,0.011896800000,   0.00104,
,,,0.011897000000,   0.00112,
,,,0.011897200000,   0.00128,
,,,0.011897400000,   0.00112,
,,,0.011897600000,   0.00120,
,,,0.011897800000,   0.00128,
,,,0.011898000000,   0.00080,
,,,0.011898200000,   0.00112,
,,,0.011898400000,   0.00096,
,,,0.011898600000,   0.00104,
,,,0.011898800000,   0.00112,
,,,0.011899000000,   0.00056,
,,,0.011899200000,   0.00120,
,,,0.011899400000,   0.00104,
,,,0.011899600000,   0.00112,
,,,0.011899800000,   0.00080,
,,,0.011900000000,   0.00112,
,,,0.011900200000,   0.00096,
,,,0.011900400000,   0.00088,
,,,0.011900600000,   0.00120,
,,,0.011900800000,   0.00032,
,,,0.011901000000,   0.00080,
,,,0.011901200000,   0.00136,
,,,0.011901400000,   0.00120,
,,,0.011901600000,   0.00104,
,,,0.011901800000,   0.00128,
,,,0.011902000000,   0.00096,
,,,0.011902200000,   0.00104,
,,,0.011902400000,   0.00104,
,,,0.011902600000,   0.00104,
,,,0.011902800000,   0.00088,
,,,0.011903000000,   0.00112,
,,,0.011903200000,   0.00104,
,,,0.011903400000,   0.00056,
,,,0.011903600000,   0.00064,
,,,0.011903800000,   0.00080,
,,,0.011904000000,   0.00080,
,,,0.011904200000,   0.00128,
,,,0.011904400000,   0.00032,
,,,0.011904600000,   0.00104,
,,,0.011904800000,   0.00128,
,,,0.011905000000,   0.00112,
,,,0.011905200000,   0.00096,
,,,0.011905400000,   0.00120,
,,,0.011905600000,   0.00024,
,,,0.011905800000,   0.00120,
,,,0.011906000000,   0.00120,
,,,0.011906200000,   0.00072,
,,,0.011906400000,   0.00080,
,,,0.011906600000,   0.00096,
,,,0.011906800000,   0.00112,
,,,0.011907000000,   0.00104,
,,,0.011907200000,   0.00120,
,,,0.011907400000,   0.00144,
,,,0.011907600000,   0.00136,
,,,0.011907800000,   0.00104,
,,,0.011908000000,   0.00120,
,,,0.011908200000,   0.00144,
,,,0.011908400000,   0.00072,
,,,0.011908600000,   0.00136,
,,,0.011908800000,   0.00112,
,,,0.011909000000,   0.00096,
,,,0.011909200000,   0.00088,
,,,0.011909400000,   0.00048,
,,,0.011909600000,   0.00096,
,,,0.011909800000,   0.00112,
,,,0.011910000000,   0.00048,
,,,0.011910200000,   0.00072,
,,,0.011910400000,   0.00168,
,,,0.011910600000,   0.00096,
,,,0.011910800000,   0.00112,
,,,0.011911000000,   0.00120,
,,,0.011911200000,   0.00064,
,,,0.011911400000,   0.00080,
,,,0.011911600000,   0.00072,
,,,0.011911800000,   0.00112,
,,,0.011912000000,   0.00072,
,,,0.011912200000,   0.00080,
,,,0.011912400000,   0.00152,
,,,0.011912600000,   0.00096,
,,,0.011912800000,   0.00104,
,,,0.011913000000,   0.00136,
,,,0.011913200000,   0.00128,
,,,0.011913400000,   0.00088,
,,,0.011913600000,   0.00144,
,,,0.011913800000,   0.00136,
,,,0.011914000000,   0.00072,
,,,0.011914200000,   0.00112,
,,,0.011914400000,   0.00120,
,,,0.011914600000,   0.00096,
,,,0.011914800000,   0.00112,
,,,0.011915000000,   0.00120,
,,,0.011915200000,   0.00120,
,,,0.011915400000,   0.00120,
,,,0.011915600000,   0.00112,
,,,0.011915800000,   0.00112,
,,,0.011916000000,   0.00080,
,,,0.011916200000,   0.00072,
,,,0.011916400000,   0.00072,
,,,0.011916600000,   0.00112,
,,,0.011916800000,   0.00072,
,,,0.011917000000,   0.00120,
,,,0.011917200000,   0.00104,
,,,0.011917400000,   0.00072,
,,,0.011917600000,   0.00096,
,,,0.011917800000,   0.00080,
,,,0.011918000000,   0.00104,
,,,0.011918200000,   0.00128,
,,,0.011918400000,   0.00168,
,,,0.011918600000,   0.00160,
,,,0.011918800000,   0.00160,
,,,0.011919000000,   0.00112,
,,,0.011919200000,   0.00144,
,,,0.011919400000,   0.00120,
,,,0.011919600000,   0.00112,
,,,0.011919800000,   0.00056,
,,,0.011920000000,   0.00104,
,,,0.011920200000,   0.00136,
,,,0.011920400000,   0.00120,
,,,0.011920600000,   0.00072,
,,,0.011920800000,   0.00136,
,,,0.011921000000,   0.00128,
,,,0.011921200000,   0.00112,
,,,0.011921400000,   0.00112,
,,,0.011921600000,   0.00104,
,,,0.011921800000,   0.00096,
,,,0.011922000000,   0.00160,
,,,0.011922200000,   0.00128,
,,,0.011922400000,   0.00104,
,,,0.011922600000,   0.00096,
,,,0.011922800000,   0.00064,
,,,0.011923000000,   0.00160,
,,,0.011923200000,   0.00112,
,,,0.011923400000,   0.00104,
,,,0.011923600000,   0.00136,
,,,0.011923800000,   0.00120,
,,,0.011924000000,   0.00096,
,,,0.011924200000,   0.00040,
,,,0.011924400000,   0.00120,
,,,0.011924600000,   0.00096,
,,,0.011924800000,   0.00136,
,,,0.011925000000,   0.00168,
,,,0.011925200000,   0.00112,
,,,0.011925400000,   0.00120,
,,,0.011925600000,   0.00152,
,,,0.011925800000,   0.00120,
,,,0.011926000000,   0.00096,
,,,0.011926200000,   0.00080,
,,,0.011926400000,   0.00168,
,,,0.011926600000,   0.00104,
,,,0.011926800000,   0.00096,
,,,0.011927000000,   0.00080,
,,,0.011927200000,   0.00120,
,,,0.011927400000,   0.00080,
,,,0.011927600000,   0.00088,
,,,0.011927800000,   0.00080,
,,,0.011928000000,   0.00088,
,,,0.011928200000,   0.00072,
,,,0.011928400000,   0.00136,
,,,0.011928600000,   0.00104,
,,,0.011928800000,   0.00096,
,,,0.011929000000,   0.00112,
,,,0.011929200000,   0.00104,
,,,0.011929400000,   0.00128,
,,,0.011929600000,   0.00104,
,,,0.011929800000,   0.00088,
,,,0.011930000000,   0.00080,
,,,0.011930200000,   0.00144,
,,,0.011930400000,   0.00120,
,,,0.011930600000,   0.00112,
,,,0.011930800000,   0.00128,
,,,0.011931000000,   0.00120,
,,,0.011931200000,   0.00088,
,,,0.011931400000,   0.00088,
,,,0.011931600000,   0.00072,
,,,0.011931800000,   0.00064,
,,,0.011932000000,   0.00096,
,,,0.011932200000,   0.00104,
,,,0.011932400000,   0.00064,
,,,0.011932600000,   0.00056,
,,,0.011932800000,   0.00088,
,,,0.011933000000,   0.00112,
,,,0.011933200000,   0.00112,
,,,0.011933400000,   0.00064,
,,,0.011933600000,   0.00080,
,,,0.011933800000,   0.00072,
,,,0.011934000000,   0.00104,
,,,0.011934200000,   0.00056,
,,,0.011934400000,   0.00064,
,,,0.011934600000,   0.00112,
,,,0.011934800000,   0.00128,
,,,0.011935000000,   0.00112,
,,,0.011935200000,   0.00088,
,,,0.011935400000,   0.00104,
,,,0.011935600000,   0.00112,
,,,0.011935800000,   0.00112,
,,,0.011936000000,   0.00136,
,,,0.011936200000,   0.00080,
,,,0.011936400000,   0.00120,
,,,0.011936600000,   0.00136,
,,,0.011936800000,   0.00080,
,,,0.011937000000,   0.00072,
,,,0.011937200000,   0.00088,
,,,0.011937400000,   0.00112,
,,,0.011937600000,   0.00096,
,,,0.011937800000,   0.00128,
,,,0.011938000000,   0.00024,
,,,0.011938200000,   0.00120,
,,,0.011938400000,   0.00096,
,,,0.011938600000,   0.00088,
,,,0.011938800000,   0.00136,
,,,0.011939000000,   0.00072,
,,,0.011939200000,   0.00088,
,,,0.011939400000,   0.00080,
,,,0.011939600000,   0.00072,
,,,0.011939800000,   0.00080,
,,,0.011940000000,   0.00160,
,,,0.011940200000,   0.00080,
,,,0.011940400000,   0.00112,
,,,0.011940600000,   0.00136,
,,,0.011940800000,   0.00128,
,,,0.011941000000,   0.00120,
,,,0.011941200000,   0.00144,
,,,0.011941400000,   0.00080,
,,,0.011941600000,   0.00104,
,,,0.011941800000,   0.00120,
,,,0.011942000000,   0.00136,
,,,0.011942200000,   0.00080,
,,,0.011942400000,   0.00112,
,,,0.011942600000,   0.00096,
,,,0.011942800000,   0.00160,
,,,0.011943000000,   0.00128,
,,,0.011943200000,   0.00128,
,,,0.011943400000,   0.00096,
,,,0.011943600000,   0.00056,
,,,0.011943800000,   0.00104,
,,,0.011944000000,   0.00120,
,,,0.011944200000,   0.00096,
,,,0.011944400000,   0.00096,
,,,0.011944600000,   0.00104,
,,,0.011944800000,   0.00096,
,,,0.011945000000,   0.00112,
,,,0.011945200000,   0.00112,
,,,0.011945400000,   0.00128,
,,,0.011945600000,   0.00120,
,,,0.011945800000,   0.00064,
,,,0.011946000000,   0.00072,
,,,0.011946200000,   0.00128,
,,,0.011946400000,   0.00088,
,,,0.011946600000,   0.00112,
,,,0.011946800000,   0.00104,
,,,0.011947000000,   0.00160,
,,,0.011947200000,   0.00104,
,,,0.011947400000,   0.00152,
,,,0.011947600000,   0.00152,
,,,0.011947800000,   0.00152,
,,,0.011948000000,   0.00136,
,,,0.011948200000,   0.00104,
,,,0.011948400000,   0.00136,
,,,0.011948600000,   0.00128,
,,,0.011948800000,   0.00152,
,,,0.011949000000,   0.00104,
,,,0.011949200000,   0.00104,
,,,0.011949400000,   0.00128,
,,,0.011949600000,   0.00064,
,,,0.011949800000,   0.00096,
,,,0.011950000000,   0.00120,
,,,0.011950200000,   0.00144,
,,,0.011950400000,   0.00112,
,,,0.011950600000,   0.00088,
,,,0.011950800000,   0.00096,
,,,0.011951000000,   0.00104,
,,,0.011951200000,   0.00120,
,,,0.011951400000,   0.00096,
,,,0.011951600000,   0.00072,
,,,0.011951800000,   0.00112,
,,,0.011952000000,   0.00072,
,,,0.011952200000,   0.00096,
,,,0.011952400000,   0.00128,
,,,0.011952600000,   0.00088,
,,,0.011952800000,   0.00168,
,,,0.011953000000,   0.00120,
,,,0.011953200000,   0.00128,
,,,0.011953400000,   0.00144,
,,,0.011953600000,   0.00128,
,,,0.011953800000,   0.00136,
,,,0.011954000000,   0.00136,
,,,0.011954200000,   0.00120,
,,,0.011954400000,   0.00104,
,,,0.011954600000,   0.00096,
,,,0.011954800000,   0.00120,
,,,0.011955000000,   0.00096,
,,,0.011955200000,   0.00048,
,,,0.011955400000,   0.00088,
,,,0.011955600000,   0.00112,
,,,0.011955800000,   0.00120,
,,,0.011956000000,   0.00104,
,,,0.011956200000,   0.00112,
,,,0.011956400000,   0.00072,
,,,0.011956600000,   0.00096,
,,,0.011956800000,   0.00064,
,,,0.011957000000,   0.00152,
,,,0.011957200000,   0.00152,
,,,0.011957400000,   0.00144,
,,,0.011957600000,   0.00104,
,,,0.011957800000,   0.00128,
,,,0.011958000000,   0.00120,
,,,0.011958200000,   0.00104,
,,,0.011958400000,   0.00144,
,,,0.011958600000,   0.00112,
,,,0.011958800000,   0.00088,
,,,0.011959000000,   0.00120,
,,,0.011959200000,   0.00128,
,,,0.011959400000,   0.00112,
,,,0.011959600000,   0.00136,
,,,0.011959800000,   0.00160,
,,,0.011960000000,   0.00128,
,,,0.011960200000,   0.00104,
,,,0.011960400000,   0.00136,
,,,0.011960600000,   0.00096,
,,,0.011960800000,   0.00120,
,,,0.011961000000,   0.00120,
,,,0.011961200000,   0.00112,
,,,0.011961400000,   0.00104,
,,,0.011961600000,   0.00144,
,,,0.011961800000,   0.00128,
,,,0.011962000000,   0.00120,
,,,0.011962200000,   0.00144,
,,,0.011962400000,   0.00080,
,,,0.011962600000,   0.00120,
,,,0.011962800000,   0.00136,
,,,0.011963000000,   0.00136,
,,,0.011963200000,   0.00096,
,,,0.011963400000,   0.00096,
,,,0.011963600000,   0.00080,
,,,0.011963800000,   0.00120,
,,,0.011964000000,   0.00104,
,,,0.011964200000,   0.00104,
,,,0.011964400000,   0.00128,
,,,0.011964600000,   0.00144,
,,,0.011964800000,   0.00128,
,,,0.011965000000,   0.00120,
,,,0.011965200000,   0.00152,
,,,0.011965400000,   0.00120,
,,,0.011965600000,   0.00128,
,,,0.011965800000,   0.00112,
,,,0.011966000000,   0.00080,
,,,0.011966200000,   0.00136,
,,,0.011966400000,   0.00080,
,,,0.011966600000,   0.00112,
,,,0.011966800000,   0.00096,
,,,0.011967000000,   0.00112,
,,,0.011967200000,   0.00120,
,,,0.011967400000,   0.00120,
,,,0.011967600000,   0.00120,
,,,0.011967800000,   0.00096,
,,,0.011968000000,   0.00136,
,,,0.011968200000,   0.00136,
,,,0.011968400000,   0.00096,
,,,0.011968600000,   0.00096,
,,,0.011968800000,   0.00104,
,,,0.011969000000,   0.00168,
,,,0.011969200000,   0.00136,
,,,0.011969400000,   0.00120,
,,,0.011969600000,   0.00112,
,,,0.011969800000,   0.00168,
,,,0.011970000000,   0.00192,
,,,0.011970200000,   0.00128,
,,,0.011970400000,   0.00104,
,,,0.011970600000,   0.00104,
,,,0.011970800000,   0.00080,
,,,0.011971000000,   0.00096,
,,,0.011971200000,   0.00128,
,,,0.011971400000,   0.00112,
,,,0.011971600000,   0.00112,
,,,0.011971800000,   0.00152,
,,,0.011972000000,   0.00136,
,,,0.011972200000,   0.00128,
,,,0.011972400000,   0.00136,
,,,0.011972600000,   0.00136,
,,,0.011972800000,   0.00152,
,,,0.011973000000,   0.00144,
,,,0.011973200000,   0.00160,
,,,0.011973400000,   0.00160,
,,,0.011973600000,   0.00136,
,,,0.011973800000,   0.00120,
,,,0.011974000000,   0.00152,
,,,0.011974200000,   0.00112,
,,,0.011974400000,   0.00080,
,,,0.011974600000,   0.00080,
,,,0.011974800000,   0.00096,
,,,0.011975000000,   0.00144,
,,,0.011975200000,   0.00136,
,,,0.011975400000,   0.00096,
,,,0.011975600000,   0.00112,
,,,0.011975800000,   0.00160,
,,,0.011976000000,   0.00168,
,,,0.011976200000,   0.00184,
,,,0.011976400000,   0.00128,
,,,0.011976600000,   0.00152,
,,,0.011976800000,   0.00152,
,,,0.011977000000,   0.00152,
,,,0.011977200000,   0.00152,
,,,0.011977400000,   0.00136,
,,,0.011977600000,   0.00128,
,,,0.011977800000,   0.00136,
,,,0.011978000000,   0.00136,
,,,0.011978200000,   0.00096,
,,,0.011978400000,   0.00104,
,,,0.011978600000,   0.00128,
,,,0.011978800000,   0.00096,
,,,0.011979000000,   0.00168,
,,,0.011979200000,   0.00152,
,,,0.011979400000,   0.00104,
,,,0.011979600000,   0.00160,
,,,0.011979800000,   0.00128,
,,,0.011980000000,   0.00136,
,,,0.011980200000,   0.00144,
,,,0.011980400000,   0.00136,
,,,0.011980600000,   0.00168,
,,,0.011980800000,   0.00144,
,,,0.011981000000,   0.00136,
,,,0.011981200000,   0.00168,
,,,0.011981400000,   0.00184,
,,,0.011981600000,   0.00184,
,,,0.011981800000,   0.00192,
,,,0.011982000000,   0.00192,
,,,0.011982200000,   0.00160,
,,,0.011982400000,   0.00192,
,,,0.011982600000,   0.00160,
,,,0.011982800000,   0.00152,
,,,0.011983000000,   0.00128,
,,,0.011983200000,   0.00128,
,,,0.011983400000,   0.00104,
,,,0.011983600000,   0.00104,
,,,0.011983800000,   0.00144,
,,,0.011984000000,   0.00128,
,,,0.011984200000,   0.00120,
,,,0.011984400000,   0.00096,
,,,0.011984600000,   0.00064,
,,,0.011984800000,   0.00088,
,,,0.011985000000,   0.00136,
,,,0.011985200000,   0.00120,
,,,0.011985400000,   0.00104,
,,,0.011985600000,   0.00152,
,,,0.011985800000,   0.00128,
,,,0.011986000000,   0.00144,
,,,0.011986200000,   0.00144,
,,,0.011986400000,   0.00120,
,,,0.011986600000,   0.00136,
,,,0.011986800000,   0.00192,
,,,0.011987000000,   0.00136,
,,,0.011987200000,   0.00120,
,,,0.011987400000,   0.00200,
,,,0.011987600000,   0.00128,
,,,0.011987800000,   0.00128,
,,,0.011988000000,   0.00136,
,,,0.011988200000,   0.00176,
,,,0.011988400000,   0.00128,
,,,0.011988600000,   0.00184,
,,,0.011988800000,   0.00128,
,,,0.011989000000,   0.00120,
,,,0.011989200000,   0.00120,
,,,0.011989400000,   0.00144,
,,,0.011989600000,   0.00200,
,,,0.011989800000,   0.00144,
,,,0.011990000000,   0.00200,
,,,0.011990200000,   0.00136,
,,,0.011990400000,   0.00184,
,,,0.011990600000,   0.00160,
,,,0.011990800000,   0.00176,
,,,0.011991000000,   0.00168,
,,,0.011991200000,   0.00120,
,,,0.011991400000,   0.00128,
,,,0.011991600000,   0.00184,
,,,0.011991800000,   0.00144,
,,,0.011992000000,   0.00152,
,,,0.011992200000,   0.00136,
,,,0.011992400000,   0.00168,
,,,0.011992600000,   0.00192,
,,,0.011992800000,   0.00160,
,,,0.011993000000,   0.00144,
,,,0.011993200000,   0.00168,
,,,0.011993400000,   0.00168,
,,,0.011993600000,   0.00168,
,,,0.011993800000,   0.00120,
,,,0.011994000000,   0.00200,
,,,0.011994200000,   0.00168,
,,,0.011994400000,   0.00152,
,,,0.011994600000,   0.00152,
,,,0.011994800000,   0.00168,
,,,0.011995000000,   0.00112,
,,,0.011995200000,   0.00160,
,,,0.011995400000,   0.00184,
,,,0.011995600000,   0.00136,
,,,0.011995800000,   0.00112,
,,,0.011996000000,   0.00104,
,,,0.011996200000,   0.00160,
,,,0.011996400000,   0.00136,
,,,0.011996600000,   0.00104,
,,,0.011996800000,   0.00160,
,,,0.011997000000,   0.00160,
,,,0.011997200000,   0.00104,
,,,0.011997400000,   0.00120,
,,,0.011997600000,   0.00160,
,,,0.011997800000,   0.00104,
,,,0.011998000000,   0.00128,
,,,0.011998200000,   0.00152,
,,,0.011998400000,   0.00160,
,,,0.011998600000,   0.00184,
,,,0.011998800000,   0.00144,
,,,0.011999000000,   0.00192,
,,,0.011999200000,   0.00160,
,,,0.011999400000,   0.00104,
,,,0.011999600000,   0.00136,
,,,0.011999800000,   0.00152,
,,,0.012000000000,   0.00192,
,,,0.012000200000,   0.00168,
,,,0.012000400000,   0.00152,
,,,0.012000600000,   0.00160,
,,,0.012000800000,   0.00144,
,,,0.012001000000,   0.00152,
,,,0.012001200000,   0.00200,
,,,0.012001400000,   0.00176,
,,,0.012001600000,   0.00184,
,,,0.012001800000,   0.00096,
,,,0.012002000000,   0.00200,
,,,0.012002200000,   0.00168,
,,,0.012002400000,   0.00136,
,,,0.012002600000,   0.00152,
,,,0.012002800000,   0.00152,
,,,0.012003000000,   0.00224,
,,,0.012003200000,   0.00184,
,,,0.012003400000,   0.00168,
,,,0.012003600000,   0.00184,
,,,0.012003800000,   0.00152,
,,,0.012004000000,   0.00184,
,,,0.012004200000,   0.00168,
,,,0.012004400000,   0.00200,
,,,0.012004600000,   0.00168,
,,,0.012004800000,   0.00240,
,,,0.012005000000,   0.00136,
,,,0.012005200000,   0.00168,
,,,0.012005400000,   0.00184,
,,,0.012005600000,   0.00200,
,,,0.012005800000,   0.00136,
,,,0.012006000000,   0.00168,
,,,0.012006200000,   0.00160,
,,,0.012006400000,   0.00200,
,,,0.012006600000,   0.00200,
,,,0.012006800000,   0.00152,
,,,0.012007000000,   0.00184,
,,,0.012007200000,   0.00160,
,,,0.012007400000,   0.00184,
,,,0.012007600000,   0.00192,
,,,0.012007800000,   0.00184,
,,,0.012008000000,   0.00168,
,,,0.012008200000,   0.00128,
,,,0.012008400000,   0.00184,
,,,0.012008600000,   0.00136,
,,,0.012008800000,   0.00136,
,,,0.012009000000,   0.00176,
,,,0.012009200000,   0.00144,
,,,0.012009400000,   0.00216,
,,,0.012009600000,   0.00192,
,,,0.012009800000,   0.00200,
,,,0.012010000000,   0.00152,
,,,0.012010200000,   0.00176,
,,,0.012010400000,   0.00184,
,,,0.012010600000,   0.00144,
,,,0.012010800000,   0.00176,
,,,0.012011000000,   0.00136,
,,,0.012011200000,   0.00160,
,,,0.012011400000,   0.00168,
,,,0.012011600000,   0.00184,
,,,0.012011800000,   0.00160,
,,,0.012012000000,   0.00200,
,,,0.012012200000,   0.00272,
,,,0.012012400000,   0.00232,
,,,0.012012600000,   0.00184,
,,,0.012012800000,   0.00240,
,,,0.012013000000,   0.00200,
,,,0.012013200000,   0.00208,
,,,0.012013400000,   0.00168,
,,,0.012013600000,   0.00160,
,,,0.012013800000,   0.00192,
,,,0.012014000000,   0.00184,
,,,0.012014200000,   0.00208,
,,,0.012014400000,   0.00176,
,,,0.012014600000,   0.00216,
,,,0.012014800000,   0.00176,
,,,0.012015000000,   0.00208,
,,,0.012015200000,   0.00176,
,,,0.012015400000,   0.00168,
,,,0.012015600000,   0.00208,
,,,0.012015800000,   0.00160,
,,,0.012016000000,   0.00176,
,,,0.012016200000,   0.00160,
,,,0.012016400000,   0.00144,
,,,0.012016600000,   0.00152,
,,,0.012016800000,   0.00176,
,,,0.012017000000,   0.00192,
,,,0.012017200000,   0.00152,
,,,0.012017400000,   0.00160,
,,,0.012017600000,   0.00160,
,,,0.012017800000,   0.00208,
,,,0.012018000000,   0.00168,
,,,0.012018200000,   0.00152,
,,,0.012018400000,   0.00184,
,,,0.012018600000,   0.00192,
,,,0.012018800000,   0.00168,
