trunk/fp2/laserspektroskopie/daten/oszi/ALL0011/F0011CH1.CSV

Record Length,2.500000e+03,,   0.010091000000,   0.00264,
Sample Interval,1.000000e-07,,   0.010091100000,   0.00256,
Trigger Point,-1.009100000000e+05,,   0.010091200000,   0.00248,
,,,   0.010091300000,   0.00288,
,,,   0.010091400000,   0.00248,
,,,   0.010091500000,   0.00248,
Source,CH1,,   0.010091600000,   0.00264,
Vertical Units,V,,   0.010091700000,   0.00296,
Vertical Scale,2.000000e-03,,   0.010091800000,   0.00280,
Vertical Offset,-1.136000e-02,,   0.010091900000,   0.00240,
Horizontal Units,s,,   0.010092000000,   0.00224,
Horizontal Scale,2.500000e-05,,   0.010092100000,   0.00224,
Pt Fmt,Y,,   0.010092200000,   0.00264,
Yzero,0.000000e+00,,   0.010092300000,   0.00232,
Probe Atten,1.000000e+00,,   0.010092400000,   0.00240,
Firmware Version,FV:v6.08,,   0.010092500000,   0.00256,
,,,0.010092600000,   0.00216,
,,,0.010092700000,   0.00256,
,,,0.010092800000,   0.00240,
,,,0.010092900000,   0.00272,
,,,0.010093000000,   0.00264,
,,,0.010093100000,   0.00240,
,,,0.010093200000,   0.00248,
,,,0.010093300000,   0.00264,
,,,0.010093400000,   0.00272,
,,,0.010093500000,   0.00216,
,,,0.010093600000,   0.00280,
,,,0.010093700000,   0.00264,
,,,0.010093800000,   0.00248,
,,,0.010093900000,   0.00232,
,,,0.010094000000,   0.00240,
,,,0.010094100000,   0.00240,
,,,0.010094200000,   0.00272,
,,,0.010094300000,   0.00304,
,,,0.010094400000,   0.00232,
,,,0.010094500000,   0.00256,
,,,0.010094600000,   0.00240,
,,,0.010094700000,   0.00240,
,,,0.010094800000,   0.00256,
,,,0.010094900000,   0.00272,
,,,0.010095000000,   0.00200,
,,,0.010095100000,   0.00240,
,,,0.010095200000,   0.00248,
,,,0.010095300000,   0.00248,
,,,0.010095400000,   0.00184,
,,,0.010095500000,   0.00256,
,,,0.010095600000,   0.00264,
,,,0.010095700000,   0.00296,
,,,0.010095800000,   0.00256,
,,,0.010095900000,   0.00288,
,,,0.010096000000,   0.00280,
,,,0.010096100000,   0.00280,
,,,0.010096200000,   0.00272,
,,,0.010096300000,   0.00272,
,,,0.010096400000,   0.00256,
,,,0.010096500000,   0.00240,
,,,0.010096600000,   0.00272,
,,,0.010096700000,   0.00280,
,,,0.010096800000,   0.00264,
,,,0.010096900000,   0.00296,
,,,0.010097000000,   0.00288,
,,,0.010097100000,   0.00248,
,,,0.010097200000,   0.00248,
,,,0.010097300000,   0.00264,
,,,0.010097400000,   0.00240,
,,,0.010097500000,   0.00288,
,,,0.010097600000,   0.00264,
,,,0.010097700000,   0.00304,
,,,0.010097800000,   0.00264,
,,,0.010097900000,   0.00280,
,,,0.010098000000,   0.00304,
,,,0.010098100000,   0.00272,
,,,0.010098200000,   0.00304,
,,,0.010098300000,   0.00248,
,,,0.010098400000,   0.00264,
,,,0.010098500000,   0.00272,
,,,0.010098600000,   0.00256,
,,,0.010098700000,   0.00256,
,,,0.010098800000,   0.00256,
,,,0.010098900000,   0.00256,
,,,0.010099000000,   0.00304,
,,,0.010099100000,   0.00240,
,,,0.010099200000,   0.00304,
,,,0.010099300000,   0.00336,
,,,0.010099400000,   0.00256,
,,,0.010099500000,   0.00256,
,,,0.010099600000,   0.00304,
,,,0.010099700000,   0.00320,
,,,0.010099800000,   0.00280,
,,,0.010099900000,   0.00256,
,,,0.010100000000,   0.00336,
,,,0.010100100000,   0.00280,
,,,0.010100200000,   0.00288,
,,,0.010100300000,   0.00256,
,,,0.010100400000,   0.00256,
,,,0.010100500000,   0.00240,
,,,0.010100600000,   0.00272,
,,,0.010100700000,   0.00272,
,,,0.010100800000,   0.00280,
,,,0.010100900000,   0.00272,
,,,0.010101000000,   0.00280,
,,,0.010101100000,   0.00304,
,,,0.010101200000,   0.00320,
,,,0.010101300000,   0.00264,
,,,0.010101400000,   0.00272,
,,,0.010101500000,   0.00264,
,,,0.010101600000,   0.00272,
,,,0.010101700000,   0.00296,
,,,0.010101800000,   0.00272,
,,,0.010101900000,   0.00280,
,,,0.010102000000,   0.00232,
,,,0.010102100000,   0.00288,
,,,0.010102200000,   0.00296,
,,,0.010102300000,   0.00264,
,,,0.010102400000,   0.00296,
,,,0.010102500000,   0.00312,
,,,0.010102600000,   0.00256,
,,,0.010102700000,   0.00280,
,,,0.010102800000,   0.00280,
,,,0.010102900000,   0.00304,
,,,0.010103000000,   0.00280,
,,,0.010103100000,   0.00272,
,,,0.010103200000,   0.00288,
,,,0.010103300000,   0.00272,
,,,0.010103400000,   0.00296,
,,,0.010103500000,   0.00312,
,,,0.010103600000,   0.00280,
,,,0.010103700000,   0.00304,
,,,0.010103800000,   0.00296,
,,,0.010103900000,   0.00232,
,,,0.010104000000,   0.00320,
,,,0.010104100000,   0.00256,
,,,0.010104200000,   0.00304,
,,,0.010104300000,   0.00264,
,,,0.010104400000,   0.00304,
,,,0.010104500000,   0.00264,
,,,0.010104600000,   0.00256,
,,,0.010104700000,   0.00256,
,,,0.010104800000,   0.00272,
,,,0.010104900000,   0.00264,
,,,0.010105000000,   0.00272,
,,,0.010105100000,   0.00232,
,,,0.010105200000,   0.00320,
,,,0.010105300000,   0.00288,
,,,0.010105400000,   0.00312,
,,,0.010105500000,   0.00248,
,,,0.010105600000,   0.00248,
,,,0.010105700000,   0.00288,
,,,0.010105800000,   0.00272,
,,,0.010105900000,   0.00280,
,,,0.010106000000,   0.00328,
,,,0.010106100000,   0.00256,
,,,0.010106200000,   0.00296,
,,,0.010106300000,   0.00296,
,,,0.010106400000,   0.00240,
,,,0.010106500000,   0.00272,
,,,0.010106600000,   0.00336,
,,,0.010106700000,   0.00320,
,,,0.010106800000,   0.00344,
,,,0.010106900000,   0.00288,
,,,0.010107000000,   0.00272,
,,,0.010107100000,   0.00296,
,,,0.010107200000,   0.00272,
,,,0.010107300000,   0.00296,
,,,0.010107400000,   0.00312,
,,,0.010107500000,   0.00296,
,,,0.010107600000,   0.00288,
,,,0.010107700000,   0.00320,
,,,0.010107800000,   0.00336,
,,,0.010107900000,   0.00272,
,,,0.010108000000,   0.00272,
,,,0.010108100000,   0.00304,
,,,0.010108200000,   0.00256,
,,,0.010108300000,   0.00288,
,,,0.010108400000,   0.00264,
,,,0.010108500000,   0.00264,
,,,0.010108600000,   0.00256,
,,,0.010108700000,   0.00248,
,,,0.010108800000,   0.00280,
,,,0.010108900000,   0.00272,
,,,0.010109000000,   0.00280,
,,,0.010109100000,   0.00296,
,,,0.010109200000,   0.00296,
,,,0.010109300000,   0.00328,
,,,0.010109400000,   0.00296,
,,,0.010109500000,   0.00280,
,,,0.010109600000,   0.00280,
,,,0.010109700000,   0.00272,
,,,0.010109800000,   0.00264,
,,,0.010109900000,   0.00304,
,,,0.010110000000,   0.00288,
,,,0.010110100000,   0.00304,
,,,0.010110200000,   0.00296,
,,,0.010110300000,   0.00320,
,,,0.010110400000,   0.00304,
,,,0.010110500000,   0.00312,
,,,0.010110600000,   0.00304,
,,,0.010110700000,   0.00328,
,,,0.010110800000,   0.00336,
,,,0.010110900000,   0.00312,
,,,0.010111000000,   0.00264,
,,,0.010111100000,   0.00336,
,,,0.010111200000,   0.00312,
,,,0.010111300000,   0.00336,
,,,0.010111400000,   0.00280,
,,,0.010111500000,   0.00288,
,,,0.010111600000,   0.00288,
,,,0.010111700000,   0.00320,
,,,0.010111800000,   0.00304,
,,,0.010111900000,   0.00320,
,,,0.010112000000,   0.00288,
,,,0.010112100000,   0.00304,
,,,0.010112200000,   0.00336,
,,,0.010112300000,   0.00256,
,,,0.010112400000,   0.00344,
,,,0.010112500000,   0.00352,
,,,0.010112600000,   0.00320,
,,,0.010112700000,   0.00304,
,,,0.010112800000,   0.00296,
,,,0.010112900000,   0.00296,
,,,0.010113000000,   0.00296,
,,,0.010113100000,   0.00312,
,,,0.010113200000,   0.00312,
,,,0.010113300000,   0.00288,
,,,0.010113400000,   0.00352,
,,,0.010113500000,   0.00272,
,,,0.010113600000,   0.00336,
,,,0.010113700000,   0.00344,
,,,0.010113800000,   0.00312,
,,,0.010113900000,   0.00376,
,,,0.010114000000,   0.00320,
,,,0.010114100000,   0.00336,
,,,0.010114200000,   0.00344,
,,,0.010114300000,   0.00344,
,,,0.010114400000,   0.00312,
,,,0.010114500000,   0.00328,
,,,0.010114600000,   0.00376,
,,,0.010114700000,   0.00408,
,,,0.010114800000,   0.00320,
,,,0.010114900000,   0.00328,
,,,0.010115000000,   0.00336,
,,,0.010115100000,   0.00352,
,,,0.010115200000,   0.00344,
,,,0.010115300000,   0.00352,
,,,0.010115400000,   0.00368,
,,,0.010115500000,   0.00344,
,,,0.010115600000,   0.00352,
,,,0.010115700000,   0.00368,
,,,0.010115800000,   0.00352,
,,,0.010115900000,   0.00360,
,,,0.010116000000,   0.00328,
,,,0.010116100000,   0.00368,
,,,0.010116200000,   0.00328,
,,,0.010116300000,   0.00320,
,,,0.010116400000,   0.00352,
,,,0.010116500000,   0.00384,
,,,0.010116600000,   0.00344,
,,,0.010116700000,   0.00408,
,,,0.010116800000,   0.00360,
,,,0.010116900000,   0.00344,
,,,0.010117000000,   0.00360,
,,,0.010117100000,   0.00368,
,,,0.010117200000,   0.00376,
,,,0.010117300000,   0.00376,
,,,0.010117400000,   0.00352,
,,,0.010117500000,   0.00368,
,,,0.010117600000,   0.00360,
,,,0.010117700000,   0.00384,
,,,0.010117800000,   0.00312,
,,,0.010117900000,   0.00336,
,,,0.010118000000,   0.00376,
,,,0.010118100000,   0.00312,
,,,0.010118200000,   0.00328,
,,,0.010118300000,   0.00328,
,,,0.010118400000,   0.00392,
,,,0.010118500000,   0.00352,
,,,0.010118600000,   0.00304,
,,,0.010118700000,   0.00384,
,,,0.010118800000,   0.00400,
,,,0.010118900000,   0.00376,
,,,0.010119000000,   0.00344,
,,,0.010119100000,   0.00384,
,,,0.010119200000,   0.00384,
,,,0.010119300000,   0.00360,
,,,0.010119400000,   0.00384,
,,,0.010119500000,   0.00336,
,,,0.010119600000,   0.00408,
,,,0.010119700000,   0.00392,
,,,0.010119800000,   0.00400,
,,,0.010119900000,   0.00400,
,,,0.010120000000,   0.00400,
,,,0.010120100000,   0.00408,
,,,0.010120200000,   0.00416,
,,,0.010120300000,   0.00368,
,,,0.010120400000,   0.00416,
,,,0.010120500000,   0.00392,
,,,0.010120600000,   0.00392,
,,,0.010120700000,   0.00440,
,,,0.010120800000,   0.00368,
,,,0.010120900000,   0.00464,
,,,0.010121000000,   0.00384,
,,,0.010121100000,   0.00408,
,,,0.010121200000,   0.00424,
,,,0.010121300000,   0.00384,
,,,0.010121400000,   0.00368,
,,,0.010121500000,   0.00448,
,,,0.010121600000,   0.00416,
,,,0.010121700000,   0.00432,
,,,0.010121800000,   0.00384,
,,,0.010121900000,   0.00408,
,,,0.010122000000,   0.00416,
,,,0.010122100000,   0.00424,
,,,0.010122200000,   0.00432,
,,,0.010122300000,   0.00384,
,,,0.010122400000,   0.00408,
,,,0.010122500000,   0.00408,
,,,0.010122600000,   0.00416,
,,,0.010122700000,   0.00432,
,,,0.010122800000,   0.00400,
,,,0.010122900000,   0.00384,
,,,0.010123000000,   0.00400,
,,,0.010123100000,   0.00416,
,,,0.010123200000,   0.00384,
,,,0.010123300000,   0.00392,
,,,0.010123400000,   0.00424,
,,,0.010123500000,   0.00400,
,,,0.010123600000,   0.00432,
,,,0.010123700000,   0.00352,
,,,0.010123800000,   0.00392,
,,,0.010123900000,   0.00368,
,,,0.010124000000,   0.00400,
,,,0.010124100000,   0.00408,
,,,0.010124200000,   0.00440,
,,,0.010124300000,   0.00432,
,,,0.010124400000,   0.00456,
,,,0.010124500000,   0.00472,
,,,0.010124600000,   0.00464,
,,,0.010124700000,   0.00424,
,,,0.010124800000,   0.00464,
,,,0.010124900000,   0.00440,
,,,0.010125000000,   0.00456,
,,,0.010125100000,   0.00456,
,,,0.010125200000,   0.00488,
,,,0.010125300000,   0.00464,
,,,0.010125400000,   0.00504,
,,,0.010125500000,   0.00440,
,,,0.010125600000,   0.00504,
,,,0.010125700000,   0.00496,
,,,0.010125800000,   0.00456,
,,,0.010125900000,   0.00464,
,,,0.010126000000,   0.00488,
,,,0.010126100000,   0.00496,
,,,0.010126200000,   0.00472,
,,,0.010126300000,   0.00464,
,,,0.010126400000,   0.00520,
,,,0.010126500000,   0.00512,
,,,0.010126600000,   0.00528,
,,,0.010126700000,   0.00480,
,,,0.010126800000,   0.00416,
,,,0.010126900000,   0.00448,
,,,0.010127000000,   0.00480,
,,,0.010127100000,   0.00472,
,,,0.010127200000,   0.00472,
,,,0.010127300000,   0.00488,
,,,0.010127400000,   0.00512,
,,,0.010127500000,   0.00464,
,,,0.010127600000,   0.00464,
,,,0.010127700000,   0.00512,
,,,0.010127800000,   0.00480,
,,,0.010127900000,   0.00448,
,,,0.010128000000,   0.00536,
,,,0.010128100000,   0.00512,
,,,0.010128200000,   0.00504,
,,,0.010128300000,   0.00456,
,,,0.010128400000,   0.00496,
,,,0.010128500000,   0.00472,
,,,0.010128600000,   0.00440,
,,,0.010128700000,   0.00496,
,,,0.010128800000,   0.00464,
,,,0.010128900000,   0.00520,
,,,0.010129000000,   0.00504,
,,,0.010129100000,   0.00488,
,,,0.010129200000,   0.00536,
,,,0.010129300000,   0.00512,
,,,0.010129400000,   0.00488,
,,,0.010129500000,   0.00576,
,,,0.010129600000,   0.00520,
,,,0.010129700000,   0.00528,
,,,0.010129800000,   0.00560,
,,,0.010129900000,   0.00560,
,,,0.010130000000,   0.00544,
,,,0.010130100000,   0.00568,
,,,0.010130200000,   0.00528,
,,,0.010130300000,   0.00568,
,,,0.010130400000,   0.00528,
,,,0.010130500000,   0.00584,
,,,0.010130600000,   0.00552,
,,,0.010130700000,   0.00568,
,,,0.010130800000,   0.00584,
,,,0.010130900000,   0.00544,
,,,0.010131000000,   0.00544,
,,,0.010131100000,   0.00528,
,,,0.010131200000,   0.00560,
,,,0.010131300000,   0.00552,
,,,0.010131400000,   0.00568,
,,,0.010131500000,   0.00592,
,,,0.010131600000,   0.00592,
,,,0.010131700000,   0.00528,
,,,0.010131800000,   0.00576,
,,,0.010131900000,   0.00560,
,,,0.010132000000,   0.00568,
,,,0.010132100000,   0.00584,
,,,0.010132200000,   0.00640,
,,,0.010132300000,   0.00632,
,,,0.010132400000,   0.00576,
,,,0.010132500000,   0.00584,
,,,0.010132600000,   0.00624,
,,,0.010132700000,   0.00560,
,,,0.010132800000,   0.00560,
,,,0.010132900000,   0.00632,
,,,0.010133000000,   0.00584,
,,,0.010133100000,   0.00632,
,,,0.010133200000,   0.00600,
,,,0.010133300000,   0.00576,
,,,0.010133400000,   0.00640,
,,,0.010133500000,   0.00600,
,,,0.010133600000,   0.00560,
,,,0.010133700000,   0.00680,
,,,0.010133800000,   0.00656,
,,,0.010133900000,   0.00624,
,,,0.010134000000,   0.00640,
,,,0.010134100000,   0.00608,
,,,0.010134200000,   0.00632,
,,,0.010134300000,   0.00664,
,,,0.010134400000,   0.00672,
,,,0.010134500000,   0.00680,
,,,0.010134600000,   0.00640,
,,,0.010134700000,   0.00672,
,,,0.010134800000,   0.00656,
,,,0.010134900000,   0.00664,
,,,0.010135000000,   0.00688,
,,,0.010135100000,   0.00656,
,,,0.010135200000,   0.00680,
,,,0.010135300000,   0.00664,
,,,0.010135400000,   0.00720,
,,,0.010135500000,   0.00648,
,,,0.010135600000,   0.00672,
,,,0.010135700000,   0.00680,
,,,0.010135800000,   0.00704,
,,,0.010135900000,   0.00704,
,,,0.010136000000,   0.00632,
,,,0.010136100000,   0.00648,
,,,0.010136200000,   0.00680,
,,,0.010136300000,   0.00688,
,,,0.010136400000,   0.00696,
,,,0.010136500000,   0.00688,
,,,0.010136600000,   0.00712,
,,,0.010136700000,   0.00712,
,,,0.010136800000,   0.00728,
,,,0.010136900000,   0.00712,
,,,0.010137000000,   0.00712,
,,,0.010137100000,   0.00744,
,,,0.010137200000,   0.00720,
,,,0.010137300000,   0.00712,
,,,0.010137400000,   0.00752,
,,,0.010137500000,   0.00736,
,,,0.010137600000,   0.00752,
,,,0.010137700000,   0.00768,
,,,0.010137800000,   0.00744,
,,,0.010137900000,   0.00768,
,,,0.010138000000,   0.00752,
,,,0.010138100000,   0.00792,
,,,0.010138200000,   0.00776,
,,,0.010138300000,   0.00760,
,,,0.010138400000,   0.00720,
,,,0.010138500000,   0.00720,
,,,0.010138600000,   0.00760,
,,,0.010138700000,   0.00768,
,,,0.010138800000,   0.00752,
,,,0.010138900000,   0.00816,
,,,0.010139000000,   0.00832,
,,,0.010139100000,   0.00816,
,,,0.010139200000,   0.00800,
,,,0.010139300000,   0.00776,
,,,0.010139400000,   0.00816,
,,,0.010139500000,   0.00760,
,,,0.010139600000,   0.00824,
,,,0.010139700000,   0.00768,
,,,0.010139800000,   0.00832,
,,,0.010139900000,   0.00832,
,,,0.010140000000,   0.00864,
,,,0.010140100000,   0.00832,
,,,0.010140200000,   0.00816,
,,,0.010140300000,   0.00808,
,,,0.010140400000,   0.00872,
,,,0.010140500000,   0.00800,
,,,0.010140600000,   0.00832,
,,,0.010140700000,   0.00880,
,,,0.010140800000,   0.00856,
,,,0.010140900000,   0.00840,
,,,0.010141000000,   0.00864,
,,,0.010141100000,   0.00824,
,,,0.010141200000,   0.00848,
,,,0.010141300000,   0.00896,
,,,0.010141400000,   0.00920,
,,,0.010141500000,   0.00856,
,,,0.010141600000,   0.00824,
,,,0.010141700000,   0.00848,
,,,0.010141800000,   0.00872,
,,,0.010141900000,   0.00872,
,,,0.010142000000,   0.00864,
,,,0.010142100000,   0.00872,
,,,0.010142200000,   0.00864,
,,,0.010142300000,   0.00872,
,,,0.010142400000,   0.00840,
,,,0.010142500000,   0.00848,
,,,0.010142600000,   0.00848,
,,,0.010142700000,   0.00848,
,,,0.010142800000,   0.00848,
,,,0.010142900000,   0.00864,
,,,0.010143000000,   0.00856,
,,,0.010143100000,   0.00880,
,,,0.010143200000,   0.00840,
,,,0.010143300000,   0.00920,
,,,0.010143400000,   0.00840,
,,,0.010143500000,   0.00888,
,,,0.010143600000,   0.00904,
,,,0.010143700000,   0.00880,
,,,0.010143800000,   0.00880,
,,,0.010143900000,   0.00888,
,,,0.010144000000,   0.00880,
,,,0.010144100000,   0.00864,
,,,0.010144200000,   0.00880,
,,,0.010144300000,   0.00864,
,,,0.010144400000,   0.00872,
,,,0.010144500000,   0.00896,
,,,0.010144600000,   0.00896,
,,,0.010144700000,   0.00912,
,,,0.010144800000,   0.00880,
,,,0.010144900000,   0.00880,
,,,0.010145000000,   0.00896,
,,,0.010145100000,   0.00840,
,,,0.010145200000,   0.00864,
,,,0.010145300000,   0.00872,
,,,0.010145400000,   0.00824,
,,,0.010145500000,   0.00856,
,,,0.010145600000,   0.00880,
,,,0.010145700000,   0.00880,
,,,0.010145800000,   0.00848,
,,,0.010145900000,   0.00832,
,,,0.010146000000,   0.00840,
,,,0.010146100000,   0.00888,
,,,0.010146200000,   0.00864,
,,,0.010146300000,   0.00904,
,,,0.010146400000,   0.00896,
,,,0.010146500000,   0.00832,
,,,0.010146600000,   0.00832,
,,,0.010146700000,   0.00872,
,,,0.010146800000,   0.00832,
,,,0.010146900000,   0.00840,
,,,0.010147000000,   0.00832,
,,,0.010147100000,   0.00864,
,,,0.010147200000,   0.00840,
,,,0.010147300000,   0.00904,
,,,0.010147400000,   0.00848,
,,,0.010147500000,   0.00872,
,,,0.010147600000,   0.00856,
,,,0.010147700000,   0.00848,
,,,0.010147800000,   0.00864,
,,,0.010147900000,   0.00872,
,,,0.010148000000,   0.00840,
,,,0.010148100000,   0.00872,
,,,0.010148200000,   0.00816,
,,,0.010148300000,   0.00808,
,,,0.010148400000,   0.00832,
,,,0.010148500000,   0.00848,
,,,0.010148600000,   0.00800,
,,,0.010148700000,   0.00840,
,,,0.010148800000,   0.00848,
,,,0.010148900000,   0.00848,
,,,0.010149000000,   0.00832,
,,,0.010149100000,   0.00856,
,,,0.010149200000,   0.00848,
,,,0.010149300000,   0.00840,
,,,0.010149400000,   0.00800,
,,,0.010149500000,   0.00848,
,,,0.010149600000,   0.00896,
,,,0.010149700000,   0.00840,
,,,0.010149800000,   0.00840,
,,,0.010149900000,   0.00904,
,,,0.010150000000,   0.00848,
,,,0.010150100000,   0.00816,
,,,0.010150200000,   0.00832,
,,,0.010150300000,   0.00864,
,,,0.010150400000,   0.00864,
,,,0.010150500000,   0.00832,
,,,0.010150600000,   0.00864,
,,,0.010150700000,   0.00872,
,,,0.010150800000,   0.00856,
,,,0.010150900000,   0.00832,
,,,0.010151000000,   0.00824,
,,,0.010151100000,   0.00864,
,,,0.010151200000,   0.00832,
,,,0.010151300000,   0.00832,
,,,0.010151400000,   0.00760,
,,,0.010151500000,   0.00800,
,,,0.010151600000,   0.00800,
,,,0.010151700000,   0.00800,
,,,0.010151800000,   0.00800,
,,,0.010151900000,   0.00800,
,,,0.010152000000,   0.00776,
,,,0.010152100000,   0.00784,
,,,0.010152200000,   0.00832,
,,,0.010152300000,   0.00776,
,,,0.010152400000,   0.00808,
,,,0.010152500000,   0.00776,
,,,0.010152600000,   0.00784,
,,,0.010152700000,   0.00768,
,,,0.010152800000,   0.00800,
,,,0.010152900000,   0.00744,
,,,0.010153000000,   0.00816,
,,,0.010153100000,   0.00792,
,,,0.010153200000,   0.00832,
,,,0.010153300000,   0.00752,
,,,0.010153400000,   0.00760,
,,,0.010153500000,   0.00752,
,,,0.010153600000,   0.00808,
,,,0.010153700000,   0.00784,
,,,0.010153800000,   0.00784,
,,,0.010153900000,   0.00784,
,,,0.010154000000,   0.00768,
,,,0.010154100000,   0.00808,
,,,0.010154200000,   0.00760,
,,,0.010154300000,   0.00824,
,,,0.010154400000,   0.00776,
,,,0.010154500000,   0.00800,
,,,0.010154600000,   0.00776,
,,,0.010154700000,   0.00792,
,,,0.010154800000,   0.00760,
,,,0.010154900000,   0.00800,
,,,0.010155000000,   0.00752,
,,,0.010155100000,   0.00744,
,,,0.010155200000,   0.00808,
,,,0.010155300000,   0.00792,
,,,0.010155400000,   0.00792,
,,,0.010155500000,   0.00768,
,,,0.010155600000,   0.00776,
,,,0.010155700000,   0.00800,
,,,0.010155800000,   0.00728,
,,,0.010155900000,   0.00792,
,,,0.010156000000,   0.00800,
,,,0.010156100000,   0.00776,
,,,0.010156200000,   0.00776,
,,,0.010156300000,   0.00752,
,,,0.010156400000,   0.00784,
