fp2/laserspektroskopie/daten/oszi/ALL0033/F0033CH2.CSV

Record Length,2.500000e+03,,   0.000500000000,  -0.00980,
Sample Interval,1.000000e-05,,   0.000510000000,  -0.00980,
Trigger Point,-5.000000000000e+01,,   0.000520000000,  -0.00960,
,,,   0.000530000000,  -0.00960,
,,,   0.000540000000,  -0.00900,
,,,   0.000550000000,  -0.00940,
Source,CH2,,   0.000560000000,  -0.00980,
Vertical Units,V,,   0.000570000000,  -0.01000,
Vertical Scale,5.000000e-03,,   0.000580000000,  -0.00920,
Vertical Offset,-8.800000e-03,,   0.000590000000,  -0.00920,
Horizontal Units,s,,   0.000600000000,  -0.00900,
Horizontal Scale,2.500000e-03,,   0.000610000000,  -0.00900,
Pt Fmt,Y,,   0.000620000000,  -0.00940,
Yzero,0.000000e+00,,   0.000630000000,  -0.00920,
Probe Atten,1.000000e+00,,   0.000640000000,  -0.00920,
Firmware Version,FV:v6.08,,   0.000650000000,  -0.00940,
,,,0.000660000000,  -0.00900,
,,,0.000670000000,  -0.00940,
,,,0.000680000000,  -0.00900,
,,,0.000690000000,  -0.00880,
,,,0.000700000000,  -0.00860,
,,,0.000710000000,  -0.00940,
,,,0.000720000000,  -0.00860,
,,,0.000730000000,  -0.00920,
,,,0.000740000000,  -0.00900,
,,,0.000750000000,  -0.00940,
,,,0.000760000000,  -0.00900,
,,,0.000770000000,  -0.00920,
,,,0.000780000000,  -0.00900,
,,,0.000790000000,  -0.00920,
,,,0.000800000000,  -0.00880,
,,,0.000810000000,  -0.00920,
,,,0.000820000000,  -0.00980,
,,,0.000830000000,  -0.00900,
,,,0.000840000000,  -0.00900,
,,,0.000850000000,  -0.00840,
,,,0.000860000000,  -0.00860,
,,,0.000870000000,  -0.00880,
,,,0.000880000000,  -0.00880,
,,,0.000890000000,  -0.00900,
,,,0.000900000000,  -0.00860,
,,,0.000910000000,  -0.00840,
,,,0.000920000000,  -0.00900,
,,,0.000930000000,  -0.00880,
,,,0.000940000000,  -0.00880,
,,,0.000950000000,  -0.00860,
,,,0.000960000000,  -0.00840,
,,,0.000970000000,  -0.00900,
,,,0.000980000000,  -0.00820,
,,,0.000990000000,  -0.00880,
,,,0.001000000000,  -0.00900,
,,,0.001010000000,  -0.00880,
,,,0.001020000000,  -0.00860,
,,,0.001030000000,  -0.00860,
,,,0.001040000000,  -0.00920,
,,,0.001050000000,  -0.00840,
,,,0.001060000000,  -0.00820,
,,,0.001070000000,  -0.00840,
,,,0.001080000000,  -0.00840,
,,,0.001090000000,  -0.00900,
,,,0.001100000000,  -0.00840,
,,,0.001110000000,  -0.00880,
,,,0.001120000000,  -0.00820,
,,,0.001130000000,  -0.00840,
,,,0.001140000000,  -0.00840,
,,,0.001150000000,  -0.00840,
,,,0.001160000000,  -0.00860,
,,,0.001170000000,  -0.00860,
,,,0.001180000000,  -0.00860,
,,,0.001190000000,  -0.00800,
,,,0.001200000000,  -0.00840,
,,,0.001210000000,  -0.00880,
,,,0.001220000000,  -0.00840,
,,,0.001230000000,  -0.00800,
,,,0.001240000000,  -0.00840,
,,,0.001250000000,  -0.00840,
,,,0.001260000000,  -0.00880,
,,,0.001270000000,  -0.00820,
,,,0.001280000000,  -0.00820,
,,,0.001290000000,  -0.00860,
,,,0.001300000000,  -0.00860,
,,,0.001310000000,  -0.00880,
,,,0.001320000000,  -0.00860,
,,,0.001330000000,  -0.00840,
,,,0.001340000000,  -0.00820,
,,,0.001350000000,  -0.00800,
,,,0.001360000000,  -0.00840,
,,,0.001370000000,  -0.00780,
,,,0.001380000000,  -0.00820,
,,,0.001390000000,  -0.00860,
,,,0.001400000000,  -0.00840,
,,,0.001410000000,  -0.00820,
,,,0.001420000000,  -0.00820,
,,,0.001430000000,  -0.00800,
,,,0.001440000000,  -0.00800,
,,,0.001450000000,  -0.00860,
,,,0.001460000000,  -0.00760,
,,,0.001470000000,  -0.00800,
,,,0.001480000000,  -0.00760,
,,,0.001490000000,  -0.00780,
,,,0.001500000000,  -0.00780,
,,,0.001510000000,  -0.00780,
,,,0.001520000000,  -0.00760,
,,,0.001530000000,  -0.00780,
,,,0.001540000000,  -0.00820,
,,,0.001550000000,  -0.00800,
,,,0.001560000000,  -0.00760,
,,,0.001570000000,  -0.00760,
,,,0.001580000000,  -0.00780,
,,,0.001590000000,  -0.00740,
,,,0.001600000000,  -0.00760,
,,,0.001610000000,  -0.00840,
,,,0.001620000000,  -0.00820,
,,,0.001630000000,  -0.00840,
,,,0.001640000000,  -0.00760,
,,,0.001650000000,  -0.00840,
,,,0.001660000000,  -0.00800,
,,,0.001670000000,  -0.00840,
,,,0.001680000000,  -0.00780,
,,,0.001690000000,  -0.00760,
,,,0.001700000000,  -0.00840,
,,,0.001710000000,  -0.00800,
,,,0.001720000000,  -0.00760,
,,,0.001730000000,  -0.00760,
,,,0.001740000000,  -0.00740,
,,,0.001750000000,  -0.00820,
,,,0.001760000000,  -0.00800,
,,,0.001770000000,  -0.00780,
,,,0.001780000000,  -0.00740,
,,,0.001790000000,  -0.00720,
,,,0.001800000000,  -0.00760,
,,,0.001810000000,  -0.00780,
,,,0.001820000000,  -0.00800,
,,,0.001830000000,  -0.00760,
,,,0.001840000000,  -0.00760,
,,,0.001850000000,  -0.00740,
,,,0.001860000000,  -0.00780,
,,,0.001870000000,  -0.00720,
,,,0.001880000000,  -0.00800,
,,,0.001890000000,  -0.00760,
,,,0.001900000000,  -0.00760,
,,,0.001910000000,  -0.00740,
,,,0.001920000000,  -0.00760,
,,,0.001930000000,  -0.00720,
,,,0.001940000000,  -0.00740,
,,,0.001950000000,  -0.00680,
,,,0.001960000000,  -0.00760,
,,,0.001970000000,  -0.00720,
,,,0.001980000000,  -0.00720,
,,,0.001990000000,  -0.00720,
,,,0.002000000000,  -0.00680,
,,,0.002010000000,  -0.00700,
,,,0.002020000000,  -0.00760,
,,,0.002030000000,  -0.00720,
,,,0.002040000000,  -0.00760,
,,,0.002050000000,  -0.00700,
,,,0.002060000000,  -0.00760,
,,,0.002070000000,  -0.00680,
,,,0.002080000000,  -0.00720,
,,,0.002090000000,  -0.00720,
,,,0.002100000000,  -0.00680,
,,,0.002110000000,  -0.00740,
,,,0.002120000000,  -0.00780,
,,,0.002130000000,  -0.00680,
,,,0.002140000000,  -0.00740,
,,,0.002150000000,  -0.00720,
,,,0.002160000000,  -0.00740,
,,,0.002170000000,  -0.00780,
,,,0.002180000000,  -0.00740,
,,,0.002190000000,  -0.00680,
,,,0.002200000000,  -0.00620,
,,,0.002210000000,  -0.00760,
,,,0.002220000000,  -0.00700,
,,,0.002230000000,  -0.00680,
,,,0.002240000000,  -0.00740,
,,,0.002250000000,  -0.00680,
,,,0.002260000000,  -0.00660,
,,,0.002270000000,  -0.00680,
,,,0.002280000000,  -0.00640,
,,,0.002290000000,  -0.00720,
,,,0.002300000000,  -0.00700,
,,,0.002310000000,  -0.00740,
,,,0.002320000000,  -0.00680,
,,,0.002330000000,  -0.00700,
,,,0.002340000000,  -0.00700,
,,,0.002350000000,  -0.00700,
,,,0.002360000000,  -0.00660,
,,,0.002370000000,  -0.00700,
,,,0.002380000000,  -0.00700,
,,,0.002390000000,  -0.00660,
,,,0.002400000000,  -0.00660,
,,,0.002410000000,  -0.00660,
,,,0.002420000000,  -0.00720,
,,,0.002430000000,  -0.00680,
,,,0.002440000000,  -0.00620,
,,,0.002450000000,  -0.00660,
,,,0.002460000000,  -0.00700,
,,,0.002470000000,  -0.00640,
,,,0.002480000000,  -0.00700,
,,,0.002490000000,  -0.00680,
,,,0.002500000000,  -0.00700,
,,,0.002510000000,  -0.00620,
,,,0.002520000000,  -0.00680,
,,,0.002530000000,  -0.00620,
,,,0.002540000000,  -0.00660,
,,,0.002550000000,  -0.00620,
,,,0.002560000000,  -0.00640,
,,,0.002570000000,  -0.00640,
,,,0.002580000000,  -0.00640,
,,,0.002590000000,  -0.00620,
,,,0.002600000000,  -0.00680,
,,,0.002610000000,  -0.00640,
,,,0.002620000000,  -0.00660,
,,,0.002630000000,  -0.00680,
,,,0.002640000000,  -0.00700,
,,,0.002650000000,  -0.00640,
,,,0.002660000000,  -0.00660,
,,,0.002670000000,  -0.00680,
,,,0.002680000000,  -0.00640,
,,,0.002690000000,  -0.00620,
,,,0.002700000000,  -0.00680,
,,,0.002710000000,  -0.00640,
,,,0.002720000000,  -0.00620,
,,,0.002730000000,  -0.00620,
,,,0.002740000000,  -0.00660,
,,,0.002750000000,  -0.00600,
,,,0.002760000000,  -0.00620,
,,,0.002770000000,  -0.00620,
,,,0.002780000000,  -0.00660,
,,,0.002790000000,  -0.00640,
,,,0.002800000000,  -0.00620,
,,,0.002810000000,  -0.00620,
,,,0.002820000000,  -0.00600,
,,,0.002830000000,  -0.00660,
,,,0.002840000000,  -0.00580,
,,,0.002850000000,  -0.00620,
,,,0.002860000000,  -0.00660,
,,,0.002870000000,  -0.00620,
,,,0.002880000000,  -0.00660,
,,,0.002890000000,  -0.00680,
,,,0.002900000000,  -0.00640,
,,,0.002910000000,  -0.00640,
,,,0.002920000000,  -0.00660,
,,,0.002930000000,  -0.00620,
,,,0.002940000000,  -0.00600,
,,,0.002950000000,  -0.00640,
,,,0.002960000000,  -0.00540,
,,,0.002970000000,  -0.00620,
,,,0.002980000000,  -0.00660,
,,,0.002990000000,  -0.00540,
,,,0.003000000000,  -0.00660,
,,,0.003010000000,  -0.00560,
,,,0.003020000000,  -0.00580,
,,,0.003030000000,  -0.00580,
,,,0.003040000000,  -0.00640,
,,,0.003050000000,  -0.00560,
,,,0.003060000000,  -0.00620,
,,,0.003070000000,  -0.00580,
,,,0.003080000000,  -0.00640,
,,,0.003090000000,  -0.00600,
,,,0.003100000000,  -0.00560,
,,,0.003110000000,  -0.00560,
,,,0.003120000000,  -0.00600,
,,,0.003130000000,  -0.00540,
,,,0.003140000000,  -0.00620,
,,,0.003150000000,  -0.00660,
,,,0.003160000000,  -0.00580,
,,,0.003170000000,  -0.00600,
,,,0.003180000000,  -0.00540,
,,,0.003190000000,  -0.00580,
,,,0.003200000000,  -0.00500,
,,,0.003210000000,  -0.00560,
,,,0.003220000000,  -0.00540,
,,,0.003230000000,  -0.00620,
,,,0.003240000000,  -0.00580,
,,,0.003250000000,  -0.00560,
,,,0.003260000000,  -0.00560,
,,,0.003270000000,  -0.00540,
,,,0.003280000000,  -0.00560,
,,,0.003290000000,  -0.00580,
,,,0.003300000000,  -0.00540,
,,,0.003310000000,  -0.00580,
,,,0.003320000000,  -0.00560,
,,,0.003330000000,  -0.00560,
,,,0.003340000000,  -0.00540,
,,,0.003350000000,  -0.00620,
,,,0.003360000000,  -0.00560,
,,,0.003370000000,  -0.00560,
,,,0.003380000000,  -0.00580,
,,,0.003390000000,  -0.00520,
,,,0.003400000000,  -0.00540,
,,,0.003410000000,  -0.00600,
,,,0.003420000000,  -0.00520,
,,,0.003430000000,  -0.00580,
,,,0.003440000000,  -0.00460,
,,,0.003450000000,  -0.00560,
,,,0.003460000000,  -0.00480,
,,,0.003470000000,  -0.00520,
,,,0.003480000000,  -0.00560,
,,,0.003490000000,  -0.00540,
,,,0.003500000000,  -0.00620,
,,,0.003510000000,  -0.00500,
,,,0.003520000000,  -0.00520,
,,,0.003530000000,  -0.00540,
,,,0.003540000000,  -0.00540,
,,,0.003550000000,  -0.00560,
,,,0.003560000000,  -0.00560,
,,,0.003570000000,  -0.00580,
,,,0.003580000000,  -0.00580,
,,,0.003590000000,  -0.00480,
,,,0.003600000000,  -0.00460,
,,,0.003610000000,  -0.00460,
,,,0.003620000000,  -0.00520,
,,,0.003630000000,  -0.00500,
,,,0.003640000000,  -0.00500,
,,,0.003650000000,  -0.00520,
,,,0.003660000000,  -0.00600,
,,,0.003670000000,  -0.00480,
,,,0.003680000000,  -0.00480,
,,,0.003690000000,  -0.00520,
,,,0.003700000000,  -0.00460,
,,,0.003710000000,  -0.00500,
,,,0.003720000000,  -0.00460,
,,,0.003730000000,  -0.00520,
,,,0.003740000000,  -0.00480,
,,,0.003750000000,  -0.00480,
,,,0.003760000000,  -0.00460,
,,,0.003770000000,  -0.00480,
,,,0.003780000000,  -0.00480,
,,,0.003790000000,  -0.00500,
,,,0.003800000000,  -0.00460,
,,,0.003810000000,  -0.00520,
,,,0.003820000000,  -0.00460,
,,,0.003830000000,  -0.00540,
,,,0.003840000000,  -0.00460,
,,,0.003850000000,  -0.00400,
,,,0.003860000000,  -0.00500,
,,,0.003870000000,  -0.00440,
,,,0.003880000000,  -0.00460,
,,,0.003890000000,  -0.00460,
,,,0.003900000000,  -0.00460,
,,,0.003910000000,  -0.00480,
,,,0.003920000000,  -0.00460,
,,,0.003930000000,  -0.00460,
,,,0.003940000000,  -0.00440,
,,,0.003950000000,  -0.00460,
,,,0.003960000000,  -0.00500,
,,,0.003970000000,  -0.00420,
,,,0.003980000000,  -0.00440,
,,,0.003990000000,  -0.00540,
,,,0.004000000000,  -0.00420,
,,,0.004010000000,  -0.00460,
,,,0.004020000000,  -0.00420,
,,,0.004030000000,  -0.00460,
,,,0.004040000000,  -0.00440,
,,,0.004050000000,  -0.00460,
,,,0.004060000000,  -0.00460,
,,,0.004070000000,  -0.00440,
,,,0.004080000000,  -0.00420,
,,,0.004090000000,  -0.00460,
,,,0.004100000000,  -0.00420,
,,,0.004110000000,  -0.00460,
,,,0.004120000000,  -0.00460,
,,,0.004130000000,  -0.00420,
,,,0.004140000000,  -0.00400,
,,,0.004150000000,  -0.00440,
,,,0.004160000000,  -0.00420,
,,,0.004170000000,  -0.00440,
,,,0.004180000000,  -0.00420,
,,,0.004190000000,  -0.00440,
,,,0.004200000000,  -0.00360,
,,,0.004210000000,  -0.00400,
,,,0.004220000000,  -0.00360,
,,,0.004230000000,  -0.00420,
,,,0.004240000000,  -0.00400,
,,,0.004250000000,  -0.00460,
,,,0.004260000000,  -0.00480,
,,,0.004270000000,  -0.00380,
,,,0.004280000000,  -0.00420,
,,,0.004290000000,  -0.00440,
,,,0.004300000000,  -0.00400,
,,,0.004310000000,  -0.00420,
,,,0.004320000000,  -0.00380,
,,,0.004330000000,  -0.00420,
,,,0.004340000000,  -0.00380,
,,,0.004350000000,  -0.00380,
,,,0.004360000000,  -0.00380,
,,,0.004370000000,  -0.00380,
,,,0.004380000000,  -0.00420,
,,,0.004390000000,  -0.00340,
,,,0.004400000000,  -0.00400,
,,,0.004410000000,  -0.00420,
,,,0.004420000000,  -0.00340,
,,,0.004430000000,  -0.00300,
,,,0.004440000000,  -0.00360,
,,,0.004450000000,  -0.00340,
,,,0.004460000000,  -0.00380,
,,,0.004470000000,  -0.00300,
,,,0.004480000000,  -0.00380,
,,,0.004490000000,  -0.00340,
,,,0.004500000000,  -0.00380,
,,,0.004510000000,  -0.00400,
,,,0.004520000000,  -0.00400,
,,,0.004530000000,  -0.00340,
,,,0.004540000000,  -0.00320,
,,,0.004550000000,  -0.00400,
,,,0.004560000000,  -0.00380,
,,,0.004570000000,  -0.00320,
,,,0.004580000000,  -0.00340,
,,,0.004590000000,  -0.00340,
,,,0.004600000000,  -0.00340,
,,,0.004610000000,  -0.00320,
,,,0.004620000000,  -0.00340,
,,,0.004630000000,  -0.00320,
,,,0.004640000000,  -0.00300,
,,,0.004650000000,  -0.00320,
,,,0.004660000000,  -0.00300,
,,,0.004670000000,  -0.00340,
,,,0.004680000000,  -0.00320,
,,,0.004690000000,  -0.00320,
,,,0.004700000000,  -0.00320,
,,,0.004710000000,  -0.00340,
,,,0.004720000000,  -0.00320,
,,,0.004730000000,  -0.00340,
,,,0.004740000000,  -0.00360,
,,,0.004750000000,  -0.00320,
,,,0.004760000000,  -0.00300,
,,,0.004770000000,  -0.00380,
,,,0.004780000000,  -0.00280,
,,,0.004790000000,  -0.00360,
,,,0.004800000000,  -0.00300,
,,,0.004810000000,  -0.00360,
,,,0.004820000000,  -0.00280,
,,,0.004830000000,  -0.00320,
,,,0.004840000000,  -0.00320,
,,,0.004850000000,  -0.00280,
,,,0.004860000000,  -0.00340,
,,,0.004870000000,  -0.00320,
,,,0.004880000000,  -0.00300,
,,,0.004890000000,  -0.00280,
,,,0.004900000000,  -0.00300,
,,,0.004910000000,  -0.00260,
,,,0.004920000000,  -0.00300,
,,,0.004930000000,  -0.00280,
,,,0.004940000000,  -0.00320,
,,,0.004950000000,  -0.00240,
,,,0.004960000000,  -0.00280,
,,,0.004970000000,  -0.00300,
,,,0.004980000000,  -0.00260,
,,,0.004990000000,  -0.00300,
,,,0.005000000000,  -0.00240,
,,,0.005010000000,  -0.00340,
,,,0.005020000000,  -0.00280,
,,,0.005030000000,  -0.00300,
,,,0.005040000000,  -0.00300,
,,,0.005050000000,  -0.00300,
,,,0.005060000000,  -0.00260,
,,,0.005070000000,  -0.00260,
,,,0.005080000000,  -0.00200,
,,,0.005090000000,  -0.00280,
,,,0.005100000000,  -0.00260,
,,,0.005110000000,  -0.00280,
,,,0.005120000000,  -0.00300,
,,,0.005130000000,  -0.00260,
,,,0.005140000000,  -0.00300,
,,,0.005150000000,  -0.00260,
,,,0.005160000000,  -0.00200,
,,,0.005170000000,  -0.00280,
,,,0.005180000000,  -0.00280,
,,,0.005190000000,  -0.00280,
,,,0.005200000000,  -0.00240,
,,,0.005210000000,  -0.00260,
,,,0.005220000000,  -0.00320,
,,,0.005230000000,  -0.00260,
,,,0.005240000000,  -0.00260,
,,,0.005250000000,  -0.00200,
,,,0.005260000000,  -0.00180,
,,,0.005270000000,  -0.00200,
,,,0.005280000000,  -0.00260,
,,,0.005290000000,  -0.00300,
,,,0.005300000000,  -0.00180,
,,,0.005310000000,  -0.00260,
,,,0.005320000000,  -0.00280,
,,,0.005330000000,  -0.00280,
,,,0.005340000000,  -0.00220,
,,,0.005350000000,  -0.00240,
,,,0.005360000000,  -0.00180,
,,,0.005370000000,  -0.00300,
,,,0.005380000000,  -0.00240,
,,,0.005390000000,  -0.00220,
,,,0.005400000000,  -0.00240,
,,,0.005410000000,  -0.00240,
,,,0.005420000000,  -0.00240,
,,,0.005430000000,  -0.00220,
,,,0.005440000000,  -0.00160,
,,,0.005450000000,  -0.00200,
,,,0.005460000000,  -0.00240,
,,,0.005470000000,  -0.00260,
,,,0.005480000000,  -0.00220,
,,,0.005490000000,  -0.00260,
,,,0.005500000000,  -0.00200,
,,,0.005510000000,  -0.00240,
,,,0.005520000000,  -0.00280,
,,,0.005530000000,  -0.00200,
,,,0.005540000000,  -0.00200,
,,,0.005550000000,  -0.00240,
,,,0.005560000000,  -0.00240,
,,,0.005570000000,  -0.00220,
,,,0.005580000000,  -0.00240,
,,,0.005590000000,  -0.00180,
,,,0.005600000000,  -0.00200,
,,,0.005610000000,  -0.00220,
,,,0.005620000000,  -0.00200,
,,,0.005630000000,  -0.00200,
,,,0.005640000000,  -0.00220,
,,,0.005650000000,  -0.00160,
,,,0.005660000000,  -0.00180,
,,,0.005670000000,  -0.00180,
,,,0.005680000000,  -0.00180,
,,,0.005690000000,  -0.00220,
,,,0.005700000000,  -0.00220,
,,,0.005710000000,  -0.00240,
,,,0.005720000000,  -0.00180,
,,,0.005730000000,  -0.00260,
,,,0.005740000000,  -0.00140,
,,,0.005750000000,  -0.00120,
,,,0.005760000000,  -0.00120,
,,,0.005770000000,  -0.00140,
,,,0.005780000000,  -0.00240,
,,,0.005790000000,  -0.00120,
,,,0.005800000000,  -0.00140,
,,,0.005810000000,  -0.00160,
,,,0.005820000000,  -0.00160,
,,,0.005830000000,  -0.00180,
,,,0.005840000000,  -0.00160,
,,,0.005850000000,  -0.00160,
,,,0.005860000000,  -0.00180,
,,,0.005870000000,  -0.00200,
,,,0.005880000000,  -0.00180,
,,,0.005890000000,  -0.00180,
,,,0.005900000000,  -0.00160,
,,,0.005910000000,  -0.00160,
,,,0.005920000000,  -0.00180,
,,,0.005930000000,  -0.00220,
,,,0.005940000000,  -0.00180,
,,,0.005950000000,  -0.00160,
,,,0.005960000000,  -0.00180,
,,,0.005970000000,  -0.00100,
,,,0.005980000000,  -0.00140,
,,,0.005990000000,  -0.00140,
,,,0.006000000000,  -0.00140,
,,,0.006010000000,  -0.00160,
,,,0.006020000000,  -0.00160,
,,,0.006030000000,  -0.00100,
,,,0.006040000000,  -0.00120,
,,,0.006050000000,  -0.00200,
,,,0.006060000000,  -0.00160,
,,,0.006070000000,  -0.00160,
,,,0.006080000000,  -0.00120,
,,,0.006090000000,  -0.00180,
,,,0.006100000000,  -0.00160,
,,,0.006110000000,  -0.00160,
,,,0.006120000000,  -0.00140,
,,,0.006130000000,  -0.00160,
,,,0.006140000000,  -0.00160,
,,,0.006150000000,  -0.00140,
,,,0.006160000000,  -0.00140,
,,,0.006170000000,  -0.00120,
,,,0.006180000000,  -0.00180,
,,,0.006190000000,  -0.00160,
,,,0.006200000000,  -0.00200,
,,,0.006210000000,  -0.00160,
,,,0.006220000000,  -0.00120,
,,,0.006230000000,  -0.00080,
,,,0.006240000000,  -0.00080,
,,,0.006250000000,  -0.00120,
,,,0.006260000000,  -0.00120,
,,,0.006270000000,  -0.00100,
,,,0.006280000000,  -0.00140,
,,,0.006290000000,  -0.00120,
,,,0.006300000000,  -0.00100,
,,,0.006310000000,  -0.00080,
,,,0.006320000000,  -0.00140,
,,,0.006330000000,  -0.00140,
,,,0.006340000000,  -0.00100,
,,,0.006350000000,  -0.00100,
,,,0.006360000000,  -0.00100,
,,,0.006370000000,  -0.00060,
,,,0.006380000000,  -0.00080,
,,,0.006390000000,  -0.00100,
,,,0.006400000000,  -0.00200,
,,,0.006410000000,  -0.00120,
,,,0.006420000000,  -0.00180,
,,,0.006430000000,  -0.00120,
,,,0.006440000000,  -0.00120,
,,,0.006450000000,  -0.00140,
,,,0.006460000000,  -0.00080,
,,,0.006470000000,  -0.00080,
,,,0.006480000000,  -0.00160,
,,,0.006490000000,  -0.00120,
,,,0.006500000000,  -0.00080,
,,,0.006510000000,  -0.00120,
,,,0.006520000000,  -0.00100,
,,,0.006530000000,  -0.00100,
,,,0.006540000000,  -0.00040,
,,,0.006550000000,  -0.00140,
,,,0.006560000000,  -0.00080,
,,,0.006570000000,  -0.00100,
,,,0.006580000000,  -0.00100,
,,,0.006590000000,  -0.00060,
,,,0.006600000000,  -0.00080,
,,,0.006610000000,  -0.00080,
,,,0.006620000000,  -0.00120,
,,,0.006630000000,  -0.00100,
,,,0.006640000000,  -0.00080,
,,,0.006650000000,  -0.00020,
,,,0.006660000000,  -0.00020,
,,,0.006670000000,  -0.00040,
,,,0.006680000000,  -0.00100,
,,,0.006690000000,  -0.00020,
,,,0.006700000000,  -0.00080,
,,,0.006710000000,  -0.00120,
,,,0.006720000000,  -0.00020,
,,,0.006730000000,  -0.00080,
,,,0.006740000000,  -0.00080,
,,,0.006750000000,  -0.00060,
,,,0.006760000000,  -0.00040,
,,,0.006770000000,  -0.00100,
,,,0.006780000000,  -0.00100,
,,,0.006790000000,  -0.00040,
,,,0.006800000000,  -0.00040,
,,,0.006810000000,  -0.00100,
,,,0.006820000000,  -0.00080,
,,,0.006830000000,  -0.00060,
,,,0.006840000000,  -0.00020,
,,,0.006850000000,  -0.00080,
,,,0.006860000000,  -0.00020,
,,,0.006870000000,  -0.00040,
,,,0.006880000000,  -0.00060,
,,,0.006890000000,  -0.00040,
,,,0.006900000000,  -0.00060,
,,,0.006910000000,  -0.00060,
,,,0.006920000000,  -0.00020,
,,,0.006930000000,  -0.00060,
,,,0.006940000000,  -0.00060,
,,,0.006950000000,  -0.00060,
,,,0.006960000000,  -0.00080,
,,,0.006970000000,  -0.00040,
,,,0.006980000000,  -0.00020,
,,,0.006990000000,  -0.00080,
,,,0.007000000000,  -0.00100,
,,,0.007010000000,  -0.00040,
,,,0.007020000000,  -0.00060,
,,,0.007030000000,   0.00000,
,,,0.007040000000,  -0.00020,
