trunk/fp2/laserspektroskopie/daten/oszi/ALL0030/F0030CH1.CSV

Record Length,2.500000e+03,,   0.010510000000,   0.00000,
Sample Interval,1.000000e-06,,   0.010511000000,   0.00000,
Trigger Point,-1.051000000000e+04,,   0.010512000000,   0.00000,
,,,   0.010513000000,  -0.00080,
,,,   0.010514000000,   0.00080,
,,,   0.010515000000,   0.00000,
Source,CH1,,   0.010516000000,   0.00080,
Vertical Units,V,,   0.010517000000,  -0.00080,
Vertical Scale,2.000000e-02,,   0.010518000000,  -0.00080,
Vertical Offset,-7.760000e-02,,   0.010519000000,   0.00000,
Horizontal Units,s,,   0.010520000000,   0.00080,
Horizontal Scale,2.500000e-04,,   0.010521000000,  -0.00080,
Pt Fmt,Y,,   0.010522000000,   0.00160,
Yzero,0.000000e+00,,   0.010523000000,   0.00080,
Probe Atten,1.000000e+00,,   0.010524000000,  -0.00080,
Firmware Version,FV:v6.08,,   0.010525000000,  -0.00080,
,,,0.010526000000,   0.00000,
,,,0.010527000000,   0.00000,
,,,0.010528000000,  -0.00080,
,,,0.010529000000,  -0.00080,
,,,0.010530000000,  -0.00160,
,,,0.010531000000,  -0.00080,
,,,0.010532000000,   0.00000,
,,,0.010533000000,  -0.00080,
,,,0.010534000000,   0.00000,
,,,0.010535000000,   0.00000,
,,,0.010536000000,  -0.00160,
,,,0.010537000000,  -0.00080,
,,,0.010538000000,  -0.00080,
,,,0.010539000000,   0.00080,
,,,0.010540000000,   0.00000,
,,,0.010541000000,   0.00000,
,,,0.010542000000,  -0.00080,
,,,0.010543000000,   0.00000,
,,,0.010544000000,  -0.00240,
,,,0.010545000000,   0.00000,
,,,0.010546000000,  -0.00160,
,,,0.010547000000,   0.00080,
,,,0.010548000000,   0.00000,
,,,0.010549000000,   0.00000,
,,,0.010550000000,   0.00000,
,,,0.010551000000,  -0.00240,
,,,0.010552000000,   0.00000,
,,,0.010553000000,   0.00000,
,,,0.010554000000,  -0.00160,
,,,0.010555000000,   0.00000,
,,,0.010556000000,  -0.00080,
,,,0.010557000000,  -0.00160,
,,,0.010558000000,   0.00000,
,,,0.010559000000,   0.00000,
,,,0.010560000000,   0.00080,
,,,0.010561000000,   0.00000,
,,,0.010562000000,  -0.00160,
,,,0.010563000000,  -0.00080,
,,,0.010564000000,   0.00000,
,,,0.010565000000,  -0.00080,
,,,0.010566000000,   0.00080,
,,,0.010567000000,   0.00160,
,,,0.010568000000,  -0.00080,
,,,0.010569000000,  -0.00160,
,,,0.010570000000,   0.00080,
,,,0.010571000000,   0.00000,
,,,0.010572000000,  -0.00080,
,,,0.010573000000,   0.00160,
,,,0.010574000000,   0.00000,
,,,0.010575000000,  -0.00160,
,,,0.010576000000,  -0.00080,
,,,0.010577000000,  -0.00240,
,,,0.010578000000,   0.00000,
,,,0.010579000000,   0.00000,
,,,0.010580000000,   0.00160,
,,,0.010581000000,   0.00000,
,,,0.010582000000,  -0.00160,
,,,0.010583000000,  -0.00080,
,,,0.010584000000,  -0.00160,
,,,0.010585000000,   0.00000,
,,,0.010586000000,   0.00000,
,,,0.010587000000,  -0.00080,
,,,0.010588000000,  -0.00160,
,,,0.010589000000,   0.00000,
,,,0.010590000000,  -0.00240,
,,,0.010591000000,   0.00000,
,,,0.010592000000,   0.00000,
,,,0.010593000000,  -0.00160,
,,,0.010594000000,  -0.00160,
,,,0.010595000000,  -0.00160,
,,,0.010596000000,   0.00000,
,,,0.010597000000,  -0.00080,
,,,0.010598000000,   0.00160,
,,,0.010599000000,  -0.00160,
,,,0.010600000000,   0.00000,
,,,0.010601000000,   0.00000,
,,,0.010602000000,  -0.00080,
,,,0.010603000000,   0.00000,
,,,0.010604000000,  -0.00080,
,,,0.010605000000,   0.00000,
,,,0.010606000000,  -0.00080,
,,,0.010607000000,  -0.00160,
,,,0.010608000000,  -0.00080,
,,,0.010609000000,   0.00000,
,,,0.010610000000,   0.00000,
,,,0.010611000000,   0.00000,
,,,0.010612000000,  -0.00080,
,,,0.010613000000,  -0.00080,
,,,0.010614000000,  -0.00080,
,,,0.010615000000,   0.00000,
,,,0.010616000000,  -0.00080,
,,,0.010617000000,   0.00000,
,,,0.010618000000,   0.00000,
,,,0.010619000000,  -0.00160,
,,,0.010620000000,  -0.00080,
,,,0.010621000000,  -0.00160,
,,,0.010622000000,   0.00080,
,,,0.010623000000,   0.00000,
,,,0.010624000000,   0.00000,
,,,0.010625000000,  -0.00160,
,,,0.010626000000,   0.00000,
,,,0.010627000000,  -0.00080,
,,,0.010628000000,   0.00000,
,,,0.010629000000,  -0.00080,
,,,0.010630000000,   0.00080,
,,,0.010631000000,   0.00000,
,,,0.010632000000,  -0.00080,
,,,0.010633000000,  -0.00240,
,,,0.010634000000,   0.00000,
,,,0.010635000000,   0.00000,
,,,0.010636000000,   0.00080,
,,,0.010637000000,  -0.00080,
,,,0.010638000000,   0.00000,
,,,0.010639000000,   0.00080,
,,,0.010640000000,  -0.00080,
,,,0.010641000000,  -0.00080,
,,,0.010642000000,   0.00000,
,,,0.010643000000,   0.00000,
,,,0.010644000000,   0.00000,
,,,0.010645000000,   0.00160,
,,,0.010646000000,  -0.00080,
,,,0.010647000000,  -0.00160,
,,,0.010648000000,  -0.00080,
,,,0.010649000000,  -0.00080,
,,,0.010650000000,   0.00000,
,,,0.010651000000,   0.00000,
,,,0.010652000000,   0.00000,
,,,0.010653000000,  -0.00080,
,,,0.010654000000,   0.00000,
,,,0.010655000000,   0.00000,
,,,0.010656000000,  -0.00080,
,,,0.010657000000,  -0.00080,
,,,0.010658000000,  -0.00080,
,,,0.010659000000,   0.00000,
,,,0.010660000000,  -0.00160,
,,,0.010661000000,   0.00000,
,,,0.010662000000,   0.00000,
,,,0.010663000000,   0.00080,
,,,0.010664000000,   0.00000,
,,,0.010665000000,  -0.00160,
,,,0.010666000000,  -0.00080,
,,,0.010667000000,   0.00000,
,,,0.010668000000,   0.00160,
,,,0.010669000000,   0.00000,
,,,0.010670000000,   0.00080,
,,,0.010671000000,  -0.00080,
,,,0.010672000000,  -0.00080,
,,,0.010673000000,   0.00000,
,,,0.010674000000,   0.00080,
,,,0.010675000000,  -0.00080,
,,,0.010676000000,  -0.00080,
,,,0.010677000000,   0.00000,
,,,0.010678000000,   0.00000,
,,,0.010679000000,  -0.00160,
,,,0.010680000000,  -0.00080,
,,,0.010681000000,  -0.00240,
,,,0.010682000000,   0.00000,
,,,0.010683000000,   0.00000,
,,,0.010684000000,  -0.00160,
,,,0.010685000000,  -0.00080,
,,,0.010686000000,  -0.00240,
,,,0.010687000000,   0.00000,
,,,0.010688000000,   0.00000,
,,,0.010689000000,  -0.00080,
,,,0.010690000000,   0.00000,
,,,0.010691000000,   0.00000,
,,,0.010692000000,   0.00000,
,,,0.010693000000,  -0.00080,
,,,0.010694000000,   0.00080,
,,,0.010695000000,  -0.00080,
,,,0.010696000000,  -0.00160,
,,,0.010697000000,   0.00080,
,,,0.010698000000,   0.00000,
,,,0.010699000000,   0.00160,
,,,0.010700000000,   0.00000,
,,,0.010701000000,   0.00000,
,,,0.010702000000,  -0.00080,
,,,0.010703000000,  -0.00160,
,,,0.010704000000,   0.00080,
,,,0.010705000000,   0.00000,
,,,0.010706000000,   0.00000,
,,,0.010707000000,   0.00000,
,,,0.010708000000,   0.00080,
,,,0.010709000000,  -0.00080,
,,,0.010710000000,   0.00000,
,,,0.010711000000,   0.00000,
,,,0.010712000000,   0.00000,
,,,0.010713000000,   0.00000,
,,,0.010714000000,   0.00000,
,,,0.010715000000,   0.00000,
,,,0.010716000000,   0.00000,
,,,0.010717000000,   0.00000,
,,,0.010718000000,   0.00000,
,,,0.010719000000,   0.00000,
,,,0.010720000000,   0.00080,
,,,0.010721000000,  -0.00080,
,,,0.010722000000,  -0.00080,
,,,0.010723000000,  -0.00160,
,,,0.010724000000,   0.00080,
,,,0.010725000000,  -0.00240,
,,,0.010726000000,   0.00160,
,,,0.010727000000,  -0.00160,
,,,0.010728000000,   0.00000,
,,,0.010729000000,   0.00000,
,,,0.010730000000,  -0.00160,
,,,0.010731000000,   0.00000,
,,,0.010732000000,   0.00080,
,,,0.010733000000,   0.00080,
,,,0.010734000000,   0.00000,
,,,0.010735000000,  -0.00160,
,,,0.010736000000,   0.00000,
,,,0.010737000000,   0.00000,
,,,0.010738000000,   0.00000,
,,,0.010739000000,   0.00000,
,,,0.010740000000,   0.00000,
,,,0.010741000000,   0.00000,
,,,0.010742000000,  -0.00080,
,,,0.010743000000,   0.00000,
,,,0.010744000000,  -0.00080,
,,,0.010745000000,   0.00000,
,,,0.010746000000,  -0.00160,
,,,0.010747000000,   0.00000,
,,,0.010748000000,  -0.00160,
,,,0.010749000000,  -0.00080,
,,,0.010750000000,   0.00000,
,,,0.010751000000,   0.00080,
,,,0.010752000000,  -0.00160,
,,,0.010753000000,   0.00000,
,,,0.010754000000,   0.00000,
,,,0.010755000000,   0.00000,
,,,0.010756000000,   0.00000,
,,,0.010757000000,   0.00000,
,,,0.010758000000,   0.00000,
,,,0.010759000000,   0.00000,
,,,0.010760000000,   0.00000,
,,,0.010761000000,  -0.00160,
,,,0.010762000000,   0.00000,
,,,0.010763000000,  -0.00080,
,,,0.010764000000,  -0.00080,
,,,0.010765000000,   0.00000,
,,,0.010766000000,  -0.00080,
,,,0.010767000000,   0.00000,
,,,0.010768000000,  -0.00080,
,,,0.010769000000,  -0.00080,
,,,0.010770000000,   0.00000,
,,,0.010771000000,   0.00000,
,,,0.010772000000,   0.00000,
,,,0.010773000000,   0.00080,
,,,0.010774000000,   0.00080,
,,,0.010775000000,   0.00000,
,,,0.010776000000,  -0.00080,
,,,0.010777000000,   0.00000,
,,,0.010778000000,   0.00000,
,,,0.010779000000,   0.00000,
,,,0.010780000000,  -0.00160,
,,,0.010781000000,  -0.00080,
,,,0.010782000000,  -0.00080,
,,,0.010783000000,   0.00000,
,,,0.010784000000,   0.00000,
,,,0.010785000000,   0.00000,
,,,0.010786000000,  -0.00080,
,,,0.010787000000,  -0.00080,
,,,0.010788000000,   0.00000,
,,,0.010789000000,  -0.00160,
,,,0.010790000000,   0.00080,
,,,0.010791000000,  -0.00080,
,,,0.010792000000,   0.00000,
,,,0.010793000000,   0.00000,
,,,0.010794000000,   0.00000,
,,,0.010795000000,   0.00000,
,,,0.010796000000,   0.00000,
,,,0.010797000000,   0.00000,
,,,0.010798000000,   0.00000,
,,,0.010799000000,   0.00000,
,,,0.010800000000,  -0.00080,
,,,0.010801000000,  -0.00160,
,,,0.010802000000,  -0.00160,
,,,0.010803000000,  -0.00080,
,,,0.010804000000,  -0.00080,
,,,0.010805000000,   0.00000,
,,,0.010806000000,   0.00000,
,,,0.010807000000,   0.00000,
,,,0.010808000000,  -0.00080,
,,,0.010809000000,   0.00000,
,,,0.010810000000,   0.00000,
,,,0.010811000000,   0.00080,
,,,0.010812000000,  -0.00160,
,,,0.010813000000,  -0.00080,
,,,0.010814000000,   0.00080,
,,,0.010815000000,   0.00080,
,,,0.010816000000,   0.00000,
,,,0.010817000000,   0.00000,
,,,0.010818000000,   0.00000,
,,,0.010819000000,  -0.00240,
,,,0.010820000000,  -0.00080,
,,,0.010821000000,   0.00080,
,,,0.010822000000,   0.00080,
,,,0.010823000000,  -0.00080,
,,,0.010824000000,  -0.00080,
,,,0.010825000000,  -0.00160,
,,,0.010826000000,   0.00000,
,,,0.010827000000,   0.00000,
,,,0.010828000000,  -0.00080,
,,,0.010829000000,   0.00160,
,,,0.010830000000,   0.00000,
,,,0.010831000000,  -0.00080,
,,,0.010832000000,  -0.00080,
,,,0.010833000000,  -0.00080,
,,,0.010834000000,   0.00000,
,,,0.010835000000,   0.00000,
,,,0.010836000000,  -0.00160,
,,,0.010837000000,  -0.00160,
,,,0.010838000000,  -0.00160,
,,,0.010839000000,  -0.00080,
,,,0.010840000000,   0.00000,
,,,0.010841000000,  -0.00160,
,,,0.010842000000,  -0.00080,
,,,0.010843000000,   0.00000,
,,,0.010844000000,   0.00000,
,,,0.010845000000,  -0.00080,
,,,0.010846000000,  -0.00160,
,,,0.010847000000,  -0.00080,
,,,0.010848000000,  -0.00080,
,,,0.010849000000,  -0.00080,
,,,0.010850000000,   0.00000,
,,,0.010851000000,  -0.00080,
,,,0.010852000000,   0.00000,
,,,0.010853000000,  -0.00080,
,,,0.010854000000,  -0.00080,
,,,0.010855000000,  -0.00080,
,,,0.010856000000,  -0.00080,
,,,0.010857000000,  -0.00160,
,,,0.010858000000,  -0.00160,
,,,0.010859000000,   0.00000,
,,,0.010860000000,   0.00000,
,,,0.010861000000,   0.00080,
,,,0.010862000000,   0.00080,
,,,0.010863000000,   0.00000,
,,,0.010864000000,  -0.00080,
,,,0.010865000000,   0.00000,
,,,0.010866000000,  -0.00080,
,,,0.010867000000,   0.00160,
,,,0.010868000000,   0.00000,
,,,0.010869000000,  -0.00080,
,,,0.010870000000,  -0.00160,
,,,0.010871000000,  -0.00080,
,,,0.010872000000,   0.00080,
,,,0.010873000000,   0.00000,
,,,0.010874000000,   0.00000,
,,,0.010875000000,   0.00000,
,,,0.010876000000,   0.00000,
,,,0.010877000000,  -0.00080,
,,,0.010878000000,   0.00080,
,,,0.010879000000,   0.00000,
,,,0.010880000000,   0.00000,
,,,0.010881000000,   0.00000,
,,,0.010882000000,   0.00000,
,,,0.010883000000,  -0.00080,
,,,0.010884000000,  -0.00080,
,,,0.010885000000,   0.00240,
,,,0.010886000000,  -0.00080,
,,,0.010887000000,   0.00000,
,,,0.010888000000,   0.00000,
,,,0.010889000000,  -0.00160,
,,,0.010890000000,  -0.00240,
,,,0.010891000000,   0.00000,
,,,0.010892000000,   0.00160,
,,,0.010893000000,   0.00080,
,,,0.010894000000,   0.00080,
,,,0.010895000000,   0.00000,
,,,0.010896000000,   0.00000,
,,,0.010897000000,   0.00000,
,,,0.010898000000,  -0.00160,
,,,0.010899000000,  -0.00080,
,,,0.010900000000,   0.00000,
,,,0.010901000000,  -0.00160,
,,,0.010902000000,  -0.00080,
,,,0.010903000000,   0.00080,
,,,0.010904000000,   0.00000,
,,,0.010905000000,  -0.00080,
,,,0.010906000000,   0.00080,
,,,0.010907000000,   0.00000,
,,,0.010908000000,   0.00000,
,,,0.010909000000,  -0.00080,
,,,0.010910000000,   0.00000,
,,,0.010911000000,  -0.00080,
,,,0.010912000000,  -0.00080,
,,,0.010913000000,   0.00000,
,,,0.010914000000,   0.00000,
,,,0.010915000000,  -0.00160,
,,,0.010916000000,   0.00000,
,,,0.010917000000,   0.00000,
,,,0.010918000000,  -0.00160,
,,,0.010919000000,   0.00000,
,,,0.010920000000,  -0.00160,
,,,0.010921000000,   0.00000,
,,,0.010922000000,   0.00000,
,,,0.010923000000,   0.00160,
,,,0.010924000000,   0.00080,
,,,0.010925000000,  -0.00080,
,,,0.010926000000,   0.00000,
,,,0.010927000000,  -0.00160,
,,,0.010928000000,  -0.00080,
,,,0.010929000000,  -0.00160,
,,,0.010930000000,   0.00000,
,,,0.010931000000,   0.00000,
,,,0.010932000000,  -0.00160,
,,,0.010933000000,  -0.00160,
,,,0.010934000000,  -0.00080,
,,,0.010935000000,   0.00000,
,,,0.010936000000,   0.00000,
,,,0.010937000000,  -0.00080,
,,,0.010938000000,   0.00000,
,,,0.010939000000,  -0.00080,
,,,0.010940000000,   0.00000,
,,,0.010941000000,  -0.00080,
,,,0.010942000000,  -0.00080,
,,,0.010943000000,   0.00000,
,,,0.010944000000,  -0.00080,
,,,0.010945000000,  -0.00240,
,,,0.010946000000,  -0.00160,
,,,0.010947000000,  -0.00080,
,,,0.010948000000,  -0.00080,
,,,0.010949000000,   0.00000,
,,,0.010950000000,  -0.00080,
,,,0.010951000000,  -0.00080,
,,,0.010952000000,   0.00080,
,,,0.010953000000,  -0.00160,
,,,0.010954000000,   0.00000,
,,,0.010955000000,   0.00000,
,,,0.010956000000,   0.00080,
,,,0.010957000000,   0.00000,
,,,0.010958000000,  -0.00160,
,,,0.010959000000,   0.00000,
,,,0.010960000000,  -0.00080,
,,,0.010961000000,  -0.00080,
,,,0.010962000000,  -0.00080,
,,,0.010963000000,  -0.00080,
,,,0.010964000000,  -0.00080,
,,,0.010965000000,  -0.00160,
,,,0.010966000000,   0.00000,
,,,0.010967000000,   0.00000,
,,,0.010968000000,  -0.00080,
,,,0.010969000000,   0.00000,
,,,0.010970000000,   0.00000,
,,,0.010971000000,  -0.00080,
,,,0.010972000000,  -0.00080,
,,,0.010973000000,   0.00000,
,,,0.010974000000,   0.00000,
,,,0.010975000000,   0.00080,
,,,0.010976000000,  -0.00080,
,,,0.010977000000,   0.00000,
,,,0.010978000000,  -0.00080,
,,,0.010979000000,  -0.00080,
,,,0.010980000000,   0.00000,
,,,0.010981000000,   0.00000,
,,,0.010982000000,  -0.00080,
,,,0.010983000000,   0.00000,
,,,0.010984000000,   0.00000,
,,,0.010985000000,  -0.00080,
,,,0.010986000000,  -0.00080,
,,,0.010987000000,  -0.00080,
,,,0.010988000000,   0.00000,
,,,0.010989000000,  -0.00160,
,,,0.010990000000,   0.00000,
,,,0.010991000000,  -0.00160,
,,,0.010992000000,  -0.00080,
,,,0.010993000000,  -0.00160,
,,,0.010994000000,  -0.00080,
,,,0.010995000000,   0.00080,
,,,0.010996000000,  -0.00080,
,,,0.010997000000,   0.00000,
,,,0.010998000000,  -0.00080,
,,,0.010999000000,   0.00000,
,,,0.011000000000,   0.00080,
,,,0.011001000000,  -0.00080,
,,,0.011002000000,  -0.00160,
,,,0.011003000000,  -0.00080,
,,,0.011004000000,  -0.00080,
,,,0.011005000000,   0.00080,
,,,0.011006000000,  -0.00160,
,,,0.011007000000,   0.00000,
,,,0.011008000000,   0.00000,
,,,0.011009000000,   0.00000,
,,,0.011010000000,  -0.00080,
,,,0.011011000000,   0.00000,
,,,0.011012000000,   0.00000,
,,,0.011013000000,   0.00080,
,,,0.011014000000,  -0.00080,
,,,0.011015000000,   0.00000,
,,,0.011016000000,  -0.00080,
,,,0.011017000000,   0.00000,
,,,0.011018000000,   0.00080,
,,,0.011019000000,   0.00000,
,,,0.011020000000,   0.00000,
,,,0.011021000000,  -0.00080,
,,,0.011022000000,  -0.00080,
,,,0.011023000000,  -0.00080,
,,,0.011024000000,   0.00000,
,,,0.011025000000,   0.00000,
,,,0.011026000000,  -0.00080,
,,,0.011027000000,   0.00000,
,,,0.011028000000,   0.00000,
,,,0.011029000000,   0.00000,
,,,0.011030000000,   0.00000,
,,,0.011031000000,  -0.00080,
,,,0.011032000000,   0.00000,
,,,0.011033000000,   0.00080,
,,,0.011034000000,   0.00080,
,,,0.011035000000,  -0.00080,
,,,0.011036000000,  -0.00080,
,,,0.011037000000,   0.00160,
,,,0.011038000000,   0.00160,
,,,0.011039000000,   0.00160,
,,,0.011040000000,   0.00080,
,,,0.011041000000,  -0.00080,
,,,0.011042000000,   0.00160,
,,,0.011043000000,   0.00080,
,,,0.011044000000,   0.00400,
,,,0.011045000000,   0.00320,
,,,0.011046000000,   0.00560,
,,,0.011047000000,   0.00320,
,,,0.011048000000,   0.00160,
,,,0.011049000000,   0.00640,
,,,0.011050000000,   0.01040,
,,,0.011051000000,   0.00960,
,,,0.011052000000,   0.01840,
,,,0.011053000000,   0.01600,
,,,0.011054000000,   0.01120,
,,,0.011055000000,   0.00560,
,,,0.011056000000,   0.00480,
,,,0.011057000000,   0.00480,
,,,0.011058000000,   0.00160,
,,,0.011059000000,   0.00080,
,,,0.011060000000,   0.00160,
,,,0.011061000000,   0.00160,
,,,0.011062000000,   0.00080,
,,,0.011063000000,   0.00000,
,,,0.011064000000,   0.00000,
,,,0.011065000000,   0.00160,
,,,0.011066000000,  -0.00080,
,,,0.011067000000,   0.00000,
,,,0.011068000000,  -0.00080,
,,,0.011069000000,   0.00000,
,,,0.011070000000,   0.00000,
,,,0.011071000000,  -0.00160,
,,,0.011072000000,  -0.00080,
,,,0.011073000000,   0.00000,
,,,0.011074000000,   0.00000,
,,,0.011075000000,  -0.00080,
,,,0.011076000000,   0.00000,
,,,0.011077000000,   0.00000,
,,,0.011078000000,   0.00000,
,,,0.011079000000,   0.00000,
,,,0.011080000000,   0.00000,
,,,0.011081000000,  -0.00080,
,,,0.011082000000,  -0.00080,
,,,0.011083000000,   0.00080,
,,,0.011084000000,   0.00000,
,,,0.011085000000,   0.00080,
,,,0.011086000000,  -0.00080,
,,,0.011087000000,  -0.00080,
,,,0.011088000000,   0.00000,
,,,0.011089000000,   0.00000,
,,,0.011090000000,   0.00000,
,,,0.011091000000,   0.00000,
,,,0.011092000000,  -0.00080,
,,,0.011093000000,   0.00080,
,,,0.011094000000,  -0.00160,
,,,0.011095000000,  -0.00080,
,,,0.011096000000,   0.00000,
,,,0.011097000000,   0.00000,
,,,0.011098000000,  -0.00080,
,,,0.011099000000,   0.00000,
,,,0.011100000000,   0.00080,
,,,0.011101000000,   0.00000,
,,,0.011102000000,  -0.00160,
,,,0.011103000000,   0.00080,
,,,0.011104000000,  -0.00080,
,,,0.011105000000,   0.00000,
,,,0.011106000000,   0.00000,
,,,0.011107000000,   0.00000,
,,,0.011108000000,   0.00000,
,,,0.011109000000,   0.00000,
,,,0.011110000000,   0.00080,
,,,0.011111000000,   0.00000,
,,,0.011112000000,   0.00000,
,,,0.011113000000,   0.00000,
,,,0.011114000000,  -0.00080,
,,,0.011115000000,   0.00080,
,,,0.011116000000,   0.00000,
,,,0.011117000000,  -0.00080,
,,,0.011118000000,  -0.00080,
,,,0.011119000000,   0.00000,
,,,0.011120000000,   0.00080,
,,,0.011121000000,   0.00160,
,,,0.011122000000,   0.00080,
,,,0.011123000000,   0.00080,
,,,0.011124000000,   0.00080,
,,,0.011125000000,   0.00000,
,,,0.011126000000,  -0.00160,
,,,0.011127000000,   0.00000,
,,,0.011128000000,   0.00000,
,,,0.011129000000,   0.00000,
,,,0.011130000000,  -0.00080,
,,,0.011131000000,   0.00000,
,,,0.011132000000,  -0.00160,
,,,0.011133000000,  -0.00080,
,,,0.011134000000,   0.00000,
,,,0.011135000000,  -0.00080,
,,,0.011136000000,  -0.00080,
,,,0.011137000000,  -0.00080,
,,,0.011138000000,  -0.00160,
,,,0.011139000000,  -0.00160,
,,,0.011140000000,   0.00160,
,,,0.011141000000,   0.00080,
,,,0.011142000000,   0.00000,
,,,0.011143000000,   0.00000,
,,,0.011144000000,   0.00000,
,,,0.011145000000,   0.00080,
,,,0.011146000000,   0.00000,
,,,0.011147000000,   0.00000,
,,,0.011148000000,  -0.00080,
,,,0.011149000000,   0.00080,
,,,0.011150000000,  -0.00080,
,,,0.011151000000,  -0.00160,
,,,0.011152000000,   0.00000,
,,,0.011153000000,   0.00080,
,,,0.011154000000,  -0.00160,
,,,0.011155000000,  -0.00080,
,,,0.011156000000,  -0.00160,
,,,0.011157000000,  -0.00080,
,,,0.011158000000,   0.00000,
,,,0.011159000000,  -0.00080,
,,,0.011160000000,   0.00000,
,,,0.011161000000,   0.00000,
,,,0.011162000000,   0.00000,
,,,0.011163000000,  -0.00080,
,,,0.011164000000,   0.00000,
